Lab1_D7Report/analysis/D7/实验三/SUBCK-V/SUBCK-Vs/新建文件2.csv

X,CH1,CH2,Start,Increment,
Sequence,Volt,Volt,-3.000000e-04,5.000000e-07
0,4.16e+01,-8.00e-01,
1,4.24e+01,8.00e-01,
2,4.16e+01,-8.00e-01,
3,4.24e+01,8.00e-01,
4,4.16e+01,-8.00e-01,
5,4.24e+01,8.00e-01,
6,4.24e+01,4.00e-01,
7,4.12e+01,-8.00e-01,
8,4.16e+01,-8.00e-01,
9,4.24e+01,4.00e-01,
10,4.16e+01,-8.00e-01,
11,4.24e+01,4.00e-01,
12,4.16e+01,-8.00e-01,
13,4.24e+01,8.00e-01,
14,4.16e+01,-8.00e-01,
15,4.24e+01,4.00e-01,
16,4.24e+01,8.00e-01,
17,4.16e+01,-8.00e-01,
18,4.24e+01,-8.00e-01,
19,4.12e+01,4.00e-01,
20,4.24e+01,-8.00e-01,
21,4.12e+01,8.00e-01,
22,4.24e+01,-8.00e-01,
23,4.16e+01,4.00e-01,
24,4.16e+01,-8.00e-01,
25,4.20e+01,8.00e-01,
26,4.16e+01,4.00e-01,
27,4.24e+01,-8.00e-01,
28,4.16e+01,-8.00e-01,
29,4.24e+01,8.00e-01,
30,4.16e+01,-8.00e-01,
31,4.24e+01,4.00e-01,
32,4.12e+01,-8.00e-01,
33,4.24e+01,8.00e-01,
34,4.16e+01,-8.00e-01,
35,4.24e+01,4.00e-01,
36,4.12e+01,-8.00e-01,
37,4.24e+01,4.00e-01,
38,4.16e+01,-8.00e-01,
39,4.24e+01,8.00e-01,
40,4.24e+01,-8.00e-01,
41,4.12e+01,4.00e-01,
42,4.24e+01,-8.00e-01,
43,4.12e+01,8.00e-01,
44,4.16e+01,4.00e-01,
45,4.24e+01,-8.00e-01,
46,4.24e+01,-8.00e-01,
47,4.16e+01,4.00e-01,
48,4.16e+01,-8.00e-01,
49,4.24e+01,8.00e-01,
50,4.16e+01,-8.00e-01,
51,4.24e+01,4.00e-01,
52,4.16e+01,-8.00e-01,
53,4.24e+01,4.00e-01,
54,4.24e+01,-8.00e-01,
55,4.16e+01,4.00e-01,
56,4.16e+01,-8.00e-01,
57,4.24e+01,8.00e-01,
58,4.16e+01,-8.00e-01,
59,4.24e+01,8.00e-01,
60,4.16e+01,-8.00e-01,
61,4.24e+01,8.00e-01,
62,4.16e+01,-8.00e-01,
63,4.24e+01,4.00e-01,
64,4.24e+01,-8.00e-01,
65,4.12e+01,8.00e-01,
66,4.12e+01,-8.00e-01,
67,4.24e+01,4.00e-01,
68,4.12e+01,-8.00e-01,
69,4.24e+01,8.00e-01,
70,4.40e+01,4.00e-01,
71,3.96e+01,-1.04e+01,
72,4.12e+01,-8.00e+00,
73,4.24e+01,-6.40e+00,
74,3.88e+01,-8.00e+00,
75,4.44e+01,4.80e+00,
76,4.12e+01,-8.00e-01,
77,4.24e+01,4.00e-01,
78,4.16e+01,-8.00e-01,
79,4.24e+01,4.00e-01,
80,4.16e+01,-8.00e-01,
81,4.24e+01,8.00e-01,
82,4.16e+01,-8.00e-01,
83,4.24e+01,8.00e-01,
84,4.12e+01,-8.00e-01,
85,4.24e+01,4.00e-01,
86,4.16e+01,-8.00e-01,
87,4.24e+01,4.00e-01,
88,4.16e+01,-8.00e-01,
89,4.24e+01,8.00e-01,
90,4.16e+01,-8.00e-01,
91,4.24e+01,4.00e-01,
92,4.16e+01,-8.00e-01,
93,4.24e+01,4.00e-01,
94,4.16e+01,-8.00e-01,
95,4.24e+01,8.00e-01,
96,4.16e+01,-8.00e-01,
97,4.24e+01,4.00e-01,
98,4.16e+01,4.00e-01,
99,4.24e+01,-8.00e-01,
100,4.16e+01,-8.00e-01,
101,4.24e+01,4.00e-01,
102,4.16e+01,4.00e-01,
103,4.24e+01,-8.00e-01,
104,4.16e+01,-8.00e-01,
105,4.24e+01,8.00e-01,
106,4.24e+01,-8.00e-01,
107,4.16e+01,8.00e-01,
108,4.20e+01,-8.00e-01,
109,4.16e+01,4.00e-01,
110,4.16e+01,4.00e-01,
111,4.24e+01,-8.00e-01,
112,4.16e+01,8.00e-01,
113,4.24e+01,-8.00e-01,
114,4.16e+01,-8.00e-01,
115,4.24e+01,4.00e-01,
116,4.16e+01,-8.00e-01,
117,4.24e+01,8.00e-01,
118,4.16e+01,4.00e-01,
119,4.24e+01,-8.00e-01,
120,4.24e+01,-8.00e-01,
121,4.12e+01,8.00e-01,
122,4.16e+01,-8.00e-01,
123,4.24e+01,8.00e-01,
124,4.16e+01,-8.00e-01,
125,4.24e+01,8.00e-01,
126,4.16e+01,-8.00e-01,
127,4.24e+01,8.00e-01,
128,4.16e+01,4.00e-01,
129,4.24e+01,-8.00e-01,
130,4.16e+01,-8.00e-01,
131,4.24e+01,8.00e-01,
132,4.16e+01,-8.00e-01,
133,4.24e+01,8.00e-01,
134,4.16e+01,4.00e-01,
135,4.24e+01,-8.00e-01,
136,4.16e+01,-8.00e-01,
137,4.24e+01,8.00e-01,
138,4.16e+01,4.00e-01,
139,4.24e+01,-8.00e-01,
140,4.24e+01,-8.00e-01,
141,4.16e+01,8.00e-01,
142,4.16e+01,-8.00e-01,
143,4.24e+01,4.00e-01,
144,4.16e+01,-8.00e-01,
145,4.24e+01,4.00e-01,
146,4.16e+01,-8.00e-01,
147,4.24e+01,4.00e-01,
148,4.24e+01,-8.00e-01,
149,4.16e+01,8.00e-01,
150,4.16e+01,-8.00e-01,
151,4.24e+01,4.00e-01,
152,4.24e+01,-8.00e-01,
153,4.12e+01,4.00e-01,
154,4.24e+01,-8.00e-01,
155,4.16e+01,4.00e-01,
156,4.16e+01,-8.00e-01,
157,4.24e+01,4.00e-01,
158,4.16e+01,-8.00e-01,
159,4.24e+01,8.00e-01,
160,4.16e+01,-8.00e-01,
161,4.24e+01,4.00e-01,
162,4.16e+01,4.00e-01,
163,4.24e+01,-8.00e-01,
164,4.16e+01,-8.00e-01,
165,4.24e+01,4.00e-01,
166,4.24e+01,-8.00e-01,
167,4.12e+01,4.00e-01,
168,4.24e+01,-8.00e-01,
169,4.12e+01,4.00e-01,
170,4.16e+01,-8.00e-01,
171,4.24e+01,4.00e-01,
172,4.16e+01,-8.00e-01,
173,4.24e+01,8.00e-01,
174,4.16e+01,-8.00e-01,
175,4.24e+01,8.00e-01,
176,4.16e+01,-8.00e-01,
177,4.24e+01,4.00e-01,
178,4.24e+01,4.00e-01,
179,4.12e+01,-8.00e-01,
180,4.16e+01,4.00e-01,
181,4.24e+01,-8.00e-01,
182,4.16e+01,-8.00e-01,
183,4.24e+01,4.00e-01,
184,4.16e+01,-8.00e-01,
185,4.24e+01,8.00e-01,
186,4.16e+01,4.00e-01,
187,4.24e+01,-8.00e-01,
188,4.16e+01,-8.00e-01,
189,4.24e+01,8.00e-01,
190,4.16e+01,-8.00e-01,
191,4.24e+01,4.00e-01,
192,4.16e+01,-8.00e-01,
193,4.24e+01,8.00e-01,
194,4.16e+01,-8.00e-01,
195,4.24e+01,8.00e-01,
196,4.24e+01,-8.00e-01,
197,4.12e+01,8.00e-01,
198,4.12e+01,4.00e-01,
199,4.24e+01,-8.00e-01,
200,4.24e+01,-8.00e-01,
201,4.12e+01,8.00e-01,
202,4.40e+01,0.00e+00,
203,3.92e+01,-1.04e+01,
204,4.12e+01,-8.00e+00,
205,4.24e+01,-6.00e+00,
206,3.88e+01,-8.00e+00,
207,4.48e+01,4.80e+00,
208,4.24e+01,-8.00e-01,
209,4.16e+01,8.00e-01,
210,4.12e+01,4.00e-01,
211,4.24e+01,-8.00e-01,
212,4.16e+01,4.00e-01,
213,4.24e+01,-8.00e-01,
214,4.16e+01,-8.00e-01,
215,4.24e+01,8.00e-01,
216,4.16e+01,4.00e-01,
217,4.24e+01,-8.00e-01,
218,4.16e+01,-8.00e-01,
219,4.24e+01,4.00e-01,
220,4.16e+01,-8.00e-01,
221,4.24e+01,8.00e-01,
222,4.16e+01,4.00e-01,
223,4.24e+01,-8.00e-01,
224,4.16e+01,4.00e-01,
225,4.24e+01,-8.00e-01,
226,4.16e+01,4.00e-01,
227,4.24e+01,-8.00e-01,
228,4.16e+01,4.00e-01,
229,4.24e+01,-8.00e-01,
230,4.16e+01,-8.00e-01,
231,4.24e+01,4.00e-01,
232,4.16e+01,8.00e-01,
233,4.24e+01,-8.00e-01,
234,4.16e+01,-8.00e-01,
235,4.24e+01,4.00e-01,
236,4.16e+01,-8.00e-01,
237,4.24e+01,4.00e-01,
238,4.16e+01,-8.00e-01,
239,4.24e+01,4.00e-01,
240,4.16e+01,-8.00e-01,
241,4.24e+01,4.00e-01,
242,4.16e+01,-8.00e-01,
243,4.24e+01,8.00e-01,
244,4.24e+01,-8.00e-01,
245,4.16e+01,4.00e-01,
246,4.16e+01,-8.00e-01,
247,4.24e+01,4.00e-01,
248,4.12e+01,4.00e-01,
249,4.24e+01,-8.00e-01,
250,4.16e+01,-8.00e-01,
251,4.24e+01,4.00e-01,
252,4.16e+01,-8.00e-01,
253,4.24e+01,4.00e-01,
254,4.16e+01,-8.00e-01,
255,4.24e+01,4.00e-01,
256,4.16e+01,-8.00e-01,
257,4.24e+01,8.00e-01,
258,4.16e+01,4.00e-01,
259,4.24e+01,-8.00e-01,
260,4.24e+01,4.00e-01,
261,4.16e+01,-8.00e-01,
262,4.16e+01,-8.00e-01,
263,4.24e+01,4.00e-01,
264,4.16e+01,-8.00e-01,
265,4.24e+01,8.00e-01,
266,4.16e+01,-8.00e-01,
267,4.24e+01,8.00e-01,
268,4.16e+01,-8.00e-01,
269,4.24e+01,8.00e-01,
270,4.16e+01,4.00e-01,
271,4.24e+01,-8.00e-01,
272,4.16e+01,-8.00e-01,
273,4.24e+01,8.00e-01,
274,4.24e+01,4.00e-01,
275,4.16e+01,-8.00e-01,
276,4.16e+01,-8.00e-01,
277,4.24e+01,8.00e-01,
278,4.16e+01,-8.00e-01,
279,4.24e+01,4.00e-01,
280,4.24e+01,4.00e-01,
281,4.16e+01,-8.00e-01,
282,4.24e+01,-8.00e-01,
283,4.12e+01,8.00e-01,
284,4.24e+01,-8.00e-01,
285,4.12e+01,4.00e-01,
286,4.24e+01,-8.00e-01,
287,4.12e+01,4.00e-01,
288,4.16e+01,-8.00e-01,
289,4.24e+01,8.00e-01,
290,4.16e+01,4.00e-01,
291,4.24e+01,-8.00e-01,
292,4.16e+01,-8.00e-01,
293,4.24e+01,8.00e-01,
294,4.24e+01,4.00e-01,
295,4.12e+01,-8.00e-01,
296,4.16e+01,4.00e-01,
297,4.24e+01,-8.00e-01,
298,4.24e+01,-8.00e-01,
299,4.12e+01,4.00e-01,
300,4.24e+01,-8.00e-01,
301,4.12e+01,4.00e-01,
302,4.24e+01,-8.00e-01,
303,4.12e+01,8.00e-01,
304,4.16e+01,-8.00e-01,
305,4.24e+01,8.00e-01,
306,4.16e+01,-8.00e-01,
307,4.24e+01,4.00e-01,
308,4.24e+01,-8.00e-01,
309,4.12e+01,8.00e-01,
310,4.16e+01,-8.00e-01,
311,4.24e+01,4.00e-01,
312,4.16e+01,4.00e-01,
313,4.24e+01,-8.00e-01,
314,4.16e+01,-8.00e-01,
315,4.24e+01,8.00e-01,
316,4.20e+01,-8.00e-01,
317,4.16e+01,4.00e-01,
318,4.16e+01,-8.00e-01,
319,4.24e+01,4.00e-01,
320,4.16e+01,-8.00e-01,
321,4.24e+01,8.00e-01,
322,4.24e+01,-8.00e-01,
323,4.12e+01,4.00e-01,
324,4.16e+01,-8.00e-01,
325,4.24e+01,4.00e-01,
326,4.24e+01,-8.00e-01,
327,4.12e+01,4.00e-01,
328,4.24e+01,-8.00e-01,
329,4.12e+01,8.00e-01,
330,4.12e+01,4.00e-01,
331,4.24e+01,-8.00e-01,
332,4.00e+01,8.00e-01,
333,4.40e+01,-1.04e+01,
334,4.12e+01,-8.00e+00,
335,4.24e+01,-6.00e+00,
336,4.08e+01,-8.40e+00,
337,4.40e+01,3.60e+00,
338,3.84e+01,-4.80e+00,
339,4.44e+01,2.00e+00,
340,4.16e+01,-8.00e-01,
341,4.24e+01,8.00e-01,
342,4.24e+01,-8.00e-01,
343,4.12e+01,4.00e-01,
344,4.16e+01,-8.00e-01,
345,4.24e+01,8.00e-01,
346,4.16e+01,-8.00e-01,
347,4.24e+01,8.00e-01,
348,4.24e+01,-8.00e-01,
349,4.12e+01,4.00e-01,
350,4.24e+01,-8.00e-01,
351,4.12e+01,4.00e-01,
352,4.24e+01,4.00e-01,
353,4.12e+01,-8.00e-01,
354,4.16e+01,-8.00e-01,
355,4.24e+01,8.00e-01,
356,4.24e+01,-8.00e-01,
357,4.16e+01,8.00e-01,
358,4.16e+01,-8.00e-01,
359,4.24e+01,4.00e-01,
360,4.16e+01,-8.00e-01,
361,4.24e+01,4.00e-01,
362,4.16e+01,-8.00e-01,
363,4.24e+01,8.00e-01,
364,4.16e+01,-8.00e-01,
365,4.24e+01,4.00e-01,
366,4.16e+01,-8.00e-01,
367,4.24e+01,4.00e-01,
368,4.16e+01,-8.00e-01,
369,4.24e+01,8.00e-01,
370,4.24e+01,4.00e-01,
371,4.16e+01,-8.00e-01,
372,4.16e+01,-8.00e-01,
373,4.24e+01,8.00e-01,
374,4.24e+01,4.00e-01,
375,4.16e+01,-8.00e-01,
376,4.24e+01,-8.00e-01,
377,4.12e+01,8.00e-01,
378,4.16e+01,-8.00e-01,
379,4.24e+01,4.00e-01,
380,4.16e+01,-8.00e-01,
381,4.24e+01,8.00e-01,
382,4.16e+01,-8.00e-01,
383,4.24e+01,8.00e-01,
384,4.16e+01,-8.00e-01,
385,4.24e+01,8.00e-01,
386,4.12e+01,-8.00e-01,
387,4.24e+01,4.00e-01,
388,4.16e+01,4.00e-01,
389,4.24e+01,-8.00e-01,
390,4.16e+01,4.00e-01,
391,4.24e+01,-8.00e-01,
392,4.16e+01,-8.00e-01,
393,4.24e+01,8.00e-01,
394,4.16e+01,4.00e-01,
395,4.24e+01,-8.00e-01,
396,4.16e+01,-8.00e-01,
397,4.24e+01,4.00e-01,
398,4.16e+01,-8.00e-01,
399,4.24e+01,4.00e-01,
400,4.16e+01,-8.00e-01,
401,4.24e+01,4.00e-01,
402,4.12e+01,4.00e-01,
403,4.24e+01,-8.00e-01,
404,4.16e+01,-8.00e-01,
405,4.24e+01,4.00e-01,
406,4.16e+01,-8.00e-01,
407,4.24e+01,8.00e-01,
408,4.16e+01,8.00e-01,
409,4.24e+01,-8.00e-01,
410,4.16e+01,-8.00e-01,
411,4.24e+01,4.00e-01,
412,4.16e+01,-8.00e-01,
413,4.24e+01,4.00e-01,
414,4.16e+01,-8.00e-01,
415,4.24e+01,8.00e-01,
416,4.16e+01,-8.00e-01,
417,4.24e+01,8.00e-01,
418,4.16e+01,-8.00e-01,
419,4.24e+01,4.00e-01,
420,4.16e+01,-8.00e-01,
421,4.24e+01,8.00e-01,
422,4.16e+01,-8.00e-01,
423,4.24e+01,4.00e-01,
424,4.16e+01,-8.00e-01,
425,4.24e+01,4.00e-01,
426,4.16e+01,-8.00e-01,
427,4.24e+01,4.00e-01,
428,4.24e+01,-8.00e-01,
429,4.12e+01,8.00e-01,
430,4.12e+01,-8.00e-01,
431,4.24e+01,8.00e-01,
432,4.16e+01,-8.00e-01,
433,4.24e+01,4.00e-01,
434,4.16e+01,4.00e-01,
435,4.24e+01,-8.00e-01,
436,4.16e+01,4.00e-01,
437,4.24e+01,-8.00e-01,
438,4.16e+01,-8.00e-01,
439,4.24e+01,8.00e-01,
440,4.24e+01,-8.00e-01,
441,4.16e+01,4.00e-01,
442,4.12e+01,-8.00e-01,
443,4.24e+01,8.00e-01,
444,4.16e+01,-8.00e-01,
445,4.24e+01,8.00e-01,
446,4.16e+01,-8.00e-01,
447,4.24e+01,8.00e-01,
448,4.16e+01,-8.00e-01,
449,4.24e+01,8.00e-01,
450,4.24e+01,-8.00e-01,
451,4.16e+01,8.00e-01,
452,4.16e+01,-8.00e-01,
453,4.24e+01,8.00e-01,
454,4.16e+01,-8.00e-01,
455,4.24e+01,8.00e-01,
456,4.16e+01,-8.00e-01,
457,4.24e+01,8.00e-01,
458,4.16e+01,-8.00e-01,
459,4.24e+01,4.00e-01,
460,4.12e+01,-8.00e-01,
461,4.28e+01,4.00e-01,
462,4.24e+01,-8.00e-01,
463,4.12e+01,4.00e-01,
464,4.00e+01,0.00e+00,
465,4.36e+01,-1.04e+01,
466,4.24e+01,-6.00e+00,
467,4.12e+01,-8.40e+00,
468,3.88e+01,-8.00e+00,
469,4.44e+01,5.20e+00,
470,4.24e+01,-8.00e-01,
471,4.12e+01,4.00e-01,
472,4.16e+01,4.00e-01,
473,4.24e+01,-8.00e-01,
474,4.16e+01,4.00e-01,
475,4.24e+01,-8.00e-01,
476,4.16e+01,-8.00e-01,
477,4.24e+01,8.00e-01,
478,4.16e+01,-8.00e-01,
479,4.24e+01,8.00e-01,
480,4.24e+01,-8.00e-01,
481,4.16e+01,4.00e-01,
482,4.12e+01,-8.00e-01,
483,4.24e+01,8.00e-01,
484,4.16e+01,-8.00e-01,
485,4.24e+01,8.00e-01,
486,4.16e+01,-8.00e-01,
487,4.24e+01,8.00e-01,
488,4.16e+01,-8.00e-01,
489,4.24e+01,4.00e-01,
490,4.16e+01,4.00e-01,
491,4.24e+01,-8.00e-01,
492,4.16e+01,-8.00e-01,
493,4.24e+01,8.00e-01,
494,4.16e+01,-8.00e-01,
495,4.24e+01,8.00e-01,
496,4.16e+01,4.00e-01,
497,4.24e+01,-8.00e-01,
498,4.16e+01,-8.00e-01,
499,4.24e+01,4.00e-01,
500,4.16e+01,-8.00e-01,
501,4.24e+01,8.00e-01,
502,4.16e+01,-8.00e-01,
503,4.24e+01,4.00e-01,
504,4.16e+01,-8.00e-01,
505,4.24e+01,8.00e-01,
506,4.16e+01,-8.00e-01,
507,4.24e+01,8.00e-01,
508,4.16e+01,4.00e-01,
509,4.24e+01,-8.00e-01,
510,4.16e+01,-8.00e-01,
511,4.24e+01,4.00e-01,
512,4.16e+01,-8.00e-01,
513,4.24e+01,8.00e-01,
514,4.16e+01,-8.00e-01,
515,4.24e+01,4.00e-01,
516,4.24e+01,4.00e-01,
517,4.16e+01,-8.00e-01,
518,4.24e+01,-8.00e-01,
519,4.16e+01,4.00e-01,
520,4.16e+01,-8.00e-01,
521,4.24e+01,8.00e-01,
522,4.16e+01,-8.00e-01,
523,4.24e+01,4.00e-01,
524,4.16e+01,-8.00e-01,
525,4.24e+01,4.00e-01,
526,4.20e+01,-8.00e-01,
527,4.12e+01,4.00e-01,
528,4.16e+01,-8.00e-01,
529,4.24e+01,4.00e-01,
530,4.16e+01,-8.00e-01,
531,4.24e+01,4.00e-01,
532,4.12e+01,-8.00e-01,
533,4.24e+01,4.00e-01,
534,4.16e+01,-8.00e-01,
535,4.24e+01,4.00e-01,
536,4.00e+01,4.00e-01,
537,4.40e+01,-1.00e+01,
538,4.24e+01,-6.00e+00,
539,4.12e+01,-8.00e+00,
540,4.12e+01,-8.00e+00,
541,4.28e+01,-6.00e+00,
542,4.16e+01,-6.40e+00,
543,4.24e+01,-8.00e+00,
544,4.24e+01,-6.40e+00,
545,4.12e+01,-8.00e+00,
546,4.12e+01,-6.40e+00,
547,4.28e+01,-8.00e+00,
548,4.12e+01,-8.00e+00,
549,4.24e+01,-6.40e+00,
550,4.12e+01,-7.60e+00,
551,4.24e+01,-6.40e+00,
552,4.12e+01,-8.00e+00,
553,4.24e+01,-6.40e+00,
554,4.20e+01,-8.00e+00,
555,4.12e+01,-6.40e+00,
556,4.12e+01,-8.00e+00,
557,4.24e+01,-6.40e+00,
558,4.12e+01,-8.00e+00,
559,4.24e+01,-6.40e+00,
560,4.44e+01,-8.00e+00,
561,3.84e+01,4.80e+00,
562,4.12e+01,-8.00e-01,
563,4.24e+01,8.00e-01,
564,4.12e+01,8.00e-01,
565,4.24e+01,-8.00e-01,
566,4.12e+01,-8.00e-01,
567,4.24e+01,4.00e-01,
568,4.12e+01,4.00e-01,
569,4.20e+01,-8.00e-01,
570,4.12e+01,-8.00e-01,
571,4.24e+01,8.00e-01,
572,4.12e+01,-8.00e-01,
573,4.24e+01,8.00e-01,
574,4.12e+01,-8.00e-01,
575,4.20e+01,4.00e-01,
576,4.12e+01,-8.00e-01,
577,4.24e+01,8.00e-01,
578,4.12e+01,-8.00e-01,
579,4.24e+01,4.00e-01,
580,4.12e+01,-8.00e-01,
581,4.24e+01,8.00e-01,
582,4.12e+01,4.00e-01,
583,4.20e+01,-8.00e-01,
584,4.12e+01,4.00e-01,
585,4.24e+01,-8.00e-01,
586,4.12e+01,-8.00e-01,
587,4.24e+01,8.00e-01,
588,4.12e+01,4.00e-01,
589,4.24e+01,-8.00e-01,
590,4.12e+01,-8.00e-01,
591,4.20e+01,4.00e-01,
592,4.12e+01,-8.00e-01,
593,4.24e+01,8.00e-01,
594,4.24e+01,4.00e-01,
595,3.92e+01,-1.04e+01,
596,4.36e+01,-4.00e+00,
597,3.96e+01,-8.00e+00,
598,4.00e+01,-6.40e+00,
599,4.88e+01,-8.40e+00,
600,4.88e+01,-8.00e+00,
601,5.96e+01,4.80e+00,
602,6.16e+01,-8.00e-01,
603,5.16e+01,8.00e-01,
604,5.20e+01,-8.00e-01,
605,4.40e+01,8.00e-01,
606,4.48e+01,-8.00e-01,
607,4.20e+01,8.00e-01,
608,4.28e+01,-8.00e-01,
609,4.16e+01,8.00e-01,
610,4.16e+01,-8.00e-01,
611,4.20e+01,8.00e-01,
612,4.12e+01,-8.00e-01,
613,4.24e+01,4.00e-01,
614,4.12e+01,-8.00e-01,
615,4.24e+01,4.00e-01,
616,4.12e+01,4.00e-01,
617,4.24e+01,-8.00e-01,
618,4.12e+01,-8.00e-01,
619,4.24e+01,8.00e-01,
620,4.12e+01,-8.00e-01,
621,4.24e+01,8.00e-01,
622,4.12e+01,-8.00e-01,
623,4.24e+01,8.00e-01,
624,4.12e+01,-8.00e-01,
625,4.24e+01,4.00e-01,
626,4.12e+01,-8.00e-01,
627,4.24e+01,8.00e-01,
628,4.12e+01,4.00e-01,
629,4.24e+01,-8.00e-01,
630,4.12e+01,4.00e-01,
631,4.24e+01,-8.00e-01,
632,4.12e+01,-8.00e-01,
633,4.24e+01,4.00e-01,
634,4.12e+01,-8.00e-01,
635,4.24e+01,8.00e-01,
636,4.12e+01,-8.00e-01,
637,4.24e+01,8.00e-01,
638,4.12e+01,-8.00e-01,
639,4.24e+01,8.00e-01,
640,4.20e+01,-8.00e-01,
641,4.12e+01,4.00e-01,
642,4.12e+01,-8.00e-01,
643,4.24e+01,4.00e-01,
644,4.12e+01,-8.00e-01,
645,4.24e+01,8.00e-01,
646,4.12e+01,-8.00e-01,
647,4.24e+01,4.00e-01,
648,4.12e+01,-8.00e-01,
649,4.24e+01,8.00e-01,
650,4.12e+01,-8.00e-01,
651,4.24e+01,4.00e-01,
652,4.12e+01,-8.00e-01,
653,4.24e+01,4.00e-01,
654,4.12e+01,-8.00e-01,
655,4.24e+01,4.00e-01,
656,4.12e+01,-8.00e-01,
657,4.24e+01,4.00e-01,
658,4.12e+01,-8.00e-01,
659,4.20e+01,4.00e-01,
660,4.12e+01,-8.00e-01,
661,4.24e+01,8.00e-01,
662,4.12e+01,4.00e-01,
663,4.24e+01,-8.00e-01,
664,4.12e+01,4.00e-01,
665,4.24e+01,-8.00e-01,
666,4.12e+01,-8.00e-01,
667,4.24e+01,8.00e-01,
668,4.12e+01,-8.00e-01,
669,4.24e+01,4.00e-01,
670,4.12e+01,-8.00e-01,
671,4.24e+01,4.00e-01,
672,4.12e+01,-8.00e-01,
673,4.24e+01,8.00e-01,
674,4.12e+01,-8.00e-01,
675,4.24e+01,8.00e-01,
676,4.12e+01,-8.00e-01,
677,4.24e+01,8.00e-01,
678,4.12e+01,-8.00e-01,
679,4.24e+01,8.00e-01,
680,4.12e+01,-8.00e-01,
681,4.24e+01,8.00e-01,
682,4.12e+01,-8.00e-01,
683,4.24e+01,4.00e-01,
684,4.12e+01,-8.00e-01,
685,4.24e+01,8.00e-01,
686,4.12e+01,4.00e-01,
687,4.24e+01,-8.00e-01,
688,4.12e+01,-8.00e-01,
689,4.24e+01,8.00e-01,
690,4.12e+01,-8.00e-01,
691,4.24e+01,4.00e-01,
692,4.24e+01,-8.00e-01,
693,4.12e+01,8.00e-01,
694,4.12e+01,4.00e-01,
695,4.24e+01,-8.00e-01,
696,4.12e+01,4.00e-01,
697,4.24e+01,-8.00e-01,
698,4.12e+01,-8.00e-01,
699,4.24e+01,4.00e-01,
700,4.12e+01,4.00e-01,
701,4.20e+01,-8.00e-01,
702,4.12e+01,4.00e-01,
703,4.24e+01,-8.00e-01,
704,4.12e+01,-8.00e-01,
705,4.24e+01,8.00e-01,
706,4.12e+01,-8.00e-01,
707,4.20e+01,8.00e-01,
708,4.12e+01,-8.00e-01,
709,4.24e+01,8.00e-01,
710,4.12e+01,-8.00e-01,
711,4.24e+01,8.00e-01,
712,4.12e+01,-8.00e-01,
713,4.24e+01,4.00e-01,
714,4.12e+01,-8.00e-01,
715,4.20e+01,4.00e-01,
716,4.12e+01,-8.00e-01,
717,4.24e+01,4.00e-01,
718,4.12e+01,-8.00e-01,
719,4.24e+01,8.00e-01,
720,4.12e+01,4.00e-01,
721,4.24e+01,-8.00e-01,
722,4.12e+01,-8.00e-01,
723,4.24e+01,8.00e-01,
724,4.12e+01,-8.00e-01,
725,4.24e+01,8.00e-01,
726,4.36e+01,4.00e-01,
727,3.96e+01,-1.00e+01,
728,4.12e+01,-6.00e+00,
729,4.24e+01,-8.00e+00,
730,3.88e+01,-8.00e+00,
731,4.44e+01,4.80e+00,
732,4.44e+01,1.20e+00,
733,3.92e+01,-1.60e+00,
734,4.12e+01,-8.00e-01,
735,4.24e+01,4.00e-01,
736,4.12e+01,-8.00e-01,
737,4.24e+01,4.00e-01,
738,4.12e+01,-8.00e-01,
739,4.24e+01,4.00e-01,
740,4.12e+01,-8.00e-01,
741,4.24e+01,4.00e-01,
742,4.20e+01,-8.00e-01,
743,4.12e+01,4.00e-01,
744,4.12e+01,-8.00e-01,
745,4.20e+01,8.00e-01,
746,4.12e+01,-8.00e-01,
747,4.24e+01,8.00e-01,
748,4.12e+01,-8.00e-01,
749,4.20e+01,8.00e-01,
750,4.12e+01,-8.00e-01,
751,4.24e+01,8.00e-01,
752,4.12e+01,-8.00e-01,
753,4.24e+01,8.00e-01,
754,4.12e+01,-8.00e-01,
755,4.24e+01,4.00e-01,
756,4.12e+01,-8.00e-01,
757,4.24e+01,4.00e-01,
758,4.12e+01,-8.00e-01,
759,4.24e+01,4.00e-01,
760,4.12e+01,-8.00e-01,
761,4.24e+01,4.00e-01,
762,4.12e+01,-8.00e-01,
763,4.24e+01,4.00e-01,
764,4.12e+01,-8.00e-01,
765,4.24e+01,4.00e-01,
766,4.12e+01,4.00e-01,
767,4.24e+01,-8.00e-01,
768,4.12e+01,4.00e-01,
769,4.24e+01,-8.00e-01,
770,4.12e+01,-8.00e-01,
771,4.24e+01,4.00e-01,
772,4.12e+01,-8.00e-01,
773,4.24e+01,8.00e-01,
774,4.12e+01,-8.00e-01,
775,4.24e+01,8.00e-01,
776,4.24e+01,-8.00e-01,
777,4.12e+01,8.00e-01,
778,4.12e+01,-8.00e-01,
779,4.24e+01,4.00e-01,
780,4.24e+01,-8.00e-01,
781,4.12e+01,4.00e-01,
782,4.12e+01,-8.00e-01,
783,4.24e+01,4.00e-01,
784,4.12e+01,4.00e-01,
785,4.20e+01,-8.00e-01,
786,4.12e+01,-8.00e-01,
787,4.24e+01,8.00e-01,
788,4.12e+01,-8.00e-01,
789,4.24e+01,4.00e-01,
790,4.12e+01,4.00e-01,
791,4.24e+01,-8.00e-01,
792,4.12e+01,-8.00e-01,
793,4.24e+01,4.00e-01,
794,4.12e+01,-8.00e-01,
795,4.24e+01,8.00e-01,
796,4.12e+01,-8.00e-01,
797,4.24e+01,8.00e-01,
798,4.12e+01,-8.00e-01,
799,4.20e+01,4.00e-01,
800,4.12e+01,-8.00e-01,
801,4.24e+01,8.00e-01,
802,4.12e+01,-8.00e-01,
803,4.24e+01,8.00e-01,
804,4.12e+01,-8.00e-01,
805,4.24e+01,8.00e-01,
806,4.12e+01,-8.00e-01,
807,4.24e+01,8.00e-01,
808,4.12e+01,4.00e-01,
809,4.24e+01,-8.00e-01,
810,4.12e+01,-8.00e-01,
811,4.24e+01,8.00e-01,
812,4.12e+01,-8.00e-01,
813,4.20e+01,4.00e-01,
814,4.12e+01,-8.00e-01,
815,4.24e+01,4.00e-01,
816,4.12e+01,-8.00e-01,
817,4.24e+01,8.00e-01,
818,4.12e+01,-8.00e-01,
819,4.24e+01,4.00e-01,
820,4.12e+01,-8.00e-01,
821,4.24e+01,4.00e-01,
822,4.12e+01,-8.00e-01,
823,4.24e+01,4.00e-01,
824,4.12e+01,-8.00e-01,
825,4.24e+01,8.00e-01,
826,4.12e+01,-8.00e-01,
827,4.24e+01,8.00e-01,
828,4.12e+01,-8.00e-01,
829,4.24e+01,4.00e-01,
830,4.12e+01,-8.00e-01,
831,4.24e+01,8.00e-01,
832,4.20e+01,-8.00e-01,
833,4.12e+01,8.00e-01,
834,4.12e+01,-8.00e-01,
835,4.24e+01,4.00e-01,
836,4.12e+01,-8.00e-01,
837,4.24e+01,8.00e-01,
838,4.12e+01,-8.00e-01,
839,4.24e+01,4.00e-01,
840,4.12e+01,-8.00e-01,
841,4.24e+01,8.00e-01,
842,4.12e+01,-8.00e-01,
843,4.24e+01,4.00e-01,
844,4.12e+01,8.00e-01,
845,4.24e+01,-8.00e-01,
846,4.12e+01,-8.00e-01,
847,4.24e+01,4.00e-01,
848,4.12e+01,-8.00e-01,
849,4.24e+01,4.00e-01,
850,4.12e+01,-8.00e-01,
