Lab1_D7Report/analysis/D7/实验三/SUBCK-V/SUBCK-Vs/新建文件3.csv

X,CH1,CH2,Start,Increment,
Sequence,Volt,Volt,-3.000000e-04,5.000000e-07
0,4.16e+01,-7.60e+00,
1,4.24e+01,-6.00e+00,
2,4.16e+01,-6.40e+00,
3,4.24e+01,-7.60e+00,
4,4.12e+01,-7.60e+00,
5,4.24e+01,-6.00e+00,
6,4.16e+01,-7.60e+00,
7,4.24e+01,-6.00e+00,
8,4.16e+01,-7.60e+00,
9,4.24e+01,-6.00e+00,
10,4.16e+01,-7.60e+00,
11,4.24e+01,-6.40e+00,
12,4.16e+01,-7.60e+00,
13,4.24e+01,-6.00e+00,
14,4.16e+01,-7.60e+00,
15,4.24e+01,-6.00e+00,
16,4.24e+01,-7.60e+00,
17,4.16e+01,-6.00e+00,
18,4.16e+01,-6.00e+00,
19,4.24e+01,-7.60e+00,
20,4.16e+01,-6.40e+00,
21,4.24e+01,-7.60e+00,
22,4.16e+01,-6.40e+00,
23,4.24e+01,-7.60e+00,
24,4.16e+01,-6.40e+00,
25,4.24e+01,-7.60e+00,
26,4.16e+01,-6.40e+00,
27,4.24e+01,-7.60e+00,
28,4.16e+01,-7.60e+00,
29,4.24e+01,-6.00e+00,
30,4.24e+01,-6.40e+00,
31,4.12e+01,-7.60e+00,
32,4.16e+01,-7.60e+00,
33,4.24e+01,-6.00e+00,
34,4.16e+01,-7.60e+00,
35,4.24e+01,-6.00e+00,
36,4.24e+01,-7.60e+00,
37,4.12e+01,-6.40e+00,
38,4.24e+01,-7.60e+00,
39,4.12e+01,-6.40e+00,
40,4.16e+01,-6.40e+00,
41,4.24e+01,-8.00e+00,
42,4.24e+01,-6.40e+00,
43,4.12e+01,-8.00e+00,
44,4.12e+01,-8.00e+00,
45,4.24e+01,-6.00e+00,
46,4.16e+01,-6.40e+00,
47,4.24e+01,-8.00e+00,
48,4.24e+01,-6.40e+00,
49,4.12e+01,-8.00e+00,
50,4.16e+01,-6.40e+00,
51,4.24e+01,-8.00e+00,
52,4.24e+01,-6.00e+00,
53,4.12e+01,-8.40e+00,
54,4.24e+01,-8.00e+00,
55,4.12e+01,-6.00e+00,
56,4.24e+01,-8.00e+00,
57,4.12e+01,-6.40e+00,
58,4.16e+01,-6.40e+00,
59,4.24e+01,-8.00e+00,
60,4.16e+01,-8.00e+00,
61,4.24e+01,-6.00e+00,
62,4.16e+01,-6.40e+00,
63,4.24e+01,-8.00e+00,
64,4.16e+01,-8.00e+00,
65,4.24e+01,-6.00e+00,
66,3.84e+01,-7.60e+00,
67,4.56e+01,4.40e+00,
68,4.24e+01,-8.00e-01,
69,4.12e+01,8.00e-01,
70,4.24e+01,4.00e-01,
71,4.12e+01,-8.00e-01,
72,3.92e+01,8.00e-01,
73,4.40e+01,-9.60e+00,
74,4.32e+01,-6.00e+00,
75,4.04e+01,-7.60e+00,
76,4.24e+01,-6.40e+00,
77,4.12e+01,-8.00e+00,
78,4.16e+01,-6.40e+00,
79,4.24e+01,-8.40e+00,
80,4.24e+01,-6.40e+00,
81,4.12e+01,-8.00e+00,
82,4.24e+01,-6.40e+00,
83,4.12e+01,-8.00e+00,
84,4.16e+01,-6.40e+00,
85,4.24e+01,-8.00e+00,
86,4.16e+01,-8.00e+00,
87,4.24e+01,-6.00e+00,
88,4.24e+01,-8.00e+00,
89,4.16e+01,-6.00e+00,
90,4.24e+01,-6.40e+00,
91,4.12e+01,-8.00e+00,
92,4.16e+01,-8.00e+00,
93,4.24e+01,-6.00e+00,
94,4.24e+01,-8.00e+00,
95,4.12e+01,-6.40e+00,
96,4.16e+01,-6.40e+00,
97,4.24e+01,-8.00e+00,
98,4.24e+01,-6.40e+00,
99,4.12e+01,-8.00e+00,
100,4.16e+01,-8.40e+00,
101,4.24e+01,-6.40e+00,
102,4.12e+01,-6.00e+00,
103,4.24e+01,-8.00e+00,
104,4.16e+01,-8.00e+00,
105,4.24e+01,-6.40e+00,
106,4.24e+01,-8.00e+00,
107,4.12e+01,-6.40e+00,
108,4.24e+01,-6.40e+00,
109,4.12e+01,-8.00e+00,
110,4.16e+01,-6.40e+00,
111,4.24e+01,-8.00e+00,
112,4.24e+01,-6.40e+00,
113,4.12e+01,-8.00e+00,
114,4.16e+01,-8.00e+00,
115,4.24e+01,-6.40e+00,
116,4.24e+01,-6.40e+00,
117,4.12e+01,-8.00e+00,
118,4.12e+01,-8.00e+00,
119,4.24e+01,-6.40e+00,
120,4.16e+01,-8.00e+00,
121,4.24e+01,-6.40e+00,
122,4.16e+01,-8.00e+00,
123,4.24e+01,-6.00e+00,
124,4.12e+01,-8.00e+00,
125,4.24e+01,-6.00e+00,
126,4.24e+01,-8.00e+00,
127,4.16e+01,-6.00e+00,
128,4.16e+01,-6.40e+00,
129,4.24e+01,-8.00e+00,
130,4.24e+01,-8.00e+00,
131,4.16e+01,-6.00e+00,
132,4.24e+01,-8.00e+00,
133,4.12e+01,-6.00e+00,
134,4.16e+01,-8.00e+00,
135,4.24e+01,-6.00e+00,
136,4.12e+01,-6.40e+00,
137,4.24e+01,-8.00e+00,
138,4.16e+01,-6.40e+00,
139,4.24e+01,-8.00e+00,
140,4.16e+01,-6.40e+00,
141,4.24e+01,-8.00e+00,
142,4.12e+01,-8.00e+00,
143,4.24e+01,-6.00e+00,
144,4.16e+01,-8.00e+00,
145,4.24e+01,-6.00e+00,
146,4.16e+01,-6.40e+00,
147,4.24e+01,-8.00e+00,
148,4.16e+01,-8.00e+00,
149,4.24e+01,-6.00e+00,
150,4.16e+01,-8.00e+00,
151,4.24e+01,-6.00e+00,
152,4.24e+01,-8.00e+00,
153,4.12e+01,-6.00e+00,
154,4.16e+01,-8.00e+00,
155,4.24e+01,-6.00e+00,
156,4.16e+01,-6.40e+00,
157,4.24e+01,-8.40e+00,
158,4.24e+01,-6.40e+00,
159,4.12e+01,-8.00e+00,
160,4.16e+01,-8.00e+00,
161,4.24e+01,-6.00e+00,
162,4.16e+01,-8.00e+00,
163,4.24e+01,-6.00e+00,
164,4.16e+01,-8.00e+00,
165,4.24e+01,-6.00e+00,
166,4.24e+01,-6.40e+00,
167,4.12e+01,-8.00e+00,
168,4.24e+01,-6.40e+00,
169,4.12e+01,-8.00e+00,
170,4.24e+01,-8.00e+00,
171,4.12e+01,-6.00e+00,
172,4.16e+01,-6.40e+00,
173,4.24e+01,-8.00e+00,
174,4.12e+01,-8.00e+00,
175,4.24e+01,-6.00e+00,
176,4.24e+01,-6.40e+00,
177,4.12e+01,-8.00e+00,
178,4.12e+01,-6.40e+00,
179,4.24e+01,-8.00e+00,
180,4.16e+01,-8.00e+00,
181,4.24e+01,-6.00e+00,
182,4.24e+01,-6.40e+00,
183,4.12e+01,-8.00e+00,
184,4.16e+01,-8.00e+00,
185,4.24e+01,-6.40e+00,
186,4.16e+01,-6.40e+00,
187,4.24e+01,-8.00e+00,
188,4.16e+01,-8.00e+00,
189,4.24e+01,-6.00e+00,
190,4.24e+01,-6.40e+00,
191,4.16e+01,-8.00e+00,
192,4.24e+01,-8.00e+00,
193,4.12e+01,-6.00e+00,
194,4.24e+01,-8.00e+00,
195,4.12e+01,-6.00e+00,
196,3.80e+01,-8.00e+00,
197,4.52e+01,4.80e+00,
198,4.24e+01,-8.00e-01,
199,4.12e+01,4.00e-01,
200,4.24e+01,4.00e-01,
201,4.12e+01,-8.00e-01,
202,4.24e+01,-8.00e-01,
203,4.12e+01,8.00e-01,
204,4.40e+01,8.00e-01,
205,3.96e+01,-9.60e+00,
206,4.12e+01,-7.60e+00,
207,4.24e+01,-6.00e+00,
208,4.12e+01,-6.40e+00,
209,4.24e+01,-8.00e+00,
210,4.16e+01,-6.40e+00,
211,4.24e+01,-8.00e+00,
212,4.24e+01,-8.00e+00,
213,4.12e+01,-6.40e+00,
214,4.24e+01,-6.40e+00,
215,4.12e+01,-8.00e+00,
216,4.24e+01,-8.00e+00,
217,4.12e+01,-6.00e+00,
218,4.16e+01,-8.00e+00,
219,4.24e+01,-6.00e+00,
220,4.16e+01,-8.40e+00,
221,4.24e+01,-6.40e+00,
222,4.16e+01,-8.00e+00,
223,4.24e+01,-6.00e+00,
224,4.24e+01,-8.00e+00,
225,4.16e+01,-6.40e+00,
226,4.16e+01,-6.40e+00,
227,4.24e+01,-8.00e+00,
228,4.12e+01,-8.00e+00,
229,4.24e+01,-6.40e+00,
230,4.24e+01,-6.40e+00,
231,4.12e+01,-8.00e+00,
232,4.16e+01,-8.00e+00,
233,4.24e+01,-6.00e+00,
234,4.24e+01,-6.40e+00,
235,4.12e+01,-8.00e+00,
236,4.12e+01,-8.00e+00,
237,4.24e+01,-6.00e+00,
238,4.16e+01,-6.40e+00,
239,4.24e+01,-8.00e+00,
240,4.24e+01,-8.00e+00,
241,4.16e+01,-6.00e+00,
242,4.16e+01,-6.40e+00,
243,4.24e+01,-8.00e+00,
244,4.24e+01,-6.40e+00,
245,4.12e+01,-8.00e+00,
246,4.16e+01,-8.00e+00,
247,4.24e+01,-6.00e+00,
248,4.16e+01,-6.40e+00,
249,4.24e+01,-8.00e+00,
250,4.16e+01,-8.00e+00,
251,4.24e+01,-6.00e+00,
252,4.16e+01,-8.00e+00,
253,4.24e+01,-6.00e+00,
254,4.16e+01,-6.40e+00,
255,4.24e+01,-8.00e+00,
256,4.16e+01,-8.00e+00,
257,4.24e+01,-6.00e+00,
258,4.16e+01,-8.00e+00,
259,4.24e+01,-6.00e+00,
260,4.16e+01,-6.40e+00,
261,4.24e+01,-8.00e+00,
262,4.16e+01,-6.40e+00,
263,4.20e+01,-8.40e+00,
264,4.24e+01,-6.40e+00,
265,4.12e+01,-8.00e+00,
266,4.16e+01,-6.40e+00,
267,4.24e+01,-8.00e+00,
268,4.16e+01,-8.00e+00,
269,4.24e+01,-6.00e+00,
270,4.16e+01,-6.40e+00,
271,4.24e+01,-8.40e+00,
272,4.24e+01,-8.00e+00,
273,4.12e+01,-6.40e+00,
274,4.16e+01,-8.00e+00,
275,4.24e+01,-6.00e+00,
276,4.16e+01,-8.00e+00,
277,4.24e+01,-6.00e+00,
278,4.16e+01,-8.00e+00,
279,4.24e+01,-6.00e+00,
280,4.16e+01,-8.00e+00,
281,4.24e+01,-6.00e+00,
282,4.24e+01,-6.00e+00,
283,4.12e+01,-8.40e+00,
284,4.16e+01,-8.00e+00,
285,4.24e+01,-6.00e+00,
286,4.16e+01,-6.40e+00,
287,4.24e+01,-8.00e+00,
288,4.24e+01,-6.40e+00,
289,4.12e+01,-8.00e+00,
290,4.12e+01,-6.40e+00,
291,4.24e+01,-8.40e+00,
292,4.16e+01,-8.00e+00,
293,4.24e+01,-6.00e+00,
294,4.24e+01,-8.00e+00,
295,4.12e+01,-6.00e+00,
296,4.24e+01,-8.00e+00,
297,4.12e+01,-6.00e+00,
298,4.16e+01,-8.00e+00,
299,4.24e+01,-6.00e+00,
300,4.24e+01,-6.40e+00,
301,4.12e+01,-8.00e+00,
302,4.24e+01,-8.00e+00,
303,4.12e+01,-6.00e+00,
304,4.24e+01,-8.00e+00,
305,4.12e+01,-6.00e+00,
306,4.12e+01,-8.00e+00,
307,4.24e+01,-6.00e+00,
308,4.24e+01,-8.00e+00,
309,4.12e+01,-6.40e+00,
310,4.16e+01,-6.00e+00,
311,4.24e+01,-8.00e+00,
312,4.24e+01,-8.00e+00,
313,4.12e+01,-6.00e+00,
314,4.24e+01,-6.00e+00,
315,4.12e+01,-8.00e+00,
316,4.16e+01,-8.40e+00,
317,4.24e+01,-6.00e+00,
318,4.24e+01,-8.00e+00,
319,4.12e+01,-6.00e+00,
320,4.16e+01,-8.00e+00,
321,4.24e+01,-6.00e+00,
322,4.16e+01,-6.40e+00,
323,4.24e+01,-8.00e+00,
324,4.24e+01,-8.00e+00,
325,4.12e+01,-6.40e+00,
326,4.24e+01,-6.00e+00,
327,4.12e+01,-8.40e+00,
328,4.56e+01,-8.00e+00,
329,3.80e+01,4.80e+00,
330,4.24e+01,-8.00e-01,
331,4.12e+01,8.00e-01,
332,4.12e+01,4.00e-01,
333,4.24e+01,-8.00e-01,
334,4.12e+01,-8.00e-01,
335,4.24e+01,8.00e-01,
336,4.40e+01,8.00e-01,
337,3.96e+01,-9.60e+00,
338,4.12e+01,-6.00e+00,
339,4.24e+01,-8.00e+00,
340,4.24e+01,-6.40e+00,
341,4.12e+01,-8.00e+00,
342,4.24e+01,-6.00e+00,
343,4.12e+01,-8.40e+00,
344,4.24e+01,-8.00e+00,
345,4.12e+01,-6.00e+00,
346,4.12e+01,-6.40e+00,
347,4.24e+01,-8.00e+00,
348,4.24e+01,-8.00e+00,
349,4.12e+01,-6.40e+00,
350,4.24e+01,-6.40e+00,
351,4.12e+01,-8.00e+00,
352,4.16e+01,-8.00e+00,
353,4.24e+01,-6.00e+00,
354,4.24e+01,-8.00e+00,
355,4.12e+01,-6.00e+00,
356,4.24e+01,-6.40e+00,
357,4.12e+01,-8.00e+00,
358,4.12e+01,-6.40e+00,
359,4.24e+01,-8.00e+00,
360,4.24e+01,-8.00e+00,
361,4.12e+01,-6.00e+00,
362,4.12e+01,-6.40e+00,
363,4.24e+01,-8.00e+00,
364,4.24e+01,-8.00e+00,
365,4.12e+01,-6.00e+00,
366,4.20e+01,-6.40e+00,
367,4.12e+01,-8.00e+00,
368,4.12e+01,-8.00e+00,
369,4.24e+01,-6.00e+00,
370,4.16e+01,-8.00e+00,
371,4.24e+01,-6.00e+00,
372,4.24e+01,-6.40e+00,
373,4.12e+01,-8.00e+00,
374,4.16e+01,-8.00e+00,
375,4.24e+01,-6.00e+00,
376,4.24e+01,-8.00e+00,
377,4.12e+01,-6.00e+00,
378,4.16e+01,-6.40e+00,
379,4.24e+01,-8.40e+00,
380,4.16e+01,-8.00e+00,
381,4.24e+01,-6.00e+00,
382,4.16e+01,-6.40e+00,
383,4.24e+01,-8.00e+00,
384,4.12e+01,-8.00e+00,
385,4.24e+01,-6.40e+00,
386,4.16e+01,-6.40e+00,
387,4.24e+01,-8.00e+00,
388,4.16e+01,-8.00e+00,
389,4.24e+01,-6.40e+00,
390,4.24e+01,-6.40e+00,
391,4.12e+01,-8.40e+00,
392,4.24e+01,-6.00e+00,
393,4.12e+01,-8.00e+00,
394,4.12e+01,-6.40e+00,
395,4.24e+01,-8.00e+00,
396,4.12e+01,-6.40e+00,
397,4.24e+01,-8.00e+00,
398,4.16e+01,-8.00e+00,
399,4.24e+01,-6.00e+00,
400,4.24e+01,-8.00e+00,
401,4.12e+01,-6.40e+00,
402,4.24e+01,-6.40e+00,
403,4.12e+01,-8.00e+00,
404,4.24e+01,-8.00e+00,
405,4.12e+01,-6.00e+00,
406,4.24e+01,-8.00e+00,
407,4.12e+01,-6.00e+00,
408,4.16e+01,-8.00e+00,
409,4.24e+01,-6.40e+00,
410,4.24e+01,-8.00e+00,
411,4.12e+01,-6.00e+00,
412,4.12e+01,-6.40e+00,
413,4.24e+01,-8.00e+00,
414,4.12e+01,-8.00e+00,
415,4.24e+01,-6.40e+00,
416,4.24e+01,-8.00e+00,
417,4.12e+01,-6.00e+00,
418,4.24e+01,-8.00e+00,
419,4.16e+01,-6.00e+00,
420,4.12e+01,-6.40e+00,
421,4.24e+01,-8.00e+00,
422,4.12e+01,-8.00e+00,
423,4.24e+01,-6.00e+00,
424,4.12e+01,-8.00e+00,
425,4.24e+01,-6.00e+00,
426,4.24e+01,-6.40e+00,
427,4.12e+01,-8.00e+00,
428,4.12e+01,-6.40e+00,
429,4.24e+01,-8.00e+00,
430,4.12e+01,-6.40e+00,
431,4.24e+01,-8.00e+00,
432,4.12e+01,-6.40e+00,
433,4.24e+01,-8.00e+00,
434,4.24e+01,-6.40e+00,
435,4.12e+01,-8.00e+00,
436,4.12e+01,-8.00e+00,
437,4.24e+01,-6.00e+00,
438,4.24e+01,-6.40e+00,
439,4.12e+01,-8.00e+00,
440,4.12e+01,-8.00e+00,
441,4.24e+01,-6.00e+00,
442,4.12e+01,-6.40e+00,
443,4.24e+01,-8.00e+00,
444,4.12e+01,-8.00e+00,
445,4.24e+01,-6.00e+00,
446,4.12e+01,-6.40e+00,
447,4.24e+01,-8.00e+00,
448,4.12e+01,-8.00e+00,
449,4.24e+01,-6.40e+00,
450,4.12e+01,-6.40e+00,
451,4.24e+01,-8.00e+00,
452,4.16e+01,-6.40e+00,
453,4.24e+01,-8.40e+00,
454,4.24e+01,-8.00e+00,
455,4.12e+01,-6.00e+00,
456,4.16e+01,-6.40e+00,
457,4.24e+01,-8.00e+00,
458,4.24e+01,-6.40e+00,
459,4.12e+01,-8.00e+00,
460,3.80e+01,-7.60e+00,
461,4.52e+01,4.40e+00,
462,4.12e+01,-8.00e-01,
463,4.24e+01,8.00e-01,
464,4.24e+01,-8.00e-01,
465,4.12e+01,8.00e-01,
466,4.40e+01,8.00e-01,
467,3.96e+01,-9.60e+00,
468,4.28e+01,-5.60e+00,
469,4.08e+01,-7.60e+00,
470,4.12e+01,-6.00e+00,
471,4.24e+01,-8.40e+00,
472,4.12e+01,-8.00e+00,
473,4.24e+01,-6.40e+00,
474,4.24e+01,-6.40e+00,
475,4.12e+01,-8.00e+00,
476,4.16e+01,-6.40e+00,
477,4.24e+01,-8.00e+00,
478,4.16e+01,-8.00e+00,
479,4.24e+01,-6.00e+00,
480,4.12e+01,-6.40e+00,
481,4.24e+01,-8.00e+00,
482,4.24e+01,-8.00e+00,
483,4.12e+01,-6.00e+00,
484,4.16e+01,-8.00e+00,
485,4.24e+01,-6.40e+00,
486,4.16e+01,-6.40e+00,
487,4.24e+01,-8.40e+00,
488,4.16e+01,-6.40e+00,
489,4.24e+01,-8.00e+00,
490,4.24e+01,-6.40e+00,
491,4.12e+01,-8.00e+00,
492,4.24e+01,-8.00e+00,
493,4.12e+01,-6.00e+00,
494,4.12e+01,-6.40e+00,
495,4.24e+01,-8.00e+00,
496,4.24e+01,-6.00e+00,
497,4.12e+01,-8.40e+00,
498,4.12e+01,-6.40e+00,
499,4.24e+01,-8.00e+00,
500,4.12e+01,-8.00e+00,
501,4.24e+01,-6.40e+00,
502,4.24e+01,-6.40e+00,
503,4.12e+01,-8.00e+00,
504,4.24e+01,-8.00e+00,
505,4.12e+01,-6.00e+00,
506,4.16e+01,-6.40e+00,
507,4.24e+01,-8.00e+00,
508,4.16e+01,-8.00e+00,
509,4.24e+01,-6.00e+00,
510,4.16e+01,-6.40e+00,
511,4.24e+01,-8.00e+00,
512,4.24e+01,-8.00e+00,
513,4.16e+01,-6.40e+00,
514,4.24e+01,-6.40e+00,
515,4.12e+01,-8.00e+00,
516,4.12e+01,-8.00e+00,
517,4.24e+01,-6.00e+00,
518,4.24e+01,-6.40e+00,
519,4.12e+01,-8.40e+00,
520,4.24e+01,-6.40e+00,
521,4.12e+01,-8.00e+00,
522,4.24e+01,-8.00e+00,
523,4.12e+01,-6.00e+00,
524,4.24e+01,-6.40e+00,
525,4.12e+01,-8.00e+00,
526,4.12e+01,-8.00e+00,
527,4.24e+01,-6.00e+00,
528,4.12e+01,-8.00e+00,
529,4.24e+01,-6.00e+00,
530,4.24e+01,-6.40e+00,
531,4.12e+01,-8.00e+00,
532,4.24e+01,-6.40e+00,
533,4.12e+01,-8.00e+00,
534,4.12e+01,-8.40e+00,
535,4.24e+01,-6.40e+00,
536,3.80e+01,-8.00e+00,
537,4.60e+01,4.80e+00,
538,3.88e+01,-1.60e+00,
539,4.44e+01,8.00e-01,
540,4.24e+01,8.00e-01,
541,4.12e+01,-8.00e-01,
542,4.16e+01,-8.00e-01,
543,4.24e+01,8.00e-01,
544,4.24e+01,8.00e-01,
545,4.12e+01,-1.20e+00,
546,4.12e+01,-8.00e-01,
547,4.24e+01,4.00e-01,
548,4.12e+01,-8.00e-01,
549,4.24e+01,8.00e-01,
550,3.68e+01,-8.00e-01,
551,4.68e+01,1.84e+01,
552,4.12e+01,1.40e+01,
553,4.24e+01,1.52e+01,
554,4.20e+01,1.44e+01,
555,4.12e+01,1.52e+01,
556,4.84e+01,-9.20e+00,
557,3.48e+01,7.60e+00,
558,4.12e+01,4.00e-01,
559,4.24e+01,-8.00e-01,
560,4.12e+01,-8.00e-01,
561,4.24e+01,8.00e-01,
562,4.12e+01,4.00e-01,
563,4.24e+01,-8.00e-01,
564,4.12e+01,-8.00e-01,
565,4.24e+01,8.00e-01,
566,4.12e+01,-8.00e-01,
567,4.24e+01,8.00e-01,
568,4.12e+01,-8.00e-01,
569,4.24e+01,8.00e-01,
570,4.12e+01,-8.00e-01,
571,4.24e+01,8.00e-01,
572,4.12e+01,-8.00e-01,
573,4.24e+01,8.00e-01,
574,4.12e+01,4.00e-01,
575,4.24e+01,-8.00e-01,
576,4.12e+01,4.00e-01,
577,4.24e+01,-8.00e-01,
578,4.12e+01,-8.00e-01,
579,4.24e+01,8.00e-01,
580,4.12e+01,-8.00e-01,
581,4.24e+01,8.00e-01,
582,4.12e+01,-8.00e-01,
583,4.24e+01,8.00e-01,
584,4.12e+01,-8.00e-01,
585,4.24e+01,8.00e-01,
586,4.12e+01,-8.00e-01,
587,4.24e+01,8.00e-01,
588,4.20e+01,-8.00e-01,
589,4.12e+01,8.00e-01,
590,4.40e+01,-9.60e+00,
591,3.92e+01,3.20e+00,
592,4.12e+01,-8.00e-01,
593,4.24e+01,8.00e-01,
594,4.12e+01,8.00e-01,
595,4.24e+01,-8.00e-01,
596,4.12e+01,-8.00e-01,
597,4.24e+01,8.00e-01,
598,4.08e+01,4.00e-01,
599,4.88e+01,-9.60e+00,
600,4.88e+01,-6.00e+00,
601,5.96e+01,-8.00e+00,
602,6.08e+01,-8.00e+00,
603,5.20e+01,-6.00e+00,
604,5.24e+01,-8.00e+00,
605,4.40e+01,-6.40e+00,
606,4.44e+01,-8.00e+00,
607,4.20e+01,-6.00e+00,
608,4.28e+01,-8.00e+00,
609,4.16e+01,-6.00e+00,
610,4.24e+01,-8.00e+00,
611,4.12e+01,-6.00e+00,
612,4.12e+01,-8.00e+00,
613,4.24e+01,-6.00e+00,
614,4.24e+01,-6.40e+00,
615,4.12e+01,-8.40e+00,
616,4.12e+01,-8.00e+00,
617,4.24e+01,-6.00e+00,
618,4.12e+01,-8.00e+00,
619,4.24e+01,-6.40e+00,
620,4.24e+01,-8.00e+00,
621,4.12e+01,-6.00e+00,
622,4.12e+01,-6.40e+00,
623,4.24e+01,-8.00e+00,
624,4.12e+01,-8.00e+00,
625,4.24e+01,-6.40e+00,
626,4.12e+01,-6.40e+00,
627,4.24e+01,-8.00e+00,
628,4.24e+01,-6.40e+00,
629,4.12e+01,-8.00e+00,
630,4.12e+01,-6.40e+00,
631,4.24e+01,-8.00e+00,
632,4.24e+01,-8.00e+00,
633,4.12e+01,-6.00e+00,
634,4.12e+01,-6.40e+00,
635,4.24e+01,-8.00e+00,
636,4.12e+01,-8.00e+00,
637,4.24e+01,-6.00e+00,
638,4.12e+01,-6.40e+00,
639,4.24e+01,-8.40e+00,
640,4.12e+01,-6.40e+00,
641,4.24e+01,-8.00e+00,
642,4.24e+01,-6.40e+00,
643,4.12e+01,-8.00e+00,
644,4.12e+01,-6.40e+00,
645,4.24e+01,-8.00e+00,
646,4.12e+01,-6.40e+00,
647,4.24e+01,-8.00e+00,
648,4.12e+01,-8.00e+00,
649,4.24e+01,-6.00e+00,
650,4.12e+01,-6.40e+00,
651,4.24e+01,-8.00e+00,
652,4.12e+01,-6.40e+00,
653,4.24e+01,-8.00e+00,
654,4.12e+01,-8.00e+00,
655,4.24e+01,-6.00e+00,
656,4.12e+01,-8.00e+00,
657,4.24e+01,-6.00e+00,
658,4.12e+01,-6.40e+00,
659,4.24e+01,-8.00e+00,
660,4.20e+01,-8.00e+00,
661,4.12e+01,-6.00e+00,
662,4.12e+01,-8.00e+00,
663,4.24e+01,-6.00e+00,
664,4.12e+01,-8.00e+00,
665,4.24e+01,-6.00e+00,
666,4.12e+01,-6.40e+00,
667,4.24e+01,-8.00e+00,
668,4.12e+01,-8.00e+00,
669,4.24e+01,-6.00e+00,
670,4.12e+01,-6.40e+00,
671,4.24e+01,-8.00e+00,
672,4.24e+01,-8.00e+00,
673,4.12e+01,-6.40e+00,
674,4.12e+01,-8.00e+00,
675,4.20e+01,-6.00e+00,
676,4.12e+01,-8.00e+00,
677,4.24e+01,-6.00e+00,
678,4.12e+01,-6.40e+00,
679,4.24e+01,-8.00e+00,
680,4.12e+01,-8.00e+00,
681,4.24e+01,-6.00e+00,
682,4.12e+01,-8.00e+00,
683,4.24e+01,-6.00e+00,
684,4.12e+01,-8.00e+00,
685,4.24e+01,-6.00e+00,
686,4.12e+01,-8.00e+00,
687,4.24e+01,-6.00e+00,
688,4.12e+01,-6.40e+00,
689,4.24e+01,-8.00e+00,
690,4.20e+01,-6.40e+00,
691,4.12e+01,-8.00e+00,
692,4.12e+01,-6.40e+00,
693,4.24e+01,-8.00e+00,
694,4.12e+01,-8.00e+00,
695,4.24e+01,-6.40e+00,
696,4.12e+01,-6.40e+00,
697,4.24e+01,-8.00e+00,
698,4.24e+01,-6.40e+00,
699,4.12e+01,-8.00e+00,
700,4.12e+01,-6.40e+00,
701,4.24e+01,-8.40e+00,
702,4.12e+01,-8.00e+00,
703,4.24e+01,-6.40e+00,
704,4.12e+01,-8.00e+00,
705,4.24e+01,-6.00e+00,
706,4.12e+01,-6.40e+00,
707,4.24e+01,-8.00e+00,
708,4.12e+01,-6.40e+00,
709,4.24e+01,-8.40e+00,
710,4.12e+01,-8.00e+00,
711,4.24e+01,-6.00e+00,
712,4.12e+01,-8.00e+00,
713,4.24e+01,-6.00e+00,
714,4.12e+01,-6.40e+00,
715,4.24e+01,-8.00e+00,
716,4.12e+01,-8.00e+00,
717,4.24e+01,-6.00e+00,
718,4.12e+01,-6.40e+00,
719,4.24e+01,-8.00e+00,
720,4.12e+01,-6.40e+00,
721,4.24e+01,-8.00e+00,
722,4.52e+01,-7.60e+00,
723,3.80e+01,5.20e+00,
724,4.12e+01,-8.00e-01,
725,4.24e+01,8.00e-01,
726,4.12e+01,8.00e-01,
727,4.24e+01,-8.00e-01,
728,4.12e+01,-8.00e-01,
729,4.24e+01,8.00e-01,
730,4.44e+01,4.00e-01,
731,3.92e+01,-1.00e+01,
732,4.24e+01,-6.00e+00,
733,4.12e+01,-8.00e+00,
734,4.24e+01,-6.40e+00,
735,4.12e+01,-8.40e+00,
736,4.12e+01,-8.00e+00,
737,4.24e+01,-6.00e+00,
738,4.12e+01,-6.40e+00,
739,4.24e+01,-8.00e+00,
740,4.12e+01,-8.00e+00,
741,4.24e+01,-6.00e+00,
742,4.12e+01,-6.40e+00,
743,4.24e+01,-8.00e+00,
744,4.12e+01,-6.40e+00,
745,4.20e+01,-8.40e+00,
746,4.12e+01,-6.40e+00,
747,4.24e+01,-8.00e+00,
748,4.12e+01,-8.00e+00,
749,4.24e+01,-6.00e+00,
750,4.12e+01,-6.40e+00,
751,4.24e+01,-8.40e+00,
752,4.12e+01,-6.40e+00,
753,4.24e+01,-8.00e+00,
754,4.12e+01,-8.00e+00,
755,4.24e+01,-6.00e+00,
756,4.12e+01,-8.00e+00,
757,4.24e+01,-6.00e+00,
758,4.12e+01,-6.40e+00,
759,4.20e+01,-8.00e+00,
760,4.12e+01,-6.40e+00,
761,4.24e+01,-8.00e+00,
762,4.12e+01,-8.00e+00,
763,4.24e+01,-6.00e+00,
764,4.12e+01,-6.40e+00,
765,4.24e+01,-8.40e+00,
766,4.12e+01,-6.40e+00,
767,4.24e+01,-8.00e+00,
768,4.12e+01,-8.00e+00,
769,4.24e+01,-6.00e+00,
770,4.20e+01,-6.40e+00,
771,4.12e+01,-8.00e+00,
772,4.12e+01,-6.40e+00,
773,4.24e+01,-8.00e+00,
774,4.12e+01,-6.40e+00,
775,4.24e+01,-8.00e+00,
776,4.12e+01,-8.00e+00,
777,4.24e+01,-6.00e+00,
778,4.12e+01,-8.00e+00,
779,4.24e+01,-6.00e+00,
780,4.12e+01,-8.00e+00,
781,4.24e+01,-6.40e+00,
782,4.12e+01,-8.00e+00,
783,4.24e+01,-6.00e+00,
784,4.12e+01,-6.40e+00,
785,4.20e+01,-8.00e+00,
786,4.12e+01,-6.40e+00,
787,4.24e+01,-8.00e+00,
788,4.12e+01,-8.00e+00,
789,4.24e+01,-6.00e+00,
790,4.12e+01,-6.40e+00,
791,4.24e+01,-8.00e+00,
792,4.12e+01,-8.00e+00,
793,4.24e+01,-6.40e+00,
794,4.12e+01,-8.00e+00,
795,4.24e+01,-6.00e+00,
796,4.12e+01,-6.40e+00,
797,4.24e+01,-8.40e+00,
798,4.12e+01,-6.40e+00,
799,4.24e+01,-8.00e+00,
800,4.12e+01,-8.00e+00,
801,4.24e+01,-6.00e+00,
802,4.12e+01,-6.40e+00,
803,4.24e+01,-8.00e+00,
804,4.24e+01,-6.40e+00,
805,4.12e+01,-8.00e+00,
806,4.12e+01,-8.00e+00,
807,4.20e+01,-6.40e+00,
808,4.20e+01,-6.40e+00,
809,4.12e+01,-8.40e+00,
810,4.12e+01,-6.40e+00,
811,4.24e+01,-8.00e+00,
812,4.12e+01,-8.00e+00,
813,4.20e+01,-6.00e+00,
814,4.12e+01,-6.40e+00,
815,4.24e+01,-8.00e+00,
816,4.12e+01,-8.00e+00,
817,4.24e+01,-6.00e+00,
818,4.12e+01,-6.40e+00,
819,4.24e+01,-8.00e+00,
820,4.12e+01,-8.00e+00,
821,4.24e+01,-6.00e+00,
822,4.12e+01,-8.00e+00,
823,4.24e+01,-6.00e+00,
824,4.12e+01,-8.00e+00,
825,4.24e+01,-6.00e+00,
826,4.12e+01,-8.00e+00,
827,4.24e+01,-6.40e+00,
828,4.12e+01,-8.00e+00,
829,4.24e+01,-6.40e+00,
830,4.12e+01,-6.40e+00,
831,4.24e+01,-8.00e+00,
832,4.12e+01,-6.40e+00,
833,4.24e+01,-8.00e+00,
834,4.12e+01,-8.00e+00,
835,4.24e+01,-6.00e+00,
836,4.12e+01,-8.00e+00,
