Lab1_D7Report/analysis/D7/实验三/SUBCK-V/SUBCK放大图/新建文件1.csv

X,CH1,CH2,Start,Increment,
Sequence,Volt,Volt,-6.000000e-06,1.000000e-08
0,4.16e+01,-4.00e-01,
1,4.12e+01,8.00e-01,
2,4.16e+01,8.00e-01,
3,4.12e+01,-4.00e-01,
4,4.16e+01,8.00e-01,
5,4.12e+01,-4.00e-01,
6,4.12e+01,8.00e-01,
7,4.16e+01,-4.00e-01,
8,4.12e+01,4.00e-01,
9,4.16e+01,-4.00e-01,
10,4.12e+01,8.00e-01,
11,4.16e+01,-4.00e-01,
12,4.12e+01,-4.00e-01,
13,4.16e+01,8.00e-01,
14,4.12e+01,8.00e-01,
15,4.16e+01,-4.00e-01,
16,4.16e+01,8.00e-01,
17,4.12e+01,-4.00e-01,
18,4.16e+01,4.00e-01,
19,4.12e+01,-4.00e-01,
20,4.16e+01,8.00e-01,
21,4.12e+01,-4.00e-01,
22,4.12e+01,8.00e-01,
23,4.16e+01,-4.00e-01,
24,4.12e+01,-4.00e-01,
25,4.16e+01,8.00e-01,
26,4.12e+01,-4.00e-01,
27,4.16e+01,8.00e-01,
28,4.16e+01,-4.00e-01,
29,4.12e+01,8.00e-01,
30,4.16e+01,-4.00e-01,
31,4.12e+01,8.00e-01,
32,4.16e+01,-4.00e-01,
33,4.12e+01,8.00e-01,
34,4.12e+01,8.00e-01,
35,4.16e+01,-4.00e-01,
36,4.12e+01,4.00e-01,
37,4.16e+01,-4.00e-01,
38,4.12e+01,8.00e-01,
39,4.16e+01,-4.00e-01,
40,4.16e+01,-4.00e-01,
41,4.12e+01,8.00e-01,
42,4.12e+01,-4.00e-01,
43,4.16e+01,8.00e-01,
44,4.16e+01,-4.00e-01,
45,4.12e+01,8.00e-01,
46,4.16e+01,-4.00e-01,
47,4.12e+01,8.00e-01,
48,4.12e+01,8.00e-01,
49,4.16e+01,-4.00e-01,
50,4.12e+01,-4.00e-01,
51,4.16e+01,8.00e-01,
52,4.12e+01,8.00e-01,
53,4.16e+01,-4.00e-01,
54,4.12e+01,8.00e-01,
55,4.16e+01,-4.00e-01,
56,4.16e+01,-4.00e-01,
57,4.12e+01,8.00e-01,
58,4.16e+01,4.00e-01,
59,4.12e+01,-4.00e-01,
60,4.16e+01,4.00e-01,
61,4.12e+01,-4.00e-01,
62,4.12e+01,4.00e-01,
63,4.16e+01,-4.00e-01,
64,4.16e+01,4.00e-01,
65,4.12e+01,-4.00e-01,
66,4.12e+01,4.00e-01,
67,4.16e+01,-4.00e-01,
68,4.12e+01,-4.00e-01,
69,4.16e+01,8.00e-01,
70,4.12e+01,4.00e-01,
71,4.16e+01,-4.00e-01,
72,4.16e+01,-4.00e-01,
73,4.12e+01,8.00e-01,
74,4.16e+01,-4.00e-01,
75,4.12e+01,8.00e-01,
76,4.16e+01,-4.00e-01,
77,4.12e+01,8.00e-01,
78,4.12e+01,4.00e-01,
79,4.16e+01,-4.00e-01,
80,4.12e+01,-4.00e-01,
81,4.16e+01,8.00e-01,
82,4.12e+01,4.00e-01,
83,4.16e+01,-4.00e-01,
84,4.12e+01,-4.00e-01,
85,4.16e+01,8.00e-01,
86,4.12e+01,8.00e-01,
87,4.16e+01,-4.00e-01,
88,4.16e+01,-4.00e-01,
89,4.12e+01,8.00e-01,
90,4.12e+01,8.00e-01,
91,4.20e+01,-4.00e-01,
92,4.16e+01,8.00e-01,
93,4.12e+01,-4.00e-01,
94,4.12e+01,4.00e-01,
95,4.16e+01,-4.00e-01,
96,4.16e+01,-4.00e-01,
97,4.12e+01,4.00e-01,
98,4.12e+01,8.00e-01,
99,4.16e+01,-4.00e-01,
100,4.16e+01,-4.00e-01,
101,4.12e+01,8.00e-01,
102,4.16e+01,-4.00e-01,
103,4.12e+01,8.00e-01,
104,4.12e+01,4.00e-01,
105,4.20e+01,-4.00e-01,
106,4.12e+01,8.00e-01,
107,4.16e+01,-4.00e-01,
108,4.12e+01,-4.00e-01,
109,4.16e+01,8.00e-01,
110,4.12e+01,-4.00e-01,
111,4.16e+01,8.00e-01,
112,4.12e+01,8.00e-01,
113,4.16e+01,-4.00e-01,
114,4.12e+01,8.00e-01,
115,4.16e+01,-4.00e-01,
116,4.16e+01,-4.00e-01,
117,4.12e+01,8.00e-01,
118,4.12e+01,-4.00e-01,
119,4.16e+01,8.00e-01,
120,4.12e+01,-4.00e-01,
121,4.16e+01,8.00e-01,
122,4.12e+01,8.00e-01,
123,4.16e+01,-4.00e-01,
124,4.12e+01,4.00e-01,
125,4.16e+01,-4.00e-01,
126,4.12e+01,4.00e-01,
127,4.16e+01,-4.00e-01,
128,4.16e+01,4.00e-01,
129,4.08e+01,-4.00e-01,
130,4.16e+01,-4.00e-01,
131,4.12e+01,4.00e-01,
132,4.12e+01,-4.00e-01,
133,4.16e+01,8.00e-01,
134,4.12e+01,8.00e-01,
135,4.16e+01,-4.00e-01,
136,4.16e+01,-4.00e-01,
137,4.12e+01,8.00e-01,
138,4.12e+01,4.00e-01,
139,4.16e+01,-4.00e-01,
140,4.12e+01,-4.00e-01,
141,4.16e+01,8.00e-01,
142,4.08e+01,-4.00e-01,
143,4.16e+01,8.00e-01,
144,4.16e+01,-4.00e-01,
145,4.12e+01,8.00e-01,
146,4.12e+01,8.00e-01,
147,4.16e+01,-4.00e-01,
148,4.12e+01,-4.00e-01,
149,4.16e+01,8.00e-01,
150,4.12e+01,8.00e-01,
151,4.16e+01,-4.00e-01,
152,4.12e+01,-4.00e-01,
153,4.16e+01,8.00e-01,
154,4.12e+01,4.00e-01,
155,4.16e+01,-4.00e-01,
156,4.16e+01,-4.00e-01,
157,4.12e+01,8.00e-01,
158,4.16e+01,-4.00e-01,
159,4.12e+01,8.00e-01,
160,4.16e+01,-4.00e-01,
161,4.12e+01,8.00e-01,
162,4.16e+01,8.00e-01,
163,4.08e+01,0.00e+00,
164,4.12e+01,4.00e-01,
165,4.16e+01,-4.00e-01,
166,4.12e+01,4.00e-01,
167,4.16e+01,0.00e+00,
168,4.08e+01,8.00e-01,
169,4.20e+01,-4.00e-01,
170,4.08e+01,0.00e+00,
171,4.16e+01,8.00e-01,
172,4.16e+01,4.00e-01,
173,4.12e+01,-4.00e-01,
174,4.12e+01,8.00e-01,
175,4.16e+01,-4.00e-01,
176,4.16e+01,-4.00e-01,
177,4.12e+01,8.00e-01,
178,4.12e+01,-4.00e-01,
179,4.16e+01,8.00e-01,
180,4.12e+01,-4.00e-01,
181,4.16e+01,8.00e-01,
182,4.12e+01,8.00e-01,
183,4.16e+01,-4.00e-01,
184,4.12e+01,4.00e-01,
185,4.16e+01,-4.00e-01,
186,4.16e+01,4.00e-01,
187,4.12e+01,-4.00e-01,
188,4.16e+01,-4.00e-01,
189,4.12e+01,8.00e-01,
190,4.12e+01,-4.00e-01,
191,4.16e+01,8.00e-01,
192,4.12e+01,4.00e-01,
193,4.16e+01,-4.00e-01,
194,4.12e+01,4.00e-01,
195,4.16e+01,-4.00e-01,
196,4.12e+01,-4.00e-01,
197,4.16e+01,8.00e-01,
198,4.12e+01,-4.00e-01,
199,4.16e+01,8.00e-01,
200,4.16e+01,-4.00e-01,
201,4.12e+01,8.00e-01,
202,4.12e+01,8.00e-01,
203,4.16e+01,-4.00e-01,
204,4.16e+01,-4.00e-01,
205,4.12e+01,8.00e-01,
206,4.12e+01,8.00e-01,
207,4.16e+01,-4.00e-01,
208,4.12e+01,-4.00e-01,
209,4.16e+01,8.00e-01,
210,4.12e+01,8.00e-01,
211,4.20e+01,-4.00e-01,
212,4.08e+01,8.00e-01,
213,4.16e+01,-4.00e-01,
214,4.16e+01,-4.00e-01,
215,4.12e+01,8.00e-01,
216,4.12e+01,-4.00e-01,
217,4.20e+01,8.00e-01,
218,4.16e+01,-4.00e-01,
219,4.08e+01,8.00e-01,
220,4.12e+01,4.00e-01,
221,4.16e+01,-4.00e-01,
222,4.12e+01,4.00e-01,
223,4.16e+01,-4.00e-01,
224,4.12e+01,-4.00e-01,
225,4.16e+01,8.00e-01,
226,4.12e+01,8.00e-01,
227,4.16e+01,-4.00e-01,
228,4.16e+01,8.00e-01,
229,4.12e+01,-4.00e-01,
230,4.12e+01,4.00e-01,
231,4.16e+01,-4.00e-01,
232,4.16e+01,-4.00e-01,
233,4.08e+01,8.00e-01,
234,4.12e+01,-4.00e-01,
235,4.16e+01,8.00e-01,
236,4.12e+01,4.00e-01,
237,4.16e+01,-4.00e-01,
238,4.12e+01,8.00e-01,
239,4.16e+01,-4.00e-01,
240,4.08e+01,0.00e+00,
241,4.24e+01,-9.60e+00,
242,4.00e+01,-8.80e+00,
243,4.32e+01,-3.60e+00,
244,4.36e+01,-4.80e+00,
245,3.96e+01,-7.60e+00,
246,4.08e+01,-4.80e+00,
247,4.28e+01,-6.80e+00,
248,4.00e+01,-6.80e+00,
249,4.24e+01,-5.60e+00,
250,4.20e+01,-5.20e+00,
251,4.04e+01,-6.80e+00,
252,4.24e+01,-5.60e+00,
253,4.08e+01,-6.80e+00,
254,4.04e+01,-6.80e+00,
255,4.20e+01,-5.60e+00,
256,4.16e+01,-6.80e+00,
257,4.08e+01,-5.20e+00,
258,4.20e+01,-6.80e+00,
259,4.04e+01,-5.60e+00,
260,4.12e+01,-6.80e+00,
261,4.16e+01,-5.60e+00,
262,4.08e+01,-5.60e+00,
263,4.16e+01,-6.80e+00,
264,4.16e+01,-6.80e+00,
265,4.12e+01,-5.60e+00,
266,4.12e+01,-6.00e+00,
267,4.16e+01,-6.80e+00,
268,4.08e+01,-6.00e+00,
269,4.16e+01,-6.80e+00,
270,4.12e+01,-6.00e+00,
271,4.12e+01,-6.80e+00,
272,4.16e+01,-6.00e+00,
273,4.12e+01,-6.80e+00,
274,4.16e+01,-6.00e+00,
275,4.12e+01,-6.80e+00,
276,4.12e+01,-6.00e+00,
277,4.16e+01,-7.20e+00,
278,4.12e+01,-6.00e+00,
279,4.16e+01,-6.80e+00,
280,4.12e+01,-7.20e+00,
281,4.16e+01,-6.00e+00,
282,4.12e+01,-7.20e+00,
283,4.16e+01,-6.40e+00,
284,4.16e+01,-7.20e+00,
285,4.12e+01,-6.00e+00,
286,4.12e+01,-6.40e+00,
287,4.16e+01,-7.20e+00,
288,4.16e+01,-7.20e+00,
289,4.12e+01,-6.00e+00,
290,4.12e+01,-7.20e+00,
291,4.16e+01,-6.00e+00,
292,4.12e+01,-6.40e+00,
293,4.16e+01,-7.20e+00,
294,4.12e+01,-6.00e+00,
295,4.16e+01,-7.20e+00,
296,4.08e+01,-7.20e+00,
297,4.16e+01,-6.40e+00,
298,4.12e+01,-6.40e+00,
299,4.12e+01,-7.20e+00,
300,4.16e+01,-6.40e+00,
301,4.12e+01,-7.20e+00,
302,4.16e+01,-7.20e+00,
303,4.12e+01,-6.00e+00,
304,4.12e+01,-6.00e+00,
305,4.16e+01,-7.20e+00,
306,4.12e+01,-7.20e+00,
307,4.16e+01,-6.40e+00,
308,4.12e+01,-6.40e+00,
309,4.20e+01,-7.20e+00,
310,4.12e+01,-7.20e+00,
311,4.16e+01,-6.00e+00,
312,4.16e+01,-7.20e+00,
313,4.12e+01,-6.00e+00,
314,4.12e+01,-7.20e+00,
315,4.12e+01,-6.00e+00,
316,4.16e+01,-7.20e+00,
317,4.12e+01,-6.00e+00,
318,4.12e+01,-6.80e+00,
319,4.16e+01,-6.00e+00,
320,4.12e+01,-7.20e+00,
321,4.16e+01,-6.00e+00,
322,4.08e+01,-6.40e+00,
323,4.16e+01,-7.20e+00,
324,4.08e+01,-7.20e+00,
325,4.16e+01,-6.00e+00,
326,4.16e+01,-6.00e+00,
327,4.12e+01,-7.20e+00,
328,4.12e+01,-6.40e+00,
329,4.12e+01,-7.20e+00,
330,4.12e+01,-7.20e+00,
331,4.16e+01,-6.40e+00,
332,4.12e+01,-6.40e+00,
333,4.16e+01,-7.20e+00,
334,4.12e+01,-6.40e+00,
335,4.16e+01,-7.20e+00,
336,4.16e+01,-7.20e+00,
337,4.12e+01,-6.00e+00,
338,4.12e+01,-7.20e+00,
339,4.16e+01,-6.00e+00,
340,4.16e+01,-7.20e+00,
341,4.12e+01,-6.00e+00,
342,4.12e+01,-7.20e+00,
343,4.16e+01,-6.00e+00,
344,4.16e+01,-7.20e+00,
345,4.12e+01,-6.40e+00,
346,4.12e+01,-6.40e+00,
347,4.16e+01,-7.20e+00,
348,4.12e+01,-7.20e+00,
349,4.16e+01,-6.00e+00,
350,4.12e+01,-6.40e+00,
351,4.16e+01,-7.20e+00,
352,4.12e+01,-6.40e+00,
353,4.16e+01,-7.20e+00,
354,4.12e+01,-6.40e+00,
355,4.12e+01,-7.20e+00,
356,4.16e+01,-7.20e+00,
357,4.12e+01,-6.00e+00,
358,4.12e+01,-6.00e+00,
359,4.16e+01,-7.20e+00,
360,4.16e+01,-7.20e+00,
361,4.12e+01,-6.00e+00,
362,4.12e+01,-6.00e+00,
363,4.16e+01,-7.20e+00,
364,4.12e+01,-6.00e+00,
365,4.16e+01,-7.20e+00,
366,4.08e+01,-7.20e+00,
367,4.20e+01,-6.00e+00,
368,4.20e+01,-6.40e+00,
369,4.12e+01,-7.20e+00,
370,4.12e+01,-6.40e+00,
371,4.16e+01,-7.20e+00,
372,4.16e+01,-7.20e+00,
373,4.08e+01,-6.40e+00,
374,4.16e+01,-6.00e+00,
375,4.12e+01,-7.20e+00,
376,4.16e+01,-7.20e+00,
377,4.12e+01,-6.00e+00,
378,4.12e+01,-6.40e+00,
379,4.16e+01,-7.20e+00,
380,4.12e+01,-7.20e+00,
381,4.16e+01,-6.00e+00,
382,4.12e+01,-7.20e+00,
383,4.16e+01,-6.00e+00,
384,4.16e+01,-6.40e+00,
385,4.12e+01,-7.20e+00,
386,4.12e+01,-7.20e+00,
387,4.16e+01,-6.00e+00,
388,4.16e+01,-6.40e+00,
389,4.12e+01,-7.20e+00,
390,4.12e+01,-6.40e+00,
391,4.16e+01,-7.20e+00,
392,4.12e+01,-6.40e+00,
393,4.16e+01,-7.20e+00,
394,4.08e+01,-6.40e+00,
395,4.16e+01,-7.60e+00,
396,4.16e+01,-6.80e+00,
397,4.12e+01,-7.60e+00,
398,4.12e+01,-6.80e+00,
399,4.16e+01,-7.60e+00,
400,4.12e+01,-6.80e+00,
401,4.16e+01,-7.60e+00,
402,4.12e+01,-6.80e+00,
403,4.16e+01,-7.60e+00,
404,4.12e+01,-7.60e+00,
405,4.16e+01,-6.40e+00,
406,4.12e+01,-7.60e+00,
407,4.16e+01,-6.40e+00,
408,4.12e+01,-6.80e+00,
409,4.16e+01,-7.60e+00,
410,4.12e+01,-7.60e+00,
411,4.12e+01,-6.00e+00,
412,4.16e+01,-6.80e+00,
413,4.12e+01,-7.60e+00,
414,4.16e+01,-7.60e+00,
415,4.12e+01,-6.40e+00,
416,4.16e+01,-7.60e+00,
417,4.12e+01,-6.40e+00,
418,4.12e+01,-6.80e+00,
419,4.16e+01,-7.60e+00,
420,4.12e+01,-6.80e+00,
421,4.16e+01,-7.60e+00,
422,4.12e+01,-7.60e+00,
423,4.20e+01,-6.40e+00,
424,4.12e+01,-6.80e+00,
425,4.16e+01,-7.60e+00,
426,4.12e+01,-6.80e+00,
427,4.16e+01,-7.60e+00,
428,4.16e+01,-7.60e+00,
429,4.12e+01,-6.40e+00,
430,4.16e+01,-6.80e+00,
431,4.12e+01,-7.60e+00,
432,4.12e+01,-7.60e+00,
433,4.16e+01,-6.40e+00,
434,4.12e+01,-6.80e+00,
435,4.16e+01,-7.60e+00,
436,4.12e+01,-6.80e+00,
437,4.20e+01,-7.60e+00,
438,4.12e+01,-6.40e+00,
439,4.16e+01,-7.20e+00,
440,4.16e+01,-6.40e+00,
441,4.12e+01,-7.60e+00,
442,4.16e+01,-7.60e+00,
443,4.12e+01,-6.00e+00,
444,4.16e+01,-6.80e+00,
445,4.12e+01,-7.60e+00,
446,4.12e+01,-7.60e+00,
447,4.16e+01,-6.40e+00,
448,4.12e+01,-7.60e+00,
449,4.16e+01,-6.40e+00,
450,4.08e+01,-7.20e+00,
451,4.20e+01,-6.40e+00,
452,4.12e+01,-6.80e+00,
453,4.16e+01,-7.20e+00,
454,4.12e+01,-6.80e+00,
455,4.16e+01,-7.20e+00,
456,4.20e+01,-6.00e+00,
457,4.12e+01,-7.60e+00,
458,4.16e+01,-7.60e+00,
459,4.12e+01,-6.40e+00,
460,4.12e+01,-7.60e+00,
461,4.16e+01,-6.40e+00,
462,4.12e+01,-6.80e+00,
463,4.16e+01,-7.20e+00,
464,4.12e+01,-7.60e+00,
465,4.20e+01,-6.40e+00,
466,4.12e+01,-7.20e+00,
467,4.16e+01,-6.00e+00,
468,4.16e+01,-6.80e+00,
469,4.12e+01,-7.60e+00,
470,4.16e+01,-7.60e+00,
471,4.08e+01,0.00e+00,
472,4.08e+01,4.40e+00,
473,4.32e+01,-4.00e+00,
474,3.88e+01,-4.80e+00,
475,4.28e+01,2.80e+00,
476,4.40e+01,2.00e+00,
477,3.88e+01,-2.80e+00,
478,3.92e+01,1.60e+00,
479,4.40e+01,-8.00e-01,
480,3.92e+01,-1.60e+00,
481,4.32e+01,4.00e-01,
482,4.28e+01,8.00e-01,
483,3.96e+01,-1.20e+00,
484,4.24e+01,-8.00e-01,
485,4.08e+01,8.00e-01,
486,4.04e+01,0.00e+00,
487,4.20e+01,-8.00e-01,
488,4.20e+01,4.00e-01,
489,4.04e+01,-8.00e-01,
490,4.24e+01,-4.00e-01,
491,4.04e+01,4.00e-01,
492,4.08e+01,0.00e+00,
493,4.20e+01,-4.00e-01,
494,4.08e+01,4.00e-01,
495,4.16e+01,-4.00e-01,
496,4.20e+01,8.00e-01,
497,4.12e+01,-4.00e-01,
498,4.16e+01,-4.00e-01,
499,4.12e+01,8.00e-01,
500,4.16e+01,4.00e-01,
501,4.12e+01,-4.00e-01,
502,4.12e+01,0.00e+00,
503,4.16e+01,-4.00e-01,
504,4.20e+01,0.00e+00,
505,4.12e+01,-4.00e-01,
506,4.08e+01,-4.00e-01,
507,4.16e+01,8.00e-01,
508,4.12e+01,4.00e-01,
509,4.16e+01,-4.00e-01,
510,4.12e+01,-4.00e-01,
511,4.16e+01,4.00e-01,
512,4.16e+01,4.00e-01,
513,4.12e+01,-4.00e-01,
514,4.16e+01,-4.00e-01,
515,4.12e+01,8.00e-01,
516,4.16e+01,8.00e-01,
517,4.12e+01,-4.00e-01,
518,4.12e+01,-4.00e-01,
519,4.16e+01,8.00e-01,
520,4.12e+01,8.00e-01,
521,4.16e+01,-4.00e-01,
522,4.12e+01,-4.00e-01,
523,4.16e+01,8.00e-01,
524,4.12e+01,-4.00e-01,
525,4.16e+01,8.00e-01,
526,4.12e+01,4.00e-01,
527,4.16e+01,-4.00e-01,
528,4.16e+01,-4.00e-01,
529,4.12e+01,8.00e-01,
530,4.12e+01,8.00e-01,
531,4.16e+01,-4.00e-01,
532,4.12e+01,4.00e-01,
533,4.16e+01,-4.00e-01,
534,4.12e+01,4.00e-01,
535,4.16e+01,-4.00e-01,
536,4.12e+01,-4.00e-01,
537,4.16e+01,4.00e-01,
538,4.12e+01,-4.00e-01,
539,4.16e+01,8.00e-01,
540,4.16e+01,8.00e-01,
541,4.12e+01,-4.00e-01,
542,4.16e+01,-4.00e-01,
543,4.12e+01,8.00e-01,
544,4.16e+01,4.00e-01,
545,4.12e+01,-4.00e-01,
546,4.12e+01,8.00e-01,
547,4.40e+01,-4.00e-01,
548,3.96e+01,4.00e-01,
549,4.28e+01,-4.00e-01,
550,4.36e+01,-4.00e-01,
551,4.04e+01,8.00e-01,
552,4.12e+01,-4.00e-01,
553,4.36e+01,4.00e-01,
554,4.12e+01,8.00e-01,
555,4.40e+01,-4.00e-01,
556,4.36e+01,4.00e-01,
557,4.20e+01,-4.00e-01,
558,4.40e+01,4.00e-01,
559,4.24e+01,-4.00e-01,
560,4.28e+01,8.00e-01,
561,4.40e+01,-4.00e-01,
562,4.32e+01,-4.00e-01,
563,4.40e+01,8.00e-01,
564,4.36e+01,4.00e-01,
565,4.44e+01,-4.00e-01,
566,4.40e+01,8.00e-01,
567,4.48e+01,-4.00e-01,
568,4.44e+01,-4.00e-01,
569,4.52e+01,8.00e-01,
570,4.52e+01,8.00e-01,
571,4.44e+01,-4.00e-01,
572,4.56e+01,-4.00e-01,
573,4.48e+01,8.00e-01,
574,4.56e+01,4.00e-01,
575,4.52e+01,-4.00e-01,
576,4.56e+01,-4.00e-01,
577,4.64e+01,4.00e-01,
578,4.56e+01,8.00e-01,
579,4.68e+01,-4.00e-01,
580,4.68e+01,8.00e-01,
581,4.60e+01,-4.00e-01,
582,4.60e+01,4.00e-01,
583,4.72e+01,-4.00e-01,
584,4.72e+01,-4.00e-01,
585,4.68e+01,8.00e-01,
586,4.72e+01,8.00e-01,
587,4.76e+01,-4.00e-01,
588,4.80e+01,8.00e-01,
589,4.72e+01,-4.00e-01,
590,4.72e+01,-4.00e-01,
591,4.84e+01,8.00e-01,
592,4.76e+01,8.00e-01,
593,4.88e+01,-4.00e-01,
594,4.80e+01,4.00e-01,
595,4.88e+01,-4.00e-01,
596,4.88e+01,4.00e-01,
597,4.80e+01,-4.00e-01,
598,4.88e+01,-4.00e-01,
599,4.92e+01,8.00e-01,
600,4.96e+01,-4.00e-01,
601,4.88e+01,8.00e-01,
602,4.96e+01,4.00e-01,
603,4.92e+01,-4.00e-01,
604,4.96e+01,4.00e-01,
605,5.04e+01,-4.00e-01,
606,5.00e+01,8.00e-01,
607,5.04e+01,-4.00e-01,
608,5.08e+01,8.00e-01,
609,5.00e+01,-4.00e-01,
610,5.00e+01,-4.00e-01,
611,5.12e+01,8.00e-01,
612,5.12e+01,-4.00e-01,
613,5.04e+01,8.00e-01,
614,5.08e+01,8.00e-01,
615,5.16e+01,0.00e+00,
616,5.20e+01,-4.00e-01,
617,5.12e+01,8.00e-01,
618,5.12e+01,8.00e-01,
619,5.24e+01,-4.00e-01,
620,5.20e+01,-4.00e-01,
621,5.24e+01,8.00e-01,
622,5.20e+01,4.00e-01,
623,5.28e+01,-4.00e-01,
624,5.20e+01,-4.00e-01,
625,5.32e+01,8.00e-01,
626,5.28e+01,0.00e+00,
627,5.32e+01,8.00e-01,
628,5.36e+01,8.00e-01,
629,5.24e+01,0.00e+00,
630,5.32e+01,4.00e-01,
631,5.40e+01,0.00e+00,
632,5.32e+01,0.00e+00,
633,5.40e+01,8.00e-01,
634,5.36e+01,8.00e-01,
635,5.44e+01,0.00e+00,
636,5.36e+01,-4.00e-01,
637,5.48e+01,8.00e-01,
638,5.40e+01,0.00e+00,
639,5.48e+01,8.00e-01,
640,5.48e+01,4.00e-01,
641,5.44e+01,0.00e+00,
642,5.52e+01,0.00e+00,
643,5.44e+01,8.00e-01,
644,5.56e+01,8.00e-01,
645,5.48e+01,-4.00e-01,
646,5.52e+01,-4.00e-01,
647,5.56e+01,8.00e-01,
648,5.52e+01,8.00e-01,
649,5.60e+01,0.00e+00,
650,5.56e+01,4.00e-01,
651,5.64e+01,0.00e+00,
652,5.56e+01,8.00e-01,
653,5.64e+01,0.00e+00,
654,5.64e+01,8.00e-01,
655,5.56e+01,0.00e+00,
656,5.68e+01,-4.00e-01,
657,5.56e+01,8.00e-01,
658,5.68e+01,8.00e-01,
659,5.60e+01,-4.00e-01,
660,5.72e+01,0.00e+00,
661,5.64e+01,8.00e-01,
662,5.64e+01,8.00e-01,
663,5.72e+01,0.00e+00,
664,5.68e+01,8.00e-01,
665,5.76e+01,-4.00e-01,
666,5.68e+01,8.00e-01,
667,5.76e+01,-4.00e-01,
668,5.72e+01,-4.00e-01,
669,5.80e+01,8.00e-01,
670,5.72e+01,8.00e-01,
671,5.76e+01,0.00e+00,
672,5.80e+01,8.00e-01,
673,5.72e+01,-4.00e-01,
674,5.76e+01,4.00e-01,
675,5.84e+01,-4.00e-01,
676,5.80e+01,4.00e-01,
677,5.76e+01,-4.00e-01,
678,5.76e+01,4.00e-01,
679,5.84e+01,0.00e+00,
680,5.76e+01,4.00e-01,
681,5.84e+01,-4.00e-01,
682,5.84e+01,4.00e-01,
683,5.80e+01,-4.00e-01,
684,5.84e+01,4.00e-01,
685,5.80e+01,-4.00e-01,
686,5.88e+01,0.00e+00,
687,5.80e+01,8.00e-01,
688,5.84e+01,-4.00e-01,
689,5.88e+01,8.00e-01,
690,5.84e+01,-4.00e-01,
691,5.88e+01,8.00e-01,
692,5.84e+01,4.00e-01,
693,5.92e+01,-4.00e-01,
694,5.84e+01,8.00e-01,
695,5.92e+01,-4.00e-01,
696,6.00e+01,-4.00e-01,
697,5.84e+01,8.00e-01,
698,5.88e+01,-4.00e-01,
699,5.96e+01,8.00e-01,
700,5.92e+01,-4.00e-01,
701,5.84e+01,8.00e-01,
702,5.88e+01,4.00e-01,
703,5.96e+01,-4.00e-01,
704,5.92e+01,-4.00e-01,
705,5.88e+01,8.00e-01,
706,5.88e+01,4.00e-01,
707,5.96e+01,-4.00e-01,
708,5.96e+01,4.00e-01,
709,5.92e+01,-4.00e-01,
710,5.92e+01,4.00e-01,
711,5.96e+01,-4.00e-01,
712,6.00e+01,8.00e-01,
713,5.88e+01,-4.00e-01,
714,6.00e+01,4.00e-01,
715,5.88e+01,-4.00e-01,
716,6.00e+01,4.00e-01,
717,5.92e+01,-4.00e-01,
718,5.92e+01,4.00e-01,
719,6.00e+01,-4.00e-01,
720,6.00e+01,-4.00e-01,
721,5.92e+01,8.00e-01,
722,5.92e+01,-4.00e-01,
723,6.00e+01,8.00e-01,
724,6.00e+01,-4.00e-01,
725,5.92e+01,8.00e-01,
726,6.00e+01,8.00e-01,
727,5.92e+01,-4.00e-01,
728,6.00e+01,-4.00e-01,
729,5.92e+01,8.00e-01,
730,6.04e+01,8.00e-01,
731,5.92e+01,-4.00e-01,
732,5.96e+01,8.00e-01,
733,6.00e+01,-4.00e-01,
734,6.00e+01,8.00e-01,
735,5.72e+01,-4.00e-01,
736,5.72e+01,-4.00e-01,
737,6.16e+01,4.00e-01,
738,6.00e+01,4.00e-01,
739,5.76e+01,-4.00e-01,
740,6.00e+01,-4.00e-01,
741,5.76e+01,8.00e-01,
742,5.80e+01,8.00e-01,
743,5.92e+01,-4.00e-01,
744,5.76e+01,-4.00e-01,
745,5.88e+01,8.00e-01,
746,5.84e+01,8.00e-01,
747,5.76e+01,-4.00e-01,
748,5.84e+01,8.00e-01,
749,5.72e+01,-4.00e-01,
750,5.68e+01,-4.00e-01,
751,5.80e+01,8.00e-01,
752,5.76e+01,-4.00e-01,
753,5.68e+01,8.00e-01,
754,5.76e+01,8.00e-01,
755,5.68e+01,-4.00e-01,
756,5.76e+01,-4.00e-01,
757,5.64e+01,8.00e-01,
758,5.68e+01,-4.00e-01,
759,5.60e+01,8.00e-01,
760,5.64e+01,-4.00e-01,
761,5.60e+01,4.00e-01,
762,5.64e+01,8.00e-01,
763,5.56e+01,-4.00e-01,
764,5.52e+01,8.00e-01,
765,5.60e+01,-4.00e-01,
766,5.56e+01,8.00e-01,
767,5.52e+01,-4.00e-01,
768,5.56e+01,4.00e-01,
769,5.52e+01,-4.00e-01,
770,5.52e+01,8.00e-01,
771,5.40e+01,-4.00e-01,
772,5.52e+01,-4.00e-01,
773,5.44e+01,8.00e-01,
774,5.48e+01,8.00e-01,
775,5.40e+01,-4.00e-01,
776,5.44e+01,8.00e-01,
777,5.40e+01,-4.00e-01,
778,5.44e+01,4.00e-01,
779,5.36e+01,-4.00e-01,
780,5.40e+01,4.00e-01,
781,5.36e+01,-4.00e-01,
782,5.40e+01,8.00e-01,
783,5.32e+01,-4.00e-01,
784,5.36e+01,8.00e-01,
785,5.24e+01,-4.00e-01,
786,5.32e+01,-4.00e-01,
787,5.24e+01,8.00e-01,
788,5.24e+01,-4.00e-01,
789,5.32e+01,8.00e-01,
790,5.20e+01,8.00e-01,
791,5.28e+01,-4.00e-01,
792,5.24e+01,8.00e-01,
793,5.20e+01,-4.00e-01,
794,5.16e+01,8.00e-01,
795,5.24e+01,-4.00e-01,
796,5.20e+01,-4.00e-01,
797,5.16e+01,8.00e-01,
798,5.20e+01,4.00e-01,
799,5.08e+01,-4.00e-01,
800,5.16e+01,4.00e-01,
801,5.08e+01,-4.00e-01,
802,5.12e+01,8.00e-01,
803,5.16e+01,-4.00e-01,
804,5.16e+01,8.00e-01,
805,5.04e+01,0.00e+00,
806,5.04e+01,8.00e-01,
807,5.08e+01,-4.00e-01,
808,5.08e+01,8.00e-01,
809,5.00e+01,-4.00e-01,
810,5.00e+01,-4.00e-01,
811,5.04e+01,8.00e-01,
812,5.04e+01,8.00e-01,
813,4.96e+01,-4.00e-01,
814,4.96e+01,4.00e-01,
815,5.04e+01,-4.00e-01,
816,5.00e+01,-4.00e-01,
817,4.92e+01,8.00e-01,
818,4.96e+01,8.00e-01,
819,4.88e+01,-4.00e-01,
820,4.96e+01,4.00e-01,
821,4.88e+01,-4.00e-01,
822,4.92e+01,-4.00e-01,
823,4.88e+01,8.00e-01,
824,4.92e+01,4.00e-01,
825,4.84e+01,-4.00e-01,
826,4.88e+01,4.00e-01,
827,4.80e+01,-4.00e-01,
828,4.88e+01,8.00e-01,
829,4.80e+01,-4.00e-01,
830,4.88e+01,-4.00e-01,
831,4.80e+01,8.00e-01,
832,4.88e+01,-4.00e-01,
833,4.76e+01,8.00e-01,
834,4.80e+01,8.00e-01,
835,4.76e+01,-4.00e-01,
836,4.80e+01,8.00e-01,
837,4.76e+01,-4.00e-01,
838,4.72e+01,-4.00e-01,
839,4.80e+01,8.00e-01,
840,4.80e+01,8.00e-01,
841,4.68e+01,-4.00e-01,
842,4.80e+01,-4.00e-01,
843,4.68e+01,8.00e-01,
844,4.68e+01,4.00e-01,
845,4.72e+01,-4.00e-01,
846,4.76e+01,8.00e-01,
847,4.64e+01,-4.00e-01,
