Lab1_D7Report/analysis/D7/实验一/SH/新建文件1.csv

X,CH1,Start,Increment,
Sequence,Volt,-3.000000e-06,5.000000e-09
0,0.00e+00,
1,-4.00e-01,
2,-4.00e-01,
3,4.00e-01,
4,0.00e+00,
5,-8.00e-01,
6,-4.00e-01,
7,0.00e+00,
8,0.00e+00,
9,-4.00e-01,
10,0.00e+00,
11,-4.00e-01,
12,0.00e+00,
13,-4.00e-01,
14,0.00e+00,
15,0.00e+00,
16,-4.00e-01,
17,4.00e-01,
18,-4.00e-01,
19,0.00e+00,
20,0.00e+00,
21,-4.00e-01,
22,0.00e+00,
23,-4.00e-01,
24,-4.00e-01,
25,0.00e+00,
26,0.00e+00,
27,-4.00e-01,
28,-4.00e-01,
29,0.00e+00,
30,0.00e+00,
31,-4.00e-01,
32,0.00e+00,
33,-4.00e-01,
34,0.00e+00,
35,-4.00e-01,
36,-4.00e-01,
37,0.00e+00,
38,-4.00e-01,
39,0.00e+00,
40,0.00e+00,
41,0.00e+00,
42,0.00e+00,
43,-4.00e-01,
44,-4.00e-01,
45,4.00e-01,
46,0.00e+00,
47,-4.00e-01,
48,-4.00e-01,
49,0.00e+00,
50,-4.00e-01,
51,4.00e-01,
52,0.00e+00,
53,-4.00e-01,
54,0.00e+00,
55,-4.00e-01,
56,0.00e+00,
57,-4.00e-01,
58,-4.00e-01,
59,0.00e+00,
60,0.00e+00,
61,0.00e+00,
62,-4.00e-01,
63,0.00e+00,
64,0.00e+00,
65,-4.00e-01,
66,0.00e+00,
67,-4.00e-01,
68,-4.00e-01,
69,0.00e+00,
70,-4.00e-01,
71,0.00e+00,
72,-4.00e-01,
73,0.00e+00,
74,-4.00e-01,
75,0.00e+00,
76,-4.00e-01,
77,0.00e+00,
78,0.00e+00,
79,-4.00e-01,
80,-4.00e-01,
81,0.00e+00,
82,0.00e+00,
83,0.00e+00,
84,0.00e+00,
85,4.00e-01,
86,-4.00e-01,
87,0.00e+00,
88,-4.00e-01,
89,0.00e+00,
90,-4.00e-01,
91,0.00e+00,
92,-4.00e-01,
93,0.00e+00,
94,-4.00e-01,
95,0.00e+00,
96,0.00e+00,
97,-4.00e-01,
98,0.00e+00,
99,-4.00e-01,
100,4.00e-01,
101,-4.00e-01,
102,-4.00e-01,
103,0.00e+00,
104,0.00e+00,
105,-4.00e-01,
106,0.00e+00,
107,-4.00e-01,
108,0.00e+00,
109,-4.00e-01,
110,0.00e+00,
111,-4.00e-01,
112,0.00e+00,
113,-4.00e-01,
114,0.00e+00,
115,-4.00e-01,
116,0.00e+00,
117,-4.00e-01,
118,0.00e+00,
119,-4.00e-01,
120,0.00e+00,
121,-4.00e-01,
122,-4.00e-01,
123,0.00e+00,
124,-4.00e-01,
125,0.00e+00,
126,-4.00e-01,
127,0.00e+00,
128,0.00e+00,
129,-4.00e-01,
130,0.00e+00,
131,-4.00e-01,
132,-4.00e-01,
133,0.00e+00,
134,-4.00e-01,
135,0.00e+00,
136,-4.00e-01,
137,0.00e+00,
138,0.00e+00,
139,-4.00e-01,
140,0.00e+00,
141,-4.00e-01,
142,-4.00e-01,
143,0.00e+00,
144,0.00e+00,
145,-4.00e-01,
146,0.00e+00,
147,-4.00e-01,
148,-4.00e-01,
149,0.00e+00,
150,0.00e+00,
151,-4.00e-01,
152,0.00e+00,
153,-4.00e-01,
154,0.00e+00,
155,-4.00e-01,
156,-4.00e-01,
157,4.00e-01,
158,-4.00e-01,
159,4.00e-01,
160,0.00e+00,
161,-8.00e-01,
162,-4.00e-01,
163,4.00e-01,
164,4.00e-01,
165,-4.00e-01,
166,0.00e+00,
167,-8.00e-01,
168,0.00e+00,
169,4.00e-01,
170,0.00e+00,
171,-4.00e-01,
172,0.00e+00,
173,-8.00e-01,
174,-8.00e-01,
175,0.00e+00,
176,-4.00e-01,
177,4.00e-01,
178,-4.00e-01,
179,4.00e-01,
180,0.00e+00,
181,-4.00e-01,
182,-4.00e-01,
183,0.00e+00,
184,0.00e+00,
185,-4.00e-01,
186,-4.00e-01,
187,0.00e+00,
188,0.00e+00,
189,-4.00e-01,
190,0.00e+00,
191,0.00e+00,
192,-4.00e-01,
193,4.00e-01,
194,0.00e+00,
195,4.00e-01,
196,0.00e+00,
197,-4.00e-01,
198,0.00e+00,
199,-4.00e-01,
200,0.00e+00,
201,-4.00e-01,
202,-8.00e-01,
203,0.00e+00,
204,-4.00e-01,
205,4.00e-01,
206,4.00e-01,
207,-4.00e-01,
208,0.00e+00,
209,-4.00e-01,
210,-4.00e-01,
211,0.00e+00,
212,0.00e+00,
213,-8.00e-01,
214,0.00e+00,
215,0.00e+00,
216,-4.00e-01,
217,4.00e-01,
218,0.00e+00,
219,0.00e+00,
220,4.00e-01,
221,-4.00e-01,
222,-4.00e-01,
223,0.00e+00,
224,0.00e+00,
225,-4.00e-01,
226,0.00e+00,
227,-4.00e-01,
228,0.00e+00,
229,-4.00e-01,
230,-4.00e-01,
231,0.00e+00,
232,0.00e+00,
233,-4.00e-01,
234,0.00e+00,
235,-4.00e-01,
236,0.00e+00,
237,-4.00e-01,
238,0.00e+00,
239,-4.00e-01,
240,0.00e+00,
241,-4.00e-01,
242,0.00e+00,
243,-4.00e-01,
244,0.00e+00,
245,4.00e-01,
246,0.00e+00,
247,0.00e+00,
248,0.00e+00,
249,-4.00e-01,
250,0.00e+00,
251,-4.00e-01,
252,-4.00e-01,
253,0.00e+00,
254,0.00e+00,
255,-4.00e-01,
256,0.00e+00,
257,-4.00e-01,
258,-4.00e-01,
259,0.00e+00,
260,0.00e+00,
261,-4.00e-01,
262,-4.00e-01,
263,0.00e+00,
264,-4.00e-01,
265,0.00e+00,
266,0.00e+00,
267,-4.00e-01,
268,4.00e-01,
269,-4.00e-01,
270,0.00e+00,
271,0.00e+00,
272,0.00e+00,
273,-4.00e-01,
274,-4.00e-01,
275,0.00e+00,
276,-4.00e-01,
277,0.00e+00,
278,-4.00e-01,
279,0.00e+00,
280,-4.00e-01,
281,0.00e+00,
282,-4.00e-01,
283,0.00e+00,
284,-4.00e-01,
285,0.00e+00,
286,-4.00e-01,
287,0.00e+00,
288,0.00e+00,
289,0.00e+00,
290,0.00e+00,
291,-4.00e-01,
292,0.00e+00,
293,-4.00e-01,
294,0.00e+00,
295,-4.00e-01,
296,0.00e+00,
297,-4.00e-01,
298,0.00e+00,
299,-4.00e-01,
300,0.00e+00,
301,-4.00e-01,
302,-4.00e-01,
303,0.00e+00,
304,0.00e+00,
305,0.00e+00,
306,-4.00e-01,
307,0.00e+00,
308,-4.00e-01,
309,0.00e+00,
310,0.00e+00,
311,-4.00e-01,
312,0.00e+00,
313,-4.00e-01,
314,-4.00e-01,
315,0.00e+00,
316,0.00e+00,
317,-4.00e-01,
318,-4.00e-01,
319,0.00e+00,
320,0.00e+00,
321,-4.00e-01,
322,-4.00e-01,
323,4.00e-01,
324,0.00e+00,
325,0.00e+00,
326,0.00e+00,
327,-4.00e-01,
328,-4.00e-01,
329,0.00e+00,
330,0.00e+00,
331,-4.00e-01,
332,0.00e+00,
333,-4.00e-01,
334,0.00e+00,
335,-4.00e-01,
336,0.00e+00,
337,-4.00e-01,
338,-4.00e-01,
339,0.00e+00,
340,0.00e+00,
341,-4.00e-01,
342,0.00e+00,
343,-4.00e-01,
344,0.00e+00,
345,-4.00e-01,
346,-4.00e-01,
347,0.00e+00,
348,0.00e+00,
349,-4.00e-01,
350,0.00e+00,
351,4.00e-01,
352,0.00e+00,
353,-4.00e-01,
354,0.00e+00,
355,-4.00e-01,
356,-4.00e-01,
357,0.00e+00,
358,0.00e+00,
359,-4.00e-01,
360,0.00e+00,
361,-4.00e-01,
362,0.00e+00,
363,-4.00e-01,
364,-4.00e-01,
365,4.00e-01,
366,0.00e+00,
367,-4.00e-01,
368,0.00e+00,
369,-4.00e-01,
370,0.00e+00,
371,-4.00e-01,
372,-4.00e-01,
373,0.00e+00,
374,0.00e+00,
375,0.00e+00,
376,0.00e+00,
377,-4.00e-01,
378,-4.00e-01,
379,0.00e+00,
380,-4.00e-01,
381,4.00e-01,
382,-4.00e-01,
383,0.00e+00,
384,0.00e+00,
385,-4.00e-01,
386,-4.00e-01,
387,4.00e-01,
388,0.00e+00,
389,-4.00e-01,
390,0.00e+00,
391,-4.00e-01,
392,0.00e+00,
393,-4.00e-01,
394,0.00e+00,
395,-4.00e-01,
396,0.00e+00,
397,-4.00e-01,
398,0.00e+00,
399,-4.00e-01,
400,0.00e+00,
401,-4.00e-01,
402,0.00e+00,
403,-4.00e-01,
404,0.00e+00,
405,-8.00e-01,
406,-4.00e-01,
407,0.00e+00,
408,0.00e+00,
409,-4.00e-01,
410,-4.00e-01,
411,0.00e+00,
412,0.00e+00,
413,0.00e+00,
414,0.00e+00,
415,-4.00e-01,
416,0.00e+00,
417,-4.00e-01,
418,-4.00e-01,
419,0.00e+00,
420,0.00e+00,
421,-4.00e-01,
422,0.00e+00,
423,0.00e+00,
424,0.00e+00,
425,-4.00e-01,
426,-4.00e-01,
427,0.00e+00,
428,0.00e+00,
429,-4.00e-01,
430,-4.00e-01,
431,0.00e+00,
432,0.00e+00,
433,-8.00e-01,
434,0.00e+00,
435,-4.00e-01,
436,0.00e+00,
437,-4.00e-01,
438,0.00e+00,
439,-4.00e-01,
440,0.00e+00,
441,4.00e-01,
442,-4.00e-01,
443,0.00e+00,
444,0.00e+00,
445,-4.00e-01,
446,0.00e+00,
447,-4.00e-01,
448,-4.00e-01,
449,0.00e+00,
450,0.00e+00,
451,0.00e+00,
452,0.00e+00,
453,-4.00e-01,
454,-4.00e-01,
455,0.00e+00,
456,0.00e+00,
457,-4.00e-01,
458,0.00e+00,
459,-4.00e-01,
460,0.00e+00,
461,-4.00e-01,
462,-4.00e-01,
463,0.00e+00,
464,-4.00e-01,
465,4.00e-01,
466,0.00e+00,
467,-4.00e-01,
468,0.00e+00,
469,-4.00e-01,
470,0.00e+00,
471,-4.00e-01,
472,-4.00e-01,
473,0.00e+00,
474,0.00e+00,
475,-4.00e-01,
476,0.00e+00,
477,-4.00e-01,
478,-4.00e-01,
479,0.00e+00,
480,-4.00e-01,
481,0.00e+00,
482,-4.00e-01,
483,0.00e+00,
484,-4.00e-01,
485,0.00e+00,
486,-4.00e-01,
487,0.00e+00,
488,-4.00e-01,
489,0.00e+00,
490,0.00e+00,
491,-4.00e-01,
492,0.00e+00,
493,0.00e+00,
494,0.00e+00,
495,-4.00e-01,
496,-4.00e-01,
497,0.00e+00,
498,-4.00e-01,
499,4.00e-01,
500,-4.00e-01,
501,0.00e+00,
502,0.00e+00,
503,-4.00e-01,
504,0.00e+00,
505,-4.00e-01,
506,0.00e+00,
507,-4.00e-01,
508,0.00e+00,
509,0.00e+00,
510,0.00e+00,
511,-4.00e-01,
512,-4.00e-01,
513,0.00e+00,
514,0.00e+00,
515,-4.00e-01,
516,0.00e+00,
517,-4.00e-01,
518,-4.00e-01,
519,4.00e-01,
520,-4.00e-01,
521,0.00e+00,
522,0.00e+00,
523,-4.00e-01,
524,0.00e+00,
525,0.00e+00,
526,-4.00e-01,
527,0.00e+00,
528,-4.00e-01,
529,0.00e+00,
530,0.00e+00,
531,-4.00e-01,
532,0.00e+00,
533,-4.00e-01,
534,0.00e+00,
535,-4.00e-01,
536,0.00e+00,
537,-4.00e-01,
538,0.00e+00,
539,-4.00e-01,
540,4.00e-01,
541,-4.00e-01,
542,-4.00e-01,
543,0.00e+00,
544,-4.00e-01,
545,0.00e+00,
546,-4.00e-01,
547,0.00e+00,
548,-4.00e-01,
549,0.00e+00,
550,0.00e+00,
551,-4.00e-01,
552,0.00e+00,
553,-4.00e-01,
554,0.00e+00,
555,-4.00e-01,
556,0.00e+00,
557,-4.00e-01,
558,-4.00e-01,
559,0.00e+00,
560,0.00e+00,
561,-4.00e-01,
562,0.00e+00,
563,-4.00e-01,
564,0.00e+00,
565,-4.00e-01,
566,-4.00e-01,
567,0.00e+00,
568,0.00e+00,
569,-4.00e-01,
570,-4.00e-01,
571,0.00e+00,
572,0.00e+00,
573,-4.00e-01,
574,0.00e+00,
575,-4.00e-01,
576,-4.00e-01,
577,0.00e+00,
578,-4.00e-01,
579,0.00e+00,
580,0.00e+00,
581,-4.00e-01,
582,0.00e+00,
583,-4.00e-01,
584,0.00e+00,
585,-4.00e-01,
586,0.00e+00,
587,-4.00e-01,
588,0.00e+00,
589,0.00e+00,
590,-4.00e-01,
591,0.00e+00,
592,0.00e+00,
593,-4.00e-01,
594,-4.00e-01,
595,0.00e+00,
596,0.00e+00,
597,-4.00e-01,
598,-4.00e-01,
599,9.20e+00,
600,1.32e+01,
601,3.52e+01,
602,3.56e+01,
603,2.64e+01,
604,2.52e+01,
605,1.96e+01,
606,2.00e+01,
607,2.76e+01,
608,2.92e+01,
609,2.64e+01,
610,2.60e+01,
611,2.36e+01,
612,2.40e+01,
613,2.56e+01,
614,2.52e+01,
615,2.60e+01,
616,2.68e+01,
617,2.48e+01,
618,2.40e+01,
619,2.52e+01,
620,2.56e+01,
621,2.68e+01,
622,2.60e+01,
623,2.44e+01,
624,2.48e+01,
625,2.56e+01,
626,2.60e+01,
627,2.56e+01,
628,2.60e+01,
629,2.48e+01,
630,2.48e+01,
631,2.56e+01,
632,2.56e+01,
633,2.60e+01,
634,2.56e+01,
635,2.48e+01,
636,2.48e+01,
637,2.60e+01,
638,2.60e+01,
639,2.56e+01,
640,2.56e+01,
641,2.52e+01,
642,2.52e+01,
643,2.60e+01,
644,2.56e+01,
645,2.60e+01,
646,2.60e+01,
647,2.52e+01,
648,2.52e+01,
649,2.56e+01,
650,2.52e+01,
651,2.60e+01,
652,2.52e+01,
653,2.60e+01,
654,2.56e+01,
655,2.52e+01,
656,2.56e+01,
657,2.60e+01,
658,2.56e+01,
659,2.56e+01,
660,2.52e+01,
661,2.60e+01,
662,2.52e+01,
663,2.60e+01,
664,2.56e+01,
665,2.56e+01,
666,2.56e+01,
667,2.60e+01,
668,2.52e+01,
669,2.60e+01,
670,2.60e+01,
671,2.52e+01,
672,2.56e+01,
673,2.56e+01,
674,2.60e+01,
675,2.52e+01,
676,2.52e+01,
677,2.60e+01,
678,2.56e+01,
679,2.60e+01,
680,2.60e+01,
681,2.56e+01,
682,2.56e+01,
683,2.52e+01,
684,2.52e+01,
685,2.56e+01,
686,2.56e+01,
687,2.56e+01,
688,2.56e+01,
689,2.52e+01,
690,2.56e+01,
691,2.56e+01,
692,2.56e+01,
693,2.56e+01,
694,2.56e+01,
695,2.56e+01,
696,2.60e+01,
697,2.52e+01,
698,2.56e+01,
699,2.52e+01,
700,2.56e+01,
701,2.56e+01,
702,2.56e+01,
703,2.52e+01,
704,2.52e+01,
705,2.56e+01,
706,2.52e+01,
707,2.60e+01,
708,2.56e+01,
709,2.60e+01,
710,2.56e+01,
711,2.52e+01,
712,2.60e+01,
713,2.52e+01,
714,2.56e+01,
715,2.56e+01,
716,2.56e+01,
717,2.56e+01,
718,2.56e+01,
719,2.52e+01,
720,2.52e+01,
721,2.60e+01,
722,2.60e+01,
723,2.52e+01,
724,2.56e+01,
725,2.52e+01,
726,2.56e+01,
727,2.52e+01,
728,2.56e+01,
729,2.56e+01,
730,2.56e+01,
731,2.52e+01,
732,2.56e+01,
733,2.52e+01,
734,2.60e+01,
735,2.52e+01,
736,2.56e+01,
737,2.52e+01,
738,2.56e+01,
739,2.52e+01,
740,2.56e+01,
741,2.52e+01,
742,2.56e+01,
743,2.60e+01,
744,2.56e+01,
745,2.52e+01,
746,2.56e+01,
747,2.52e+01,
748,2.56e+01,
749,2.52e+01,
750,2.56e+01,
751,2.56e+01,
752,2.52e+01,
753,2.60e+01,
754,2.52e+01,
755,2.60e+01,
756,2.52e+01,
757,2.60e+01,
758,2.56e+01,
759,2.52e+01,
760,2.52e+01,
761,2.56e+01,
762,2.56e+01,
763,2.52e+01,
764,2.56e+01,
765,2.52e+01,
766,2.52e+01,
767,2.60e+01,
768,2.52e+01,
769,2.56e+01,
770,2.56e+01,
771,2.60e+01,
772,2.52e+01,
773,2.60e+01,
774,2.56e+01,
775,2.52e+01,
776,2.60e+01,
777,2.52e+01,
778,2.56e+01,
779,2.60e+01,
780,2.56e+01,
781,2.52e+01,
782,2.56e+01,
783,2.52e+01,
784,2.52e+01,
785,2.60e+01,
786,2.56e+01,
787,2.52e+01,
788,2.56e+01,
789,2.52e+01,
790,2.52e+01,
791,2.56e+01,
792,2.56e+01,
793,2.60e+01,
794,2.56e+01,
795,2.52e+01,
796,2.56e+01,
797,2.52e+01,
798,2.52e+01,
799,2.60e+01,
800,2.52e+01,
801,2.60e+01,
802,2.56e+01,
803,2.52e+01,
804,2.52e+01,
805,2.60e+01,
806,2.56e+01,
807,2.52e+01,
808,2.52e+01,
809,2.56e+01,
810,2.56e+01,
811,2.52e+01,
812,2.56e+01,
813,2.52e+01,
814,2.56e+01,
815,2.52e+01,
816,2.52e+01,
817,2.56e+01,
818,2.56e+01,
819,2.52e+01,
820,2.56e+01,
821,2.52e+01,
822,2.52e+01,
823,2.60e+01,
824,2.52e+01,
825,2.56e+01,
826,2.56e+01,
827,2.60e+01,
828,2.56e+01,
829,2.52e+01,
830,2.52e+01,
831,2.60e+01,
832,2.52e+01,
833,2.60e+01,
834,2.56e+01,
835,2.52e+01,
836,2.56e+01,
837,2.52e+01,
838,2.52e+01,
839,2.56e+01,
840,2.52e+01,
841,2.60e+01,
842,2.56e+01,
843,2.52e+01,
844,2.56e+01,
845,2.52e+01,
846,2.52e+01,
847,2.60e+01,
848,2.56e+01,
849,2.52e+01,
850,2.52e+01,
851,2.60e+01,
852,2.56e+01,
853,2.52e+01,
854,2.56e+01,
855,2.52e+01,
856,2.56e+01,
857,2.52e+01,
858,2.60e+01,
859,2.52e+01,
860,2.52e+01,
861,2.60e+01,
862,2.56e+01,
863,2.52e+01,
864,2.52e+01,
865,2.60e+01,
866,2.52e+01,
867,2.60e+01,
868,2.60e+01,
869,2.52e+01,
870,2.52e+01,
871,2.60e+01,
872,2.52e+01,
873,2.56e+01,
874,2.60e+01,
875,2.56e+01,
876,2.56e+01,
877,3.60e+00,
878,-2.00e+00,
879,-1.52e+01,
880,-1.16e+01,
881,4.80e+00,
882,5.60e+00,
883,8.40e+00,
884,4.80e+00,
885,-7.20e+00,
886,-7.60e+00,
887,1.20e+00,
888,4.40e+00,
889,2.00e+00,
890,1.20e+00,
891,-2.00e+00,
892,-1.60e+00,
893,-2.40e+00,
894,-1.60e+00,
895,2.40e+00,
896,2.80e+00,
897,-1.60e+00,
898,-3.20e+00,
899,-1.20e+00,
900,-4.00e-01,
901,1.60e+00,
902,1.20e+00,
903,-8.00e-01,
904,-8.00e-01,
905,-1.20e+00,
906,-8.00e-01,
907,8.00e-01,
908,1.20e+00,
909,-8.00e-01,
910,-1.60e+00,
911,-4.00e-01,
912,0.00e+00,
913,8.00e-01,
914,4.00e-01,
915,-1.20e+00,
916,-8.00e-01,
917,0.00e+00,
918,0.00e+00,
919,4.00e-01,
920,0.00e+00,
921,-8.00e-01,
922,-1.20e+00,
923,-4.00e-01,
924,0.00e+00,
925,4.00e-01,
926,0.00e+00,
927,-8.00e-01,
928,-8.00e-01,
929,0.00e+00,
930,-8.00e-01,
931,0.00e+00,
932,0.00e+00,
933,-4.00e-01,
934,0.00e+00,
935,-8.00e-01,
936,-8.00e-01,
937,0.00e+00,
938,0.00e+00,
939,0.00e+00,
940,0.00e+00,
941,-8.00e-01,
942,-8.00e-01,
943,0.00e+00,
944,0.00e+00,
945,-4.00e-01,
946,0.00e+00,
947,-4.00e-01,
948,-4.00e-01,
949,-8.00e-01,
950,-8.00e-01,
951,0.00e+00,
952,-4.00e-01,
953,0.00e+00,
954,-8.00e-01,
955,0.00e+00,
956,-8.00e-01,
957,0.00e+00,
958,-4.00e-01,
959,0.00e+00,
960,-4.00e-01,
961,0.00e+00,
962,0.00e+00,
963,-8.00e-01,
964,0.00e+00,
965,-4.00e-01,
966,-4.00e-01,
967,0.00e+00,
968,0.00e+00,
969,-8.00e-01,
970,-8.00e-01,
971,0.00e+00,
972,0.00e+00,
973,-4.00e-01,
974,0.00e+00,
975,-4.00e-01,
976,0.00e+00,
977,-8.00e-01,
978,-4.00e-01,
979,0.00e+00,
980,0.00e+00,
981,-4.00e-01,
982,0.00e+00,
983,-8.00e-01,
984,-4.00e-01,
985,0.00e+00,
986,0.00e+00,
987,-4.00e-01,
988,0.00e+00,
989,-4.00e-01,
990,0.00e+00,
991,-8.00e-01,
992,-4.00e-01,
993,0.00e+00,
994,-4.00e-01,
995,0.00e+00,
996,0.00e+00,
997,-4.00e-01,
998,0.00e+00,
999,-8.00e-01,
1000,-4.00e-01,
1001,0.00e+00,
1002,0.00e+00,
1003,-4.00e-01,
1004,0.00e+00,
1005,-4.00e-01,
1006,-4.00e-01,
1007,0.00e+00,
1008,-4.00e-01,
1009,0.00e+00,
1010,-4.00e-01,
1011,0.00e+00,
1012,-4.00e-01,
1013,0.00e+00,
1014,0.00e+00,
1015,-4.00e-01,
1016,-4.00e-01,
1017,0.00e+00,
1018,0.00e+00,
1019,-8.00e-01,
1020,-4.00e-01,
1021,0.00e+00,
1022,0.00e+00,
1023,-4.00e-01,
1024,0.00e+00,
1025,-8.00e-01,
1026,0.00e+00,
1027,0.00e+00,
1028,-4.00e-01,
1029,0.00e+00,
1030,-4.00e-01,
1031,0.00e+00,
1032,0.00e+00,
1033,-4.00e-01,
1034,0.00e+00,
1035,-4.00e-01,
1036,0.00e+00,
1037,0.00e+00,
1038,-4.00e-01,
1039,0.00e+00,
1040,0.00e+00,
1041,-8.00e-01,
1042,0.00e+00,
1043,-4.00e-01,
1044,0.00e+00,
1045,-4.00e-01,
1046,0.00e+00,
1047,-8.00e-01,
1048,0.00e+00,
1049,-4.00e-01,
1050,-4.00e-01,
1051,0.00e+00,
1052,0.00e+00,
1053,-4.00e-01,
1054,0.00e+00,
1055,-4.00e-01,
1056,0.00e+00,
1057,0.00e+00,
1058,-4.00e-01,
1059,0.00e+00,
1060,0.00e+00,
1061,-8.00e-01,
1062,0.00e+00,
1063,0.00e+00,
1064,0.00e+00,
1065,0.00e+00,
1066,0.00e+00,
1067,-8.00e-01,
1068,0.00e+00,
1069,-4.00e-01,
1070,0.00e+00,
1071,-4.00e-01,
1072,0.00e+00,
1073,0.00e+00,
1074,-4.00e-01,
1075,0.00e+00,
1076,0.00e+00,
1077,-4.00e-01,
1078,0.00e+00,
1079,0.00e+00,
1080,0.00e+00,
1081,-4.00e-01,
1082,0.00e+00,
1083,-4.00e-01,
1084,0.00e+00,
1085,-4.00e-01,
1086,0.00e+00,
1087,-4.00e-01,
1088,0.00e+00,
1089,-4.00e-01,
1090,-4.00e-01,
1091,0.00e+00,
1092,0.00e+00,
1093,-4.00e-01,
1094,0.00e+00,
1095,-8.00e-01,
1096,-4.00e-01,
1097,0.00e+00,
1098,0.00e+00,
1099,-4.00e-01,
1100,0.00e+00,
1101,-4.00e-01,
1102,-4.00e-01,
1103,0.00e+00,
1104,-4.00e-01,
1105,0.00e+00,
1106,0.00e+00,
1107,0.00e+00,
1108,0.00e+00,
1109,-4.00e-01,
1110,-4.00e-01,
1111,0.00e+00,
1112,0.00e+00,
1113,-4.00e-01,
1114,-4.00e-01,
1115,0.00e+00,
1116,0.00e+00,
1117,-4.00e-01,
1118,0.00e+00,
1119,-4.00e-01,
1120,-4.00e-01,
1121,0.00e+00,
1122,0.00e+00,
1123,0.00e+00,
1124,0.00e+00,
1125,-4.00e-01,
1126,0.00e+00,
1127,-4.00e-01,
1128,0.00e+00,
1129,-4.00e-01,
1130,0.00e+00,
1131,-4.00e-01,
1132,0.00e+00,
1133,-4.00e-01,
1134,-4.00e-01,
1135,0.00e+00,
1136,-4.00e-01,
1137,0.00e+00,
1138,0.00e+00,
1139,-4.00e-01,
1140,-4.00e-01,
1141,0.00e+00,
1142,-4.00e-01,
1143,0.00e+00,
1144,0.00e+00,
1145,-4.00e-01,
1146,0.00e+00,
1147,-4.00e-01,
1148,0.00e+00,
1149,-4.00e-01,
1150,0.00e+00,
1151,-8.00e-01,
1152,0.00e+00,
1153,-4.00e-01,
1154,4.00e-01,
1155,-4.00e-01,
1156,0.00e+00,
1157,-4.00e-01,
1158,-4.00e-01,
1159,0.00e+00,
1160,0.00e+00,
1161,-4.00e-01,
1162,0.00e+00,
1163,-4.00e-01,
1164,0.00e+00,
1165,-8.00e-01,
1166,0.00e+00,
1167,-4.00e-01,
1168,-4.00e-01,
1169,0.00e+00,
1170,0.00e+00,
1171,-4.00e-01,
1172,0.00e+00,
1173,-4.00e-01,
1174,-4.00e-01,
1175,0.00e+00,
1176,-4.00e-01,
1177,0.00e+00,
1178,0.00e+00,
1179,-4.00e-01,
1180,0.00e+00,
1181,-4.00e-01,
1182,0.00e+00,
1183,-4.00e-01,
1184,0.00e+00,
1185,0.00e+00,
1186,-4.00e-01,
1187,0.00e+00,
1188,0.00e+00,
1189,-4.00e-01,
1190,0.00e+00,
1191,-4.00e-01,
1192,-4.00e-01,
1193,0.00e+00,
1194,0.00e+00,
1195,-4.00e-01,
1196,-4.00e-01,
1197,0.00e+00,
1198,-4.00e-01,
1199,0.00e+00,
