Lab1_D7Report/analysis/D7/实验一/Phi1-Phi2/新建文件1.csv

X,CH1,CH2,Start,Increment,
Sequence,Volt,Volt,-3.000000e-06,5.000000e-09
0,0.00e+00,5.00e+00,
1,0.00e+00,5.20e+00,
2,0.00e+00,5.20e+00,
3,0.00e+00,5.00e+00,
4,0.00e+00,5.00e+00,
5,0.00e+00,5.20e+00,
6,0.00e+00,5.20e+00,
7,0.00e+00,5.00e+00,
8,0.00e+00,5.00e+00,
9,0.00e+00,5.20e+00,
10,0.00e+00,5.20e+00,
11,0.00e+00,5.00e+00,
12,0.00e+00,4.80e+00,
13,0.00e+00,5.20e+00,
14,0.00e+00,5.20e+00,
15,0.00e+00,5.00e+00,
16,0.00e+00,5.00e+00,
17,0.00e+00,5.20e+00,
18,0.00e+00,5.20e+00,
19,0.00e+00,5.00e+00,
20,0.00e+00,5.00e+00,
21,0.00e+00,5.20e+00,
22,0.00e+00,5.20e+00,
23,-4.00e-01,5.00e+00,
24,-4.00e-01,5.00e+00,
25,0.00e+00,5.20e+00,
26,0.00e+00,5.20e+00,
27,0.00e+00,5.00e+00,
28,0.00e+00,5.00e+00,
29,0.00e+00,5.20e+00,
30,0.00e+00,5.20e+00,
31,0.00e+00,5.00e+00,
32,0.00e+00,5.00e+00,
33,0.00e+00,5.20e+00,
34,0.00e+00,5.20e+00,
35,0.00e+00,5.00e+00,
36,0.00e+00,5.00e+00,
37,0.00e+00,5.20e+00,
38,0.00e+00,5.20e+00,
39,0.00e+00,4.80e+00,
40,0.00e+00,4.80e+00,
41,0.00e+00,5.20e+00,
42,0.00e+00,5.20e+00,
43,1.20e+00,4.60e+00,
44,5.20e+00,1.40e+00,
45,2.32e+01,-3.20e+00,
46,2.44e+01,-2.60e+00,
47,2.00e+01,8.00e-01,
48,2.00e+01,1.40e+00,
49,2.44e+01,2.20e+00,
50,2.52e+01,1.00e+00,
51,2.68e+01,-1.00e+00,
52,2.44e+01,-1.20e+00,
53,2.24e+01,0.00e+00,
54,2.36e+01,4.00e-01,
55,2.72e+01,8.00e-01,
56,2.72e+01,6.00e-01,
57,2.52e+01,-4.00e-01,
58,2.40e+01,-2.00e-01,
59,2.48e+01,-6.00e-01,
60,2.56e+01,-2.00e-01,
61,2.64e+01,2.00e-01,
62,2.60e+01,4.00e-01,
63,2.56e+01,-2.00e-01,
64,2.56e+01,-4.00e-01,
65,2.52e+01,-2.00e-01,
66,2.52e+01,0.00e+00,
67,2.60e+01,-2.00e-01,
68,2.60e+01,2.00e-01,
69,2.56e+01,-2.00e-01,
70,2.56e+01,0.00e+00,
71,2.60e+01,-2.00e-01,
72,2.56e+01,-4.00e-01,
73,2.64e+01,0.00e+00,
74,2.64e+01,0.00e+00,
75,2.56e+01,-2.00e-01,
76,2.56e+01,-2.00e-01,
77,2.60e+01,2.00e-01,
78,2.60e+01,0.00e+00,
79,2.56e+01,-2.00e-01,
80,2.52e+01,0.00e+00,
81,2.60e+01,-2.00e-01,
82,2.52e+01,0.00e+00,
83,2.64e+01,-2.00e-01,
84,2.52e+01,-2.00e-01,
85,2.60e+01,0.00e+00,
86,2.64e+01,-2.00e-01,
87,2.56e+01,4.00e-01,
88,2.60e+01,-2.00e-01,
89,2.52e+01,0.00e+00,
90,2.60e+01,2.00e-01,
91,2.52e+01,0.00e+00,
92,2.64e+01,-2.00e-01,
93,2.52e+01,2.00e-01,
94,2.60e+01,2.00e-01,
95,2.56e+01,-2.00e-01,
96,2.56e+01,-2.00e-01,
97,2.64e+01,0.00e+00,
98,2.60e+01,-2.00e-01,
99,2.56e+01,2.00e-01,
100,2.60e+01,-2.00e-01,
101,2.52e+01,0.00e+00,
102,2.56e+01,2.00e-01,
103,2.64e+01,-2.00e-01,
104,2.60e+01,-2.00e-01,
105,2.52e+01,2.00e-01,
106,2.56e+01,0.00e+00,
107,2.64e+01,-2.00e-01,
108,2.56e+01,-2.00e-01,
109,2.60e+01,2.00e-01,
110,2.52e+01,2.00e-01,
111,2.60e+01,-2.00e-01,
112,2.52e+01,-2.00e-01,
113,2.60e+01,0.00e+00,
114,2.52e+01,2.00e-01,
115,2.60e+01,0.00e+00,
116,2.52e+01,-2.00e-01,
117,2.60e+01,0.00e+00,
118,2.56e+01,-2.00e-01,
119,2.60e+01,2.00e-01,
120,2.56e+01,0.00e+00,
121,2.64e+01,-2.00e-01,
122,2.56e+01,2.00e-01,
123,2.64e+01,0.00e+00,
124,2.56e+01,-2.00e-01,
125,2.64e+01,2.00e-01,
126,2.52e+01,0.00e+00,
127,2.64e+01,-2.00e-01,
128,2.60e+01,-2.00e-01,
129,2.52e+01,0.00e+00,
130,2.56e+01,0.00e+00,
131,2.60e+01,-2.00e-01,
132,2.60e+01,-2.00e-01,
133,2.52e+01,2.00e-01,
134,2.52e+01,0.00e+00,
135,2.64e+01,-2.00e-01,
136,2.52e+01,-2.00e-01,
137,2.60e+01,2.00e-01,
138,2.56e+01,2.00e-01,
139,2.64e+01,0.00e+00,
140,2.60e+01,2.00e-01,
141,2.52e+01,-2.00e-01,
142,2.56e+01,-2.00e-01,
143,2.64e+01,2.00e-01,
144,2.60e+01,0.00e+00,
145,2.56e+01,-2.00e-01,
146,2.56e+01,0.00e+00,
147,2.64e+01,-2.00e-01,
148,2.56e+01,0.00e+00,
149,2.60e+01,-2.00e-01,
150,2.60e+01,-2.00e-01,
151,2.56e+01,2.00e-01,
152,2.52e+01,-2.00e-01,
153,2.60e+01,0.00e+00,
154,2.52e+01,2.00e-01,
155,2.56e+01,-2.00e-01,
156,2.56e+01,2.00e-01,
157,2.60e+01,-2.00e-01,
158,2.60e+01,-2.00e-01,
159,2.52e+01,2.00e-01,
160,2.56e+01,2.00e-01,
161,2.60e+01,-2.00e-01,
162,2.52e+01,2.00e-01,
163,2.64e+01,-2.00e-01,
164,2.60e+01,0.00e+00,
165,2.52e+01,2.00e-01,
166,2.64e+01,2.00e-01,
167,2.56e+01,-4.00e-01,
168,2.56e+01,-2.00e-01,
169,2.64e+01,0.00e+00,
170,2.56e+01,0.00e+00,
171,2.60e+01,-2.00e-01,
172,2.52e+01,-2.00e-01,
173,2.60e+01,2.00e-01,
174,2.56e+01,2.00e-01,
175,2.52e+01,-2.00e-01,
176,2.52e+01,-2.00e-01,
177,2.60e+01,2.00e-01,
178,2.56e+01,2.00e-01,
179,2.52e+01,-2.00e-01,
180,2.52e+01,0.00e+00,
181,2.60e+01,-2.00e-01,
182,2.60e+01,2.00e-01,
183,2.52e+01,-2.00e-01,
184,2.52e+01,-2.00e-01,
185,2.60e+01,2.00e-01,
186,2.56e+01,2.00e-01,
187,2.64e+01,-2.00e-01,
188,2.56e+01,-2.00e-01,
189,2.56e+01,0.00e+00,
190,2.60e+01,0.00e+00,
191,2.56e+01,-2.00e-01,
192,2.56e+01,-2.00e-01,
193,2.60e+01,0.00e+00,
194,2.56e+01,2.00e-01,
195,2.60e+01,-2.00e-01,
196,2.52e+01,-2.00e-01,
197,2.56e+01,0.00e+00,
198,2.60e+01,2.00e-01,
199,2.56e+01,-2.00e-01,
200,2.60e+01,-2.00e-01,
201,2.56e+01,2.00e-01,
202,2.56e+01,2.00e-01,
203,2.52e+01,0.00e+00,
204,2.60e+01,-2.00e-01,
205,2.52e+01,2.00e-01,
206,2.60e+01,0.00e+00,
207,2.52e+01,-2.00e-01,
208,2.60e+01,-2.00e-01,
209,2.52e+01,2.00e-01,
210,2.52e+01,2.00e-01,
211,2.56e+01,-2.00e-01,
212,2.60e+01,-2.00e-01,
213,2.52e+01,0.00e+00,
214,2.60e+01,2.00e-01,
215,2.56e+01,-2.00e-01,
216,2.60e+01,0.00e+00,
217,2.52e+01,-2.00e-01,
218,2.52e+01,2.00e-01,
219,2.56e+01,-2.00e-01,
220,2.52e+01,-2.00e-01,
221,2.60e+01,2.00e-01,
222,2.60e+01,2.00e-01,
223,2.52e+01,-2.00e-01,
224,2.52e+01,0.00e+00,
225,2.60e+01,-2.00e-01,
226,2.60e+01,-2.00e-01,
227,2.52e+01,2.00e-01,
228,2.56e+01,0.00e+00,
229,2.60e+01,-2.00e-01,
230,2.60e+01,0.00e+00,
231,2.52e+01,2.00e-01,
232,2.56e+01,0.00e+00,
233,2.52e+01,-2.00e-01,
234,2.52e+01,0.00e+00,
235,2.56e+01,-2.00e-01,
236,2.56e+01,-2.00e-01,
237,2.56e+01,0.00e+00,
238,2.60e+01,2.00e-01,
239,2.56e+01,-2.00e-01,
240,2.52e+01,-2.00e-01,
241,2.60e+01,2.00e-01,
242,2.52e+01,2.00e-01,
243,2.64e+01,-2.00e-01,
244,2.60e+01,2.00e-01,
245,2.52e+01,-2.00e-01,
246,2.64e+01,-2.00e-01,
247,2.56e+01,4.00e-01,
248,2.56e+01,0.00e+00,
249,2.64e+01,-2.00e-01,
250,2.56e+01,0.00e+00,
251,2.60e+01,-2.00e-01,
252,2.56e+01,-2.00e-01,
253,2.52e+01,2.00e-01,
254,2.56e+01,2.00e-01,
255,2.52e+01,0.00e+00,
256,2.52e+01,-2.00e-01,
257,2.60e+01,0.00e+00,
258,2.56e+01,-2.00e-01,
259,2.52e+01,2.00e-01,
260,2.56e+01,-2.00e-01,
261,2.56e+01,2.00e-01,
262,2.52e+01,2.00e-01,
263,2.60e+01,-2.00e-01,
264,2.52e+01,-2.00e-01,
265,2.60e+01,2.00e-01,
266,2.56e+01,2.00e-01,
267,2.60e+01,-2.00e-01,
268,2.60e+01,0.00e+00,
269,2.52e+01,-2.00e-01,
270,2.60e+01,0.00e+00,
271,2.52e+01,-2.00e-01,
272,2.52e+01,-2.00e-01,
273,2.60e+01,0.00e+00,
274,2.52e+01,2.00e-01,
275,2.60e+01,-2.00e-01,
276,2.52e+01,-2.00e-01,
277,2.60e+01,2.00e-01,
278,2.60e+01,-2.00e-01,
279,2.56e+01,2.00e-01,
280,2.52e+01,-2.00e-01,
281,2.60e+01,2.00e-01,
282,2.56e+01,2.00e-01,
283,2.60e+01,0.00e+00,
284,2.60e+01,2.00e-01,
285,2.52e+01,-2.00e-01,
286,2.60e+01,0.00e+00,
287,2.52e+01,-2.00e-01,
288,2.56e+01,-2.00e-01,
289,2.60e+01,2.00e-01,
290,2.56e+01,-2.00e-01,
291,2.60e+01,2.00e-01,
292,2.52e+01,-2.00e-01,
293,2.60e+01,0.00e+00,
294,2.60e+01,2.00e-01,
295,2.52e+01,-2.00e-01,
296,2.52e+01,-2.00e-01,
297,2.56e+01,2.00e-01,
298,2.56e+01,2.00e-01,
299,2.52e+01,-2.00e-01,
300,2.52e+01,0.00e+00,
301,2.56e+01,-2.00e-01,
302,2.52e+01,2.00e-01,
303,2.60e+01,-2.00e-01,
304,2.56e+01,0.00e+00,
305,2.52e+01,2.00e-01,
306,2.52e+01,2.00e-01,
307,2.60e+01,0.00e+00,
308,2.56e+01,0.00e+00,
309,2.52e+01,-2.00e-01,
310,2.56e+01,0.00e+00,
311,2.52e+01,-2.00e-01,
312,2.52e+01,-2.00e-01,
313,2.60e+01,0.00e+00,
314,2.52e+01,0.00e+00,
315,2.60e+01,0.00e+00,
316,2.56e+01,-2.00e-01,
317,2.52e+01,2.00e-01,
318,2.60e+01,-2.00e-01,
319,2.52e+01,2.00e-01,
320,2.56e+01,0.00e+00,
321,1.60e+01,4.00e-01,
322,7.60e+00,3.00e+00,
323,-8.80e+00,6.20e+00,
324,-5.20e+00,6.00e+00,
325,8.00e+00,4.20e+00,
326,8.40e+00,3.60e+00,
327,-2.00e+00,4.60e+00,
328,-4.80e+00,4.60e+00,
329,-1.60e+00,5.20e+00,
330,4.00e-01,5.20e+00,
331,4.00e+00,4.80e+00,
332,2.00e+00,5.00e+00,
333,-2.80e+00,5.00e+00,
334,-2.40e+00,5.00e+00,
335,1.20e+00,5.00e+00,
336,1.60e+00,5.20e+00,
337,0.00e+00,4.80e+00,
338,-1.20e+00,5.20e+00,
339,-4.00e-01,5.00e+00,
340,-4.00e-01,5.00e+00,
341,4.00e-01,5.20e+00,
342,4.00e-01,5.20e+00,
343,-4.00e-01,5.00e+00,
344,-4.00e-01,4.80e+00,
345,0.00e+00,5.20e+00,
346,0.00e+00,5.20e+00,
347,0.00e+00,5.00e+00,
348,0.00e+00,5.00e+00,
349,0.00e+00,5.20e+00,
350,0.00e+00,5.20e+00,
351,0.00e+00,5.00e+00,
352,-4.00e-01,5.00e+00,
353,0.00e+00,5.20e+00,
354,0.00e+00,5.20e+00,
355,0.00e+00,5.00e+00,
356,0.00e+00,5.00e+00,
357,-4.00e-01,5.20e+00,
358,-8.00e-01,5.20e+00,
359,0.00e+00,5.00e+00,
360,0.00e+00,5.00e+00,
361,0.00e+00,5.20e+00,
362,0.00e+00,5.20e+00,
363,-4.00e-01,5.00e+00,
364,-4.00e-01,5.00e+00,
365,0.00e+00,5.20e+00,
366,0.00e+00,5.20e+00,
367,0.00e+00,5.00e+00,
368,0.00e+00,5.00e+00,
369,0.00e+00,5.20e+00,
370,0.00e+00,5.20e+00,
371,0.00e+00,5.00e+00,
372,0.00e+00,5.00e+00,
373,0.00e+00,5.20e+00,
374,0.00e+00,5.20e+00,
375,0.00e+00,4.80e+00,
376,0.00e+00,5.00e+00,
377,0.00e+00,5.20e+00,
378,0.00e+00,5.20e+00,
379,-4.00e-01,5.00e+00,
380,0.00e+00,5.00e+00,
381,0.00e+00,5.20e+00,
382,0.00e+00,5.20e+00,
383,0.00e+00,5.00e+00,
384,0.00e+00,5.00e+00,
385,-4.00e-01,5.20e+00,
386,0.00e+00,5.20e+00,
387,0.00e+00,5.00e+00,
388,0.00e+00,5.00e+00,
389,0.00e+00,5.20e+00,
390,0.00e+00,5.20e+00,
391,0.00e+00,5.00e+00,
392,0.00e+00,5.00e+00,
393,0.00e+00,5.20e+00,
394,0.00e+00,5.20e+00,
395,0.00e+00,5.00e+00,
396,0.00e+00,5.00e+00,
397,0.00e+00,5.20e+00,
398,0.00e+00,5.20e+00,
399,-4.00e-01,5.00e+00,
400,0.00e+00,5.00e+00,
401,0.00e+00,5.20e+00,
402,0.00e+00,5.20e+00,
403,0.00e+00,5.00e+00,
404,0.00e+00,5.00e+00,
405,-8.00e-01,5.20e+00,
406,0.00e+00,5.20e+00,
407,-4.00e-01,5.00e+00,
408,0.00e+00,5.20e+00,
409,-4.00e-01,4.80e+00,
410,0.00e+00,5.20e+00,
411,0.00e+00,5.00e+00,
412,0.00e+00,5.00e+00,
413,0.00e+00,5.20e+00,
414,0.00e+00,5.20e+00,
415,0.00e+00,5.00e+00,
416,0.00e+00,5.00e+00,
417,0.00e+00,5.20e+00,
418,0.00e+00,5.20e+00,
419,0.00e+00,5.00e+00,
420,0.00e+00,5.20e+00,
421,0.00e+00,4.80e+00,
422,0.00e+00,5.20e+00,
423,0.00e+00,5.00e+00,
424,0.00e+00,5.00e+00,
425,0.00e+00,5.20e+00,
426,0.00e+00,5.20e+00,
427,0.00e+00,5.00e+00,
428,-4.00e-01,5.00e+00,
429,0.00e+00,5.20e+00,
430,0.00e+00,5.20e+00,
431,0.00e+00,5.00e+00,
432,-8.00e-01,5.00e+00,
433,0.00e+00,5.20e+00,
434,0.00e+00,5.20e+00,
435,0.00e+00,5.00e+00,
436,0.00e+00,5.00e+00,
437,0.00e+00,5.20e+00,
438,0.00e+00,5.20e+00,
439,0.00e+00,5.00e+00,
440,0.00e+00,5.00e+00,
441,0.00e+00,5.20e+00,
442,0.00e+00,5.20e+00,
443,-4.00e-01,5.00e+00,
444,-4.00e-01,5.00e+00,
445,0.00e+00,5.20e+00,
446,4.00e-01,5.20e+00,
447,-4.00e-01,5.00e+00,
448,-4.00e-01,4.80e+00,
449,0.00e+00,5.20e+00,
450,0.00e+00,5.20e+00,
451,0.00e+00,5.00e+00,
452,0.00e+00,4.80e+00,
453,0.00e+00,5.20e+00,
454,0.00e+00,5.20e+00,
455,0.00e+00,5.00e+00,
456,0.00e+00,5.00e+00,
457,0.00e+00,5.20e+00,
458,0.00e+00,5.20e+00,
459,-4.00e-01,5.00e+00,
460,-4.00e-01,5.00e+00,
461,0.00e+00,5.20e+00,
462,0.00e+00,5.20e+00,
463,-4.00e-01,5.00e+00,
464,0.00e+00,5.00e+00,
465,0.00e+00,5.20e+00,
466,0.00e+00,5.20e+00,
467,0.00e+00,5.00e+00,
468,0.00e+00,5.00e+00,
469,-4.00e-01,5.20e+00,
470,0.00e+00,5.20e+00,
471,0.00e+00,5.00e+00,
472,0.00e+00,5.00e+00,
473,0.00e+00,5.20e+00,
474,0.00e+00,5.20e+00,
475,-4.00e-01,4.80e+00,
476,0.00e+00,4.80e+00,
477,0.00e+00,5.20e+00,
478,0.00e+00,5.20e+00,
479,-4.00e-01,4.80e+00,
480,0.00e+00,5.00e+00,
481,0.00e+00,5.20e+00,
482,0.00e+00,5.20e+00,
483,0.00e+00,5.00e+00,
484,0.00e+00,4.80e+00,
485,0.00e+00,5.20e+00,
486,0.00e+00,5.20e+00,
487,0.00e+00,5.00e+00,
488,0.00e+00,5.00e+00,
489,0.00e+00,5.20e+00,
490,-4.00e-01,5.20e+00,
491,0.00e+00,5.00e+00,
492,0.00e+00,5.00e+00,
493,0.00e+00,5.20e+00,
494,-4.00e-01,5.20e+00,
495,0.00e+00,5.00e+00,
496,0.00e+00,5.00e+00,
497,0.00e+00,5.20e+00,
498,0.00e+00,5.20e+00,
499,0.00e+00,5.00e+00,
500,0.00e+00,5.00e+00,
501,0.00e+00,5.20e+00,
502,0.00e+00,5.20e+00,
503,0.00e+00,5.00e+00,
504,0.00e+00,5.20e+00,
505,0.00e+00,4.80e+00,
506,0.00e+00,5.20e+00,
507,0.00e+00,4.80e+00,
508,0.00e+00,5.20e+00,
509,0.00e+00,4.80e+00,
510,0.00e+00,5.20e+00,
511,0.00e+00,5.00e+00,
512,0.00e+00,5.00e+00,
513,0.00e+00,5.20e+00,
514,0.00e+00,5.20e+00,
515,0.00e+00,4.80e+00,
516,0.00e+00,5.00e+00,
517,0.00e+00,5.20e+00,
518,0.00e+00,5.20e+00,
519,0.00e+00,5.00e+00,
520,0.00e+00,5.00e+00,
521,-4.00e-01,5.20e+00,
522,0.00e+00,5.20e+00,
523,0.00e+00,5.00e+00,
524,0.00e+00,5.00e+00,
525,-4.00e-01,5.20e+00,
526,0.00e+00,5.20e+00,
527,0.00e+00,5.00e+00,
528,0.00e+00,5.00e+00,
529,0.00e+00,5.20e+00,
530,0.00e+00,5.20e+00,
531,0.00e+00,5.00e+00,
532,0.00e+00,5.00e+00,
533,0.00e+00,5.20e+00,
534,0.00e+00,5.20e+00,
535,0.00e+00,5.00e+00,
536,0.00e+00,5.20e+00,
537,0.00e+00,4.80e+00,
538,0.00e+00,5.20e+00,
539,-4.00e-01,5.00e+00,
540,0.00e+00,5.00e+00,
541,0.00e+00,5.20e+00,
542,0.00e+00,5.20e+00,
543,0.00e+00,5.00e+00,
544,0.00e+00,5.00e+00,
545,0.00e+00,5.20e+00,
546,0.00e+00,5.20e+00,
547,0.00e+00,5.00e+00,
548,0.00e+00,5.00e+00,
549,0.00e+00,5.20e+00,
550,0.00e+00,5.20e+00,
551,-4.00e-01,5.00e+00,
552,-4.00e-01,5.00e+00,
553,0.00e+00,5.20e+00,
554,0.00e+00,5.20e+00,
555,0.00e+00,4.80e+00,
556,0.00e+00,5.00e+00,
557,0.00e+00,5.20e+00,
558,0.00e+00,5.20e+00,
559,0.00e+00,5.00e+00,
560,0.00e+00,5.00e+00,
561,0.00e+00,5.20e+00,
562,-4.00e-01,5.20e+00,
563,0.00e+00,5.00e+00,
564,0.00e+00,5.00e+00,
565,0.00e+00,5.20e+00,
566,0.00e+00,5.20e+00,
567,0.00e+00,4.80e+00,
568,0.00e+00,4.80e+00,
569,0.00e+00,5.20e+00,
570,0.00e+00,5.20e+00,
571,0.00e+00,5.00e+00,
572,0.00e+00,5.00e+00,
573,0.00e+00,5.20e+00,
574,0.00e+00,5.20e+00,
575,0.00e+00,5.00e+00,
576,0.00e+00,5.00e+00,
577,0.00e+00,5.20e+00,
578,0.00e+00,5.20e+00,
579,0.00e+00,5.00e+00,
580,0.00e+00,5.00e+00,
581,0.00e+00,5.20e+00,
582,-4.00e-01,5.20e+00,
583,0.00e+00,5.00e+00,
584,0.00e+00,5.20e+00,
585,0.00e+00,4.80e+00,
586,0.00e+00,5.20e+00,
587,0.00e+00,5.00e+00,
588,0.00e+00,5.00e+00,
589,-4.00e-01,5.20e+00,
590,0.00e+00,5.20e+00,
591,0.00e+00,5.00e+00,
592,0.00e+00,5.00e+00,
593,0.00e+00,5.20e+00,
594,0.00e+00,5.20e+00,
595,0.00e+00,5.00e+00,
596,0.00e+00,5.00e+00,
597,0.00e+00,5.20e+00,
598,0.00e+00,5.20e+00,
599,6.80e+00,1.20e+00,
600,1.12e+01,-8.00e-01,
601,2.44e+01,-3.00e+00,
602,2.36e+01,-2.20e+00,
603,1.96e+01,1.80e+00,
604,2.08e+01,2.20e+00,
605,2.56e+01,6.00e-01,
606,2.68e+01,2.00e-01,
607,2.48e+01,-1.20e+00,
608,2.36e+01,-1.20e+00,
609,2.28e+01,2.00e-01,
610,2.52e+01,6.00e-01,
611,2.72e+01,8.00e-01,
612,2.64e+01,2.00e-01,
613,2.44e+01,-6.00e-01,
614,2.44e+01,-6.00e-01,
615,2.60e+01,0.00e+00,
616,2.60e+01,0.00e+00,
617,2.68e+01,4.00e-01,
618,2.60e+01,4.00e-01,
619,2.52e+01,-2.00e-01,
620,2.52e+01,-4.00e-01,
621,2.60e+01,-2.00e-01,
622,2.60e+01,-2.00e-01,
623,2.56e+01,4.00e-01,
624,2.56e+01,2.00e-01,
625,2.64e+01,-2.00e-01,
626,2.56e+01,2.00e-01,
627,2.60e+01,-4.00e-01,
628,2.52e+01,-2.00e-01,
629,2.64e+01,0.00e+00,
630,2.56e+01,0.00e+00,
631,2.64e+01,-2.00e-01,
632,2.60e+01,2.00e-01,
633,2.52e+01,-4.00e-01,
634,2.56e+01,2.00e-01,
635,2.64e+01,-2.00e-01,
636,2.56e+01,-2.00e-01,
637,2.60e+01,2.00e-01,
638,2.64e+01,2.00e-01,
639,2.52e+01,-2.00e-01,
640,2.56e+01,2.00e-01,
641,2.64e+01,-2.00e-01,
642,2.60e+01,-2.00e-01,
643,2.52e+01,2.00e-01,
644,2.52e+01,-2.00e-01,
645,2.60e+01,2.00e-01,
646,2.64e+01,-2.00e-01,
647,2.56e+01,4.00e-01,
648,2.64e+01,-2.00e-01,
649,2.52e+01,0.00e+00,
650,2.52e+01,0.00e+00,
651,2.60e+01,2.00e-01,
652,2.56e+01,-2.00e-01,
653,2.64e+01,2.00e-01,
654,2.56e+01,0.00e+00,
655,2.64e+01,-2.00e-01,
656,2.56e+01,2.00e-01,
657,2.64e+01,-2.00e-01,
658,2.56e+01,2.00e-01,
659,2.60e+01,-2.00e-01,
660,2.56e+01,-2.00e-01,
661,2.64e+01,2.00e-01,
662,2.60e+01,2.00e-01,
663,2.52e+01,0.00e+00,
664,2.60e+01,2.00e-01,
665,2.52e+01,-2.00e-01,
666,2.56e+01,0.00e+00,
667,2.60e+01,-2.00e-01,
668,2.52e+01,-2.00e-01,
669,2.64e+01,2.00e-01,
670,2.60e+01,-2.00e-01,
671,2.52e+01,2.00e-01,
672,2.56e+01,0.00e+00,
673,2.60e+01,2.00e-01,
674,2.60e+01,2.00e-01,
675,2.56e+01,0.00e+00,
676,2.64e+01,2.00e-01,
677,2.56e+01,-2.00e-01,
678,2.52e+01,0.00e+00,
679,2.64e+01,-2.00e-01,
680,2.52e+01,-2.00e-01,
681,2.60e+01,0.00e+00,
682,2.52e+01,0.00e+00,
683,2.60e+01,-2.00e-01,
684,2.56e+01,-2.00e-01,
685,2.60e+01,2.00e-01,
686,2.56e+01,2.00e-01,
687,2.60e+01,-2.00e-01,
688,2.60e+01,2.00e-01,
689,2.52e+01,-2.00e-01,
690,2.60e+01,0.00e+00,
691,2.56e+01,2.00e-01,
692,2.56e+01,2.00e-01,
693,2.60e+01,-2.00e-01,
694,2.56e+01,0.00e+00,
695,2.60e+01,-2.00e-01,
696,2.56e+01,-2.00e-01,
697,2.60e+01,0.00e+00,
698,2.56e+01,0.00e+00,
699,2.64e+01,-2.00e-01,
700,2.60e+01,2.00e-01,
701,2.52e+01,-2.00e-01,
702,2.52e+01,-2.00e-01,
703,2.64e+01,2.00e-01,
704,2.56e+01,0.00e+00,
705,2.52e+01,-2.00e-01,
706,2.52e+01,0.00e+00,
707,2.60e+01,2.00e-01,
708,2.52e+01,0.00e+00,
709,2.64e+01,-2.00e-01,
710,2.52e+01,0.00e+00,
711,2.64e+01,-2.00e-01,
712,2.56e+01,-2.00e-01,
713,2.60e+01,2.00e-01,
714,2.56e+01,2.00e-01,
715,2.52e+01,-2.00e-01,
716,2.60e+01,2.00e-01,
717,2.52e+01,-2.00e-01,
718,2.52e+01,0.00e+00,
719,2.60e+01,-2.00e-01,
720,2.60e+01,-2.00e-01,
721,2.52e+01,2.00e-01,
722,2.52e+01,-2.00e-01,
723,2.64e+01,2.00e-01,
724,2.60e+01,2.00e-01,
725,2.52e+01,-2.00e-01,
726,2.64e+01,-4.00e-01,
727,2.52e+01,4.00e-01,
728,2.52e+01,-4.00e-01,
729,2.64e+01,2.00e-01,
730,2.52e+01,2.00e-01,
731,2.60e+01,-2.00e-01,
732,2.56e+01,-2.00e-01,
733,2.60e+01,2.00e-01,
734,2.60e+01,0.00e+00,
735,2.56e+01,-2.00e-01,
736,2.52e+01,-2.00e-01,
737,2.60e+01,2.00e-01,
738,2.52e+01,-2.00e-01,
739,2.60e+01,0.00e+00,
740,2.52e+01,0.00e+00,
741,2.60e+01,-2.00e-01,
742,2.60e+01,2.00e-01,
743,2.56e+01,-2.00e-01,
744,2.56e+01,-2.00e-01,
745,2.60e+01,0.00e+00,
746,2.60e+01,-2.00e-01,
747,2.56e+01,2.00e-01,
748,2.60e+01,2.00e-01,
749,2.52e+01,-2.00e-01,
750,2.60e+01,2.00e-01,
751,2.56e+01,0.00e+00,
752,2.60e+01,-2.00e-01,
753,2.52e+01,0.00e+00,
754,2.56e+01,-2.00e-01,
755,2.60e+01,2.00e-01,
756,2.56e+01,-2.00e-01,
757,2.60e+01,2.00e-01,
758,2.60e+01,2.00e-01,
759,2.52e+01,-2.00e-01,
760,2.60e+01,-2.00e-01,
761,2.52e+01,0.00e+00,
762,2.52e+01,2.00e-01,
763,2.60e+01,0.00e+00,
764,2.60e+01,0.00e+00,
765,2.52e+01,-2.00e-01,
766,2.60e+01,-2.00e-01,
767,2.52e+01,2.00e-01,
768,2.56e+01,2.00e-01,
769,2.60e+01,-2.00e-01,
770,2.52e+01,2.00e-01,
771,2.60e+01,-2.00e-01,
772,2.56e+01,0.00e+00,
773,2.60e+01,2.00e-01,
774,2.60e+01,2.00e-01,
775,2.52e+01,-2.00e-01,
776,2.52e+01,-2.00e-01,
777,2.60e+01,0.00e+00,
778,2.52e+01,0.00e+00,
779,2.60e+01,-2.00e-01,
780,2.52e+01,2.00e-01,
781,2.60e+01,-2.00e-01,
782,2.56e+01,0.00e+00,
783,2.60e+01,-2.00e-01,
784,2.60e+01,-2.00e-01,
785,2.56e+01,2.00e-01,
786,2.52e+01,-2.00e-01,
787,2.60e+01,2.00e-01,
788,2.60e+01,2.00e-01,
789,2.52e+01,-2.00e-01,
790,2.60e+01,0.00e+00,
791,2.52e+01,-2.00e-01,
792,2.52e+01,0.00e+00,
793,2.60e+01,-2.00e-01,
794,2.56e+01,-2.00e-01,
795,2.60e+01,2.00e-01,
796,2.52e+01,-2.00e-01,
797,2.60e+01,2.00e-01,
798,2.52e+01,0.00e+00,
799,2.60e+01,2.00e-01,
800,2.52e+01,2.00e-01,
801,2.60e+01,-2.00e-01,
802,2.64e+01,2.00e-01,
803,2.52e+01,-2.00e-01,
804,2.60e+01,0.00e+00,
805,2.52e+01,-2.00e-01,
806,2.60e+01,2.00e-01,
807,2.52e+01,-4.00e-01,
808,2.52e+01,-2.00e-01,
809,2.60e+01,2.00e-01,
810,2.52e+01,2.00e-01,
811,2.60e+01,0.00e+00,
812,2.52e+01,-2.00e-01,
813,2.56e+01,0.00e+00,
814,2.60e+01,0.00e+00,
815,2.56e+01,-2.00e-01,
816,2.60e+01,-2.00e-01,
817,2.52e+01,2.00e-01,
818,2.52e+01,0.00e+00,
819,2.56e+01,-2.00e-01,
820,2.56e+01,-2.00e-01,
821,2.60e+01,2.00e-01,
822,2.60e+01,2.00e-01,
823,2.52e+01,-2.00e-01,
824,2.52e+01,-2.00e-01,
825,2.60e+01,2.00e-01,
826,2.52e+01,2.00e-01,
827,2.60e+01,0.00e+00,
828,2.56e+01,0.00e+00,
829,2.60e+01,-2.00e-01,
830,2.60e+01,0.00e+00,
831,2.52e+01,-2.00e-01,
832,2.52e+01,-2.00e-01,
833,2.60e+01,0.00e+00,
834,2.56e+01,-2.00e-01,
835,2.60e+01,2.00e-01,
836,2.60e+01,2.00e-01,
837,2.52e+01,-2.00e-01,
838,2.52e+01,-2.00e-01,
839,2.60e+01,2.00e-01,
840,2.60e+01,2.00e-01,
841,2.52e+01,-2.00e-01,
842,2.52e+01,2.00e-01,
843,2.60e+01,-2.00e-01,
844,2.60e+01,-2.00e-01,
845,2.52e+01,2.00e-01,
846,2.60e+01,2.00e-01,
847,2.56e+01,-2.00e-01,
848,2.56e+01,-2.00e-01,
849,2.60e+01,0.00e+00,
850,2.56e+01,2.00e-01,
851,2.52e+01,0.00e+00,
852,2.52e+01,-2.00e-01,
853,2.56e+01,2.00e-01,
854,2.60e+01,2.00e-01,
855,2.52e+01,0.00e+00,
856,2.56e+01,-2.00e-01,
857,2.60e+01,0.00e+00,
