Lab1_D7Report/analysis/D7/实验三/H1-H2/新建文件1.csv

X,CH1,CH2,Start,Increment,
Sequence,Volt,Volt,-1.200000e-07,2.000000e-10
0,1.92e+01,1.04e+00,
1,1.92e+01,1.04e+00,
2,1.96e+01,1.04e+00,
3,1.96e+01,1.04e+00,
4,2.00e+01,1.04e+00,
5,2.00e+01,1.04e+00,
6,2.04e+01,1.04e+00,
7,2.04e+01,1.04e+00,
8,2.12e+01,9.60e-01,
9,2.12e+01,9.60e-01,
10,2.12e+01,8.80e-01,
11,2.12e+01,8.80e-01,
12,2.16e+01,8.80e-01,
13,2.16e+01,8.80e-01,
14,2.20e+01,8.00e-01,
15,2.20e+01,8.00e-01,
16,2.24e+01,8.00e-01,
17,2.24e+01,8.00e-01,
18,2.24e+01,8.00e-01,
19,2.24e+01,8.00e-01,
20,2.28e+01,8.00e-01,
21,2.28e+01,8.00e-01,
22,2.32e+01,8.00e-01,
23,2.32e+01,8.00e-01,
24,2.36e+01,7.20e-01,
25,2.36e+01,7.20e-01,
26,2.44e+01,6.40e-01,
27,2.44e+01,6.40e-01,
28,2.44e+01,5.60e-01,
29,2.44e+01,5.60e-01,
30,2.48e+01,4.80e-01,
31,2.48e+01,4.80e-01,
32,2.48e+01,2.40e-01,
33,2.48e+01,2.40e-01,
34,2.56e+01,1.60e-01,
35,2.56e+01,1.60e-01,
36,2.60e+01,1.60e-01,
37,2.60e+01,1.60e-01,
38,2.60e+01,1.60e-01,
39,2.60e+01,1.60e-01,
40,2.60e+01,0.00e+00,
41,2.60e+01,0.00e+00,
42,2.64e+01,0.00e+00,
43,2.64e+01,0.00e+00,
44,2.56e+01,-8.00e-02,
45,2.56e+01,-8.00e-02,
46,2.56e+01,-1.60e-01,
47,2.56e+01,-1.60e-01,
48,2.44e+01,-1.60e-01,
49,2.44e+01,-1.60e-01,
50,2.36e+01,-2.40e-01,
51,2.36e+01,-2.40e-01,
52,2.24e+01,-3.20e-01,
53,2.24e+01,-3.20e-01,
54,2.16e+01,-3.20e-01,
55,2.16e+01,-3.20e-01,
56,2.04e+01,-1.60e-01,
57,2.04e+01,-1.60e-01,
58,1.96e+01,-1.60e-01,
59,1.96e+01,-1.60e-01,
60,1.84e+01,0.00e+00,
61,1.84e+01,0.00e+00,
62,1.76e+01,2.40e-01,
63,1.76e+01,2.40e-01,
64,1.64e+01,4.00e-01,
65,1.64e+01,4.00e-01,
66,1.48e+01,5.60e-01,
67,1.48e+01,5.60e-01,
68,1.40e+01,7.20e-01,
69,1.40e+01,7.20e-01,
70,1.24e+01,8.00e-01,
71,1.24e+01,8.00e-01,
72,1.12e+01,9.60e-01,
73,1.12e+01,9.60e-01,
74,1.00e+01,1.12e+00,
75,1.00e+01,1.12e+00,
76,8.80e+00,1.36e+00,
77,8.80e+00,1.36e+00,
78,7.60e+00,1.52e+00,
79,7.60e+00,1.52e+00,
80,6.80e+00,1.76e+00,
81,6.80e+00,1.76e+00,
82,5.60e+00,2.00e+00,
83,5.60e+00,2.00e+00,
84,4.80e+00,2.24e+00,
85,4.80e+00,2.24e+00,
86,4.00e+00,2.48e+00,
87,4.00e+00,2.48e+00,
88,3.20e+00,2.64e+00,
89,3.20e+00,2.64e+00,
90,2.40e+00,2.80e+00,
91,2.40e+00,2.80e+00,
92,2.00e+00,2.96e+00,
93,2.00e+00,2.96e+00,
94,1.20e+00,3.12e+00,
95,1.20e+00,3.12e+00,
96,4.00e-01,3.36e+00,
97,4.00e-01,3.36e+00,
98,0.00e+00,3.52e+00,
99,0.00e+00,3.52e+00,
100,-4.00e-01,3.68e+00,
101,-4.00e-01,3.68e+00,
102,-8.00e-01,3.92e+00,
103,-8.00e-01,3.92e+00,
104,-8.00e-01,4.16e+00,
105,-8.00e-01,4.16e+00,
106,-8.00e-01,4.32e+00,
107,-8.00e-01,4.32e+00,
108,-1.20e+00,4.48e+00,
109,-1.20e+00,4.48e+00,
110,-1.20e+00,4.56e+00,
111,-1.20e+00,4.56e+00,
112,-1.20e+00,4.64e+00,
113,-1.20e+00,4.64e+00,
114,-8.00e-01,4.72e+00,
115,-8.00e-01,4.72e+00,
116,-4.00e-01,4.80e+00,
117,-4.00e-01,4.80e+00,
118,-4.00e-01,4.88e+00,
119,-4.00e-01,4.88e+00,
120,0.00e+00,4.88e+00,
121,0.00e+00,4.88e+00,
122,8.00e-01,4.96e+00,
123,8.00e-01,4.96e+00,
124,1.20e+00,4.96e+00,
125,1.20e+00,4.96e+00,
126,1.60e+00,4.96e+00,
127,1.60e+00,4.96e+00,
128,2.00e+00,4.96e+00,
129,2.00e+00,4.96e+00,
130,2.40e+00,4.88e+00,
131,2.40e+00,4.88e+00,
132,2.80e+00,4.88e+00,
133,2.80e+00,4.88e+00,
134,2.80e+00,4.80e+00,
135,2.80e+00,4.80e+00,
136,3.60e+00,4.80e+00,
137,3.60e+00,4.80e+00,
138,4.00e+00,4.72e+00,
139,4.00e+00,4.72e+00,
140,4.40e+00,4.72e+00,
141,4.40e+00,4.72e+00,
142,4.80e+00,4.72e+00,
143,4.80e+00,4.72e+00,
144,5.60e+00,4.64e+00,
145,5.60e+00,4.64e+00,
146,6.00e+00,4.56e+00,
147,6.00e+00,4.56e+00,
148,5.60e+00,4.48e+00,
149,5.60e+00,4.48e+00,
150,6.00e+00,4.40e+00,
151,6.00e+00,4.40e+00,
152,6.80e+00,4.32e+00,
153,6.80e+00,4.32e+00,
154,6.80e+00,4.24e+00,
155,6.80e+00,4.24e+00,
156,6.40e+00,4.16e+00,
157,6.40e+00,4.16e+00,
158,6.40e+00,4.08e+00,
159,6.40e+00,4.08e+00,
160,6.40e+00,4.08e+00,
161,6.40e+00,4.08e+00,
162,6.40e+00,4.08e+00,
163,6.40e+00,4.08e+00,
164,6.40e+00,3.92e+00,
165,6.40e+00,3.92e+00,
166,6.40e+00,3.84e+00,
167,6.40e+00,3.84e+00,
168,6.00e+00,3.76e+00,
169,6.00e+00,3.76e+00,
170,5.60e+00,3.76e+00,
171,5.60e+00,3.76e+00,
172,5.60e+00,3.68e+00,
173,5.60e+00,3.68e+00,
174,5.60e+00,3.68e+00,
175,5.60e+00,3.68e+00,
176,5.20e+00,3.76e+00,
177,5.20e+00,3.76e+00,
178,4.40e+00,3.68e+00,
179,4.40e+00,3.68e+00,
180,4.40e+00,3.76e+00,
181,4.40e+00,3.76e+00,
182,4.00e+00,3.92e+00,
183,4.00e+00,3.92e+00,
184,3.60e+00,3.84e+00,
185,3.60e+00,3.84e+00,
186,3.20e+00,3.92e+00,
187,3.20e+00,3.92e+00,
188,2.80e+00,3.92e+00,
189,2.80e+00,3.92e+00,
190,2.40e+00,4.00e+00,
191,2.40e+00,4.00e+00,
192,2.00e+00,4.00e+00,
193,2.00e+00,4.00e+00,
194,1.60e+00,4.00e+00,
195,1.60e+00,4.00e+00,
196,1.20e+00,4.08e+00,
197,1.20e+00,4.08e+00,
198,8.00e-01,4.08e+00,
199,8.00e-01,4.08e+00,
200,4.00e-01,4.16e+00,
201,4.00e-01,4.16e+00,
202,4.00e-01,4.24e+00,
203,4.00e-01,4.24e+00,
204,0.00e+00,4.32e+00,
205,0.00e+00,4.32e+00,
206,-4.00e-01,4.32e+00,
207,-4.00e-01,4.32e+00,
208,-8.00e-01,4.40e+00,
209,-8.00e-01,4.40e+00,
210,-8.00e-01,4.48e+00,
211,-8.00e-01,4.48e+00,
212,-8.00e-01,4.56e+00,
213,-8.00e-01,4.56e+00,
214,-1.20e+00,4.64e+00,
215,-1.20e+00,4.64e+00,
216,-8.00e-01,4.72e+00,
217,-8.00e-01,4.72e+00,
218,-8.00e-01,4.80e+00,
219,-8.00e-01,4.80e+00,
220,0.00e+00,4.88e+00,
221,0.00e+00,4.88e+00,
222,8.00e-01,4.96e+00,
223,8.00e-01,4.96e+00,
224,1.20e+00,4.88e+00,
225,1.20e+00,4.88e+00,
226,1.60e+00,4.72e+00,
227,1.60e+00,4.72e+00,
228,2.40e+00,4.56e+00,
229,2.40e+00,4.56e+00,
230,2.80e+00,4.48e+00,
231,2.80e+00,4.48e+00,
232,3.60e+00,4.32e+00,
233,3.60e+00,4.32e+00,
234,4.40e+00,4.00e+00,
235,4.40e+00,4.00e+00,
236,5.20e+00,3.92e+00,
237,5.20e+00,3.92e+00,
238,6.00e+00,3.68e+00,
239,6.00e+00,3.68e+00,
240,6.80e+00,3.52e+00,
241,6.80e+00,3.52e+00,
242,8.00e+00,3.28e+00,
243,8.00e+00,3.28e+00,
244,9.20e+00,2.96e+00,
245,9.20e+00,2.96e+00,
246,1.04e+01,2.72e+00,
247,1.04e+01,2.72e+00,
248,1.12e+01,2.48e+00,
249,1.12e+01,2.48e+00,
250,1.20e+01,2.16e+00,
251,1.20e+01,2.16e+00,
252,1.32e+01,1.92e+00,
253,1.32e+01,1.92e+00,
254,1.40e+01,1.68e+00,
255,1.40e+01,1.68e+00,
256,1.48e+01,1.52e+00,
257,1.48e+01,1.52e+00,
258,1.56e+01,1.36e+00,
259,1.56e+01,1.36e+00,
260,1.64e+01,1.20e+00,
261,1.64e+01,1.20e+00,
262,1.72e+01,1.04e+00,
263,1.72e+01,1.04e+00,
264,1.80e+01,8.00e-01,
265,1.80e+01,8.00e-01,
266,1.84e+01,6.40e-01,
267,1.84e+01,6.40e-01,
268,1.88e+01,4.00e-01,
269,1.88e+01,4.00e-01,
270,1.92e+01,1.60e-01,
271,1.92e+01,1.60e-01,
272,2.04e+01,-8.00e-02,
273,2.04e+01,-8.00e-02,
274,2.08e+01,-2.40e-01,
275,2.08e+01,-2.40e-01,
276,2.12e+01,-4.00e-01,
277,2.12e+01,-4.00e-01,
278,2.16e+01,-4.80e-01,
279,2.16e+01,-4.80e-01,
280,2.16e+01,-5.60e-01,
281,2.16e+01,-5.60e-01,
282,2.20e+01,-7.20e-01,
283,2.20e+01,-7.20e-01,
284,2.20e+01,-7.20e-01,
285,2.20e+01,-7.20e-01,
286,2.20e+01,-8.00e-01,
287,2.20e+01,-8.00e-01,
288,2.16e+01,-9.60e-01,
289,2.16e+01,-9.60e-01,
290,2.16e+01,-8.80e-01,
291,2.16e+01,-8.80e-01,
292,2.12e+01,-9.60e-01,
293,2.12e+01,-9.60e-01,
294,2.12e+01,-1.04e+00,
295,2.12e+01,-1.04e+00,
296,2.08e+01,-8.80e-01,
297,2.08e+01,-8.80e-01,
298,2.04e+01,-9.60e-01,
299,2.04e+01,-9.60e-01,
300,2.04e+01,-8.80e-01,
301,2.04e+01,-8.80e-01,
302,2.04e+01,-8.00e-01,
303,2.04e+01,-8.00e-01,
304,2.00e+01,-7.20e-01,
305,2.00e+01,-7.20e-01,
306,1.96e+01,-6.40e-01,
307,1.96e+01,-6.40e-01,
308,1.92e+01,-6.40e-01,
309,1.92e+01,-6.40e-01,
310,1.88e+01,-5.60e-01,
311,1.88e+01,-5.60e-01,
312,1.88e+01,-4.80e-01,
313,1.88e+01,-4.80e-01,
314,1.84e+01,-4.80e-01,
315,1.84e+01,-4.80e-01,
316,1.80e+01,-3.20e-01,
317,1.80e+01,-3.20e-01,
318,1.76e+01,-2.40e-01,
319,1.76e+01,-2.40e-01,
320,1.72e+01,-1.60e-01,
321,1.72e+01,-1.60e-01,
322,1.72e+01,0.00e+00,
323,1.72e+01,0.00e+00,
324,1.68e+01,8.00e-02,
325,1.68e+01,8.00e-02,
326,1.68e+01,3.20e-01,
327,1.68e+01,3.20e-01,
328,1.64e+01,3.20e-01,
329,1.64e+01,3.20e-01,
330,1.68e+01,4.00e-01,
331,1.68e+01,4.00e-01,
332,1.72e+01,4.80e-01,
333,1.72e+01,4.80e-01,
334,1.68e+01,5.60e-01,
335,1.68e+01,5.60e-01,
336,1.72e+01,6.40e-01,
337,1.72e+01,6.40e-01,
338,1.72e+01,8.00e-01,
339,1.72e+01,8.00e-01,
340,1.76e+01,8.80e-01,
341,1.76e+01,8.80e-01,
342,1.76e+01,9.60e-01,
343,1.76e+01,9.60e-01,
344,1.80e+01,9.60e-01,
345,1.80e+01,9.60e-01,
346,1.80e+01,1.04e+00,
347,1.80e+01,1.04e+00,
348,1.84e+01,1.04e+00,
349,1.84e+01,1.04e+00,
350,1.88e+01,1.04e+00,
351,1.88e+01,1.04e+00,
352,1.88e+01,9.60e-01,
353,1.88e+01,9.60e-01,
354,1.96e+01,9.60e-01,
355,1.96e+01,9.60e-01,
356,2.00e+01,1.04e+00,
357,2.00e+01,1.04e+00,
358,2.04e+01,1.04e+00,
359,2.04e+01,1.04e+00,
360,2.12e+01,1.04e+00,
361,2.12e+01,1.04e+00,
362,2.16e+01,9.60e-01,
363,2.16e+01,9.60e-01,
364,2.20e+01,8.80e-01,
365,2.20e+01,8.80e-01,
366,2.24e+01,8.80e-01,
367,2.24e+01,8.80e-01,
368,2.28e+01,8.00e-01,
369,2.28e+01,8.00e-01,
370,2.36e+01,7.20e-01,
371,2.36e+01,7.20e-01,
372,2.40e+01,6.40e-01,
373,2.40e+01,6.40e-01,
374,2.40e+01,5.60e-01,
375,2.40e+01,5.60e-01,
376,2.48e+01,5.60e-01,
377,2.48e+01,5.60e-01,
378,2.44e+01,5.60e-01,
379,2.44e+01,5.60e-01,
380,2.44e+01,4.80e-01,
381,2.44e+01,4.80e-01,
382,2.52e+01,4.80e-01,
383,2.52e+01,4.80e-01,
384,2.52e+01,4.00e-01,
385,2.52e+01,4.00e-01,
386,2.56e+01,3.20e-01,
387,2.56e+01,3.20e-01,
388,2.60e+01,2.40e-01,
389,2.60e+01,2.40e-01,
390,2.56e+01,8.00e-02,
391,2.56e+01,8.00e-02,
392,2.60e+01,-8.00e-02,
393,2.60e+01,-8.00e-02,
394,2.56e+01,-1.60e-01,
395,2.56e+01,-1.60e-01,
396,2.48e+01,-1.60e-01,
397,2.48e+01,-1.60e-01,
398,2.40e+01,-2.40e-01,
399,2.40e+01,-2.40e-01,
400,2.32e+01,-1.60e-01,
401,2.32e+01,-1.60e-01,
402,2.20e+01,-1.60e-01,
403,2.20e+01,-1.60e-01,
404,2.12e+01,-1.60e-01,
405,2.12e+01,-1.60e-01,
406,2.00e+01,0.00e+00,
407,2.00e+01,0.00e+00,
408,1.88e+01,0.00e+00,
409,1.88e+01,0.00e+00,
410,1.76e+01,8.00e-02,
411,1.76e+01,8.00e-02,
412,1.72e+01,2.40e-01,
413,1.72e+01,2.40e-01,
414,1.60e+01,3.20e-01,
415,1.60e+01,3.20e-01,
416,1.48e+01,4.80e-01,
417,1.48e+01,4.80e-01,
418,1.32e+01,6.40e-01,
419,1.32e+01,6.40e-01,
420,1.20e+01,8.80e-01,
421,1.20e+01,8.80e-01,
422,1.08e+01,1.12e+00,
423,1.08e+01,1.12e+00,
424,9.60e+00,1.28e+00,
425,9.60e+00,1.28e+00,
426,8.40e+00,1.52e+00,
427,8.40e+00,1.52e+00,
428,7.20e+00,1.68e+00,
429,7.20e+00,1.68e+00,
430,6.00e+00,1.84e+00,
431,6.00e+00,1.84e+00,
432,5.20e+00,2.00e+00,
433,5.20e+00,2.00e+00,
434,4.40e+00,2.24e+00,
435,4.40e+00,2.24e+00,
436,3.60e+00,2.48e+00,
437,3.60e+00,2.48e+00,
438,2.40e+00,2.64e+00,
439,2.40e+00,2.64e+00,
440,2.00e+00,2.88e+00,
441,2.00e+00,2.88e+00,
442,1.20e+00,3.04e+00,
443,1.20e+00,3.04e+00,
444,8.00e-01,3.28e+00,
445,8.00e-01,3.28e+00,
446,0.00e+00,3.52e+00,
447,0.00e+00,3.52e+00,
448,-4.00e-01,3.76e+00,
449,-4.00e-01,3.76e+00,
450,-8.00e-01,3.92e+00,
451,-8.00e-01,3.92e+00,
452,-4.00e-01,4.00e+00,
453,-4.00e-01,4.00e+00,
454,-8.00e-01,4.16e+00,
455,-8.00e-01,4.16e+00,
456,-4.00e-01,4.32e+00,
457,-4.00e-01,4.32e+00,
458,-1.20e+00,4.40e+00,
459,-1.20e+00,4.40e+00,
460,-8.00e-01,4.48e+00,
461,-8.00e-01,4.48e+00,
462,-4.00e-01,4.56e+00,
463,-4.00e-01,4.56e+00,
464,-4.00e-01,4.72e+00,
465,-4.00e-01,4.72e+00,
466,-4.00e-01,4.80e+00,
467,-4.00e-01,4.80e+00,
468,0.00e+00,4.88e+00,
469,0.00e+00,4.88e+00,
470,4.00e-01,4.88e+00,
471,4.00e-01,4.88e+00,
472,8.00e-01,4.96e+00,
473,8.00e-01,4.96e+00,
474,1.20e+00,4.88e+00,
475,1.20e+00,4.88e+00,
476,1.60e+00,4.88e+00,
477,1.60e+00,4.88e+00,
478,2.00e+00,4.96e+00,
479,2.00e+00,4.96e+00,
480,2.00e+00,4.96e+00,
481,2.00e+00,4.96e+00,
482,3.20e+00,4.96e+00,
483,3.20e+00,4.96e+00,
484,3.60e+00,4.88e+00,
485,3.60e+00,4.88e+00,
486,4.00e+00,4.80e+00,
487,4.00e+00,4.80e+00,
488,4.40e+00,4.72e+00,
489,4.40e+00,4.72e+00,
490,4.40e+00,4.64e+00,
491,4.40e+00,4.64e+00,
492,4.80e+00,4.64e+00,
493,4.80e+00,4.64e+00,
494,5.60e+00,4.56e+00,
495,5.60e+00,4.56e+00,
496,6.00e+00,4.56e+00,
497,6.00e+00,4.56e+00,
498,6.00e+00,4.48e+00,
499,6.00e+00,4.48e+00,
500,6.00e+00,4.48e+00,
501,6.00e+00,4.48e+00,
502,6.40e+00,4.32e+00,
503,6.40e+00,4.32e+00,
504,6.40e+00,4.32e+00,
505,6.40e+00,4.32e+00,
506,6.40e+00,4.16e+00,
507,6.40e+00,4.16e+00,
508,6.40e+00,4.08e+00,
509,6.40e+00,4.08e+00,
510,6.40e+00,4.00e+00,
511,6.40e+00,4.00e+00,
512,6.40e+00,3.92e+00,
513,6.40e+00,3.92e+00,
514,6.40e+00,3.84e+00,
515,6.40e+00,3.84e+00,
516,6.40e+00,3.92e+00,
517,6.40e+00,3.92e+00,
518,6.00e+00,3.76e+00,
519,6.00e+00,3.76e+00,
520,6.00e+00,3.76e+00,
521,6.00e+00,3.76e+00,
522,5.60e+00,3.76e+00,
523,5.60e+00,3.76e+00,
524,5.20e+00,3.76e+00,
525,5.20e+00,3.76e+00,
526,4.80e+00,3.76e+00,
527,4.80e+00,3.76e+00,
528,4.40e+00,3.76e+00,
529,4.40e+00,3.76e+00,
530,4.40e+00,3.84e+00,
531,4.40e+00,3.84e+00,
532,4.00e+00,3.76e+00,
533,4.00e+00,3.76e+00,
534,3.60e+00,3.76e+00,
535,3.60e+00,3.76e+00,
536,3.20e+00,3.92e+00,
537,3.20e+00,3.92e+00,
538,2.80e+00,3.92e+00,
539,2.80e+00,3.92e+00,
540,2.40e+00,3.92e+00,
541,2.40e+00,3.92e+00,
542,2.00e+00,4.08e+00,
543,2.00e+00,4.08e+00,
544,1.60e+00,4.08e+00,
545,1.60e+00,4.08e+00,
546,1.20e+00,4.16e+00,
547,1.20e+00,4.16e+00,
548,8.00e-01,4.16e+00,
549,8.00e-01,4.16e+00,
550,4.00e-01,4.16e+00,
551,4.00e-01,4.16e+00,
552,0.00e+00,4.32e+00,
553,0.00e+00,4.32e+00,
554,-4.00e-01,4.32e+00,
555,-4.00e-01,4.32e+00,
556,-8.00e-01,4.32e+00,
557,-8.00e-01,4.32e+00,
558,-8.00e-01,4.48e+00,
559,-8.00e-01,4.48e+00,
560,-1.20e+00,4.48e+00,
561,-1.20e+00,4.48e+00,
562,-8.00e-01,4.64e+00,
563,-8.00e-01,4.64e+00,
564,-4.00e-01,4.64e+00,
565,-4.00e-01,4.64e+00,
566,-8.00e-01,4.80e+00,
567,-8.00e-01,4.80e+00,
568,0.00e+00,4.88e+00,
569,0.00e+00,4.88e+00,
570,4.00e-01,4.88e+00,
571,4.00e-01,4.88e+00,
572,8.00e-01,4.80e+00,
573,8.00e-01,4.80e+00,
574,1.20e+00,4.80e+00,
575,1.20e+00,4.80e+00,
576,1.60e+00,4.72e+00,
577,1.60e+00,4.72e+00,
578,2.80e+00,4.64e+00,
579,2.80e+00,4.64e+00,
580,3.20e+00,4.48e+00,
581,3.20e+00,4.48e+00,
582,4.00e+00,4.24e+00,
583,4.00e+00,4.24e+00,
584,4.80e+00,4.00e+00,
585,4.80e+00,4.00e+00,
586,5.60e+00,3.76e+00,
587,5.60e+00,3.76e+00,
588,6.40e+00,3.52e+00,
589,6.40e+00,3.52e+00,
590,7.20e+00,3.28e+00,
591,7.20e+00,3.28e+00,
592,8.00e+00,3.04e+00,
593,8.00e+00,3.04e+00,
594,9.20e+00,2.80e+00,
595,9.20e+00,2.80e+00,
596,1.08e+01,2.56e+00,
597,1.08e+01,2.56e+00,
598,1.12e+01,2.40e+00,
599,1.12e+01,2.40e+00,
600,1.24e+01,2.16e+00,
601,1.24e+01,2.16e+00,
602,1.32e+01,1.92e+00,
603,1.32e+01,1.92e+00,
604,1.48e+01,1.76e+00,
605,1.48e+01,1.76e+00,
606,1.56e+01,1.44e+00,
607,1.56e+01,1.44e+00,
608,1.64e+01,1.28e+00,
609,1.64e+01,1.28e+00,
610,1.72e+01,1.04e+00,
611,1.72e+01,1.04e+00,
612,1.80e+01,8.80e-01,
613,1.80e+01,8.80e-01,
614,1.88e+01,6.40e-01,
615,1.88e+01,6.40e-01,
616,1.92e+01,4.80e-01,
617,1.92e+01,4.80e-01,
618,1.96e+01,3.20e-01,
619,1.96e+01,3.20e-01,
620,2.00e+01,8.00e-02,
621,2.00e+01,8.00e-02,
622,2.08e+01,-8.00e-02,
623,2.08e+01,-8.00e-02,
624,2.08e+01,-1.60e-01,
625,2.08e+01,-1.60e-01,
626,2.12e+01,-4.00e-01,
627,2.12e+01,-4.00e-01,
628,2.12e+01,-5.60e-01,
629,2.12e+01,-5.60e-01,
630,2.12e+01,-6.40e-01,
631,2.12e+01,-6.40e-01,
632,2.16e+01,-8.80e-01,
633,2.16e+01,-8.80e-01,
634,2.16e+01,-9.60e-01,
635,2.16e+01,-9.60e-01,
636,2.16e+01,-9.60e-01,
637,2.16e+01,-9.60e-01,
638,2.16e+01,-8.80e-01,
639,2.16e+01,-8.80e-01,
640,2.12e+01,-9.60e-01,
641,2.12e+01,-9.60e-01,
642,2.12e+01,-8.80e-01,
643,2.12e+01,-8.80e-01,
644,2.12e+01,-8.80e-01,
645,2.12e+01,-8.80e-01,
646,2.12e+01,-8.80e-01,
647,2.12e+01,-8.80e-01,
648,2.08e+01,-8.80e-01,
649,2.08e+01,-8.80e-01,
650,2.04e+01,-8.00e-01,
651,2.04e+01,-8.00e-01,
652,2.04e+01,-8.00e-01,
653,2.04e+01,-8.00e-01,
654,2.00e+01,-8.00e-01,
655,2.00e+01,-8.00e-01,
656,1.96e+01,-6.40e-01,
657,1.96e+01,-6.40e-01,
658,1.92e+01,-5.60e-01,
659,1.92e+01,-5.60e-01,
660,1.84e+01,-4.80e-01,
661,1.84e+01,-4.80e-01,
662,1.84e+01,-4.00e-01,
663,1.84e+01,-4.00e-01,
664,1.80e+01,-3.20e-01,
665,1.80e+01,-3.20e-01,
666,1.76e+01,-1.60e-01,
667,1.76e+01,-1.60e-01,
668,1.72e+01,-1.60e-01,
669,1.72e+01,-1.60e-01,
670,1.68e+01,0.00e+00,
671,1.68e+01,0.00e+00,
672,1.68e+01,8.00e-02,
673,1.68e+01,8.00e-02,
674,1.72e+01,8.00e-02,
675,1.72e+01,8.00e-02,
676,1.72e+01,3.20e-01,
677,1.72e+01,3.20e-01,
678,1.68e+01,4.00e-01,
679,1.68e+01,4.00e-01,
680,1.68e+01,5.60e-01,
681,1.68e+01,5.60e-01,
682,1.68e+01,6.40e-01,
683,1.68e+01,6.40e-01,
684,1.68e+01,7.20e-01,
685,1.68e+01,7.20e-01,
686,1.72e+01,8.00e-01,
687,1.72e+01,8.00e-01,
688,1.72e+01,8.00e-01,
689,1.72e+01,8.00e-01,
690,1.76e+01,8.80e-01,
691,1.76e+01,8.80e-01,
692,1.80e+01,8.80e-01,
693,1.80e+01,8.80e-01,
694,1.84e+01,8.80e-01,
695,1.84e+01,8.80e-01,
696,1.88e+01,1.04e+00,
697,1.88e+01,1.04e+00,
698,1.88e+01,9.60e-01,
699,1.88e+01,9.60e-01,
700,1.92e+01,1.04e+00,
701,1.92e+01,1.04e+00,
702,1.96e+01,1.04e+00,
703,1.96e+01,1.04e+00,
704,2.00e+01,1.04e+00,
705,2.00e+01,1.04e+00,
706,2.04e+01,1.04e+00,
707,2.04e+01,1.04e+00,
708,2.04e+01,9.60e-01,
709,2.04e+01,9.60e-01,
710,2.08e+01,9.60e-01,
711,2.08e+01,9.60e-01,
712,2.16e+01,8.80e-01,
713,2.16e+01,8.80e-01,
714,2.20e+01,8.80e-01,
715,2.20e+01,8.80e-01,
716,2.24e+01,8.80e-01,
717,2.24e+01,8.80e-01,
718,2.28e+01,8.00e-01,
719,2.28e+01,8.00e-01,
720,2.36e+01,7.20e-01,
721,2.36e+01,7.20e-01,
722,2.44e+01,7.20e-01,
723,2.44e+01,7.20e-01,
724,2.44e+01,6.40e-01,
725,2.44e+01,6.40e-01,
726,2.48e+01,5.60e-01,
727,2.48e+01,5.60e-01,
728,2.48e+01,4.80e-01,
729,2.48e+01,4.80e-01,
730,2.52e+01,4.00e-01,
731,2.52e+01,4.00e-01,
732,2.60e+01,2.40e-01,
733,2.60e+01,2.40e-01,
734,2.60e+01,2.40e-01,
735,2.60e+01,2.40e-01,
736,2.56e+01,2.40e-01,
737,2.56e+01,2.40e-01,
738,2.60e+01,1.60e-01,
739,2.60e+01,1.60e-01,
740,2.56e+01,8.00e-02,
741,2.56e+01,8.00e-02,
742,2.56e+01,8.00e-02,
743,2.56e+01,8.00e-02,
744,2.52e+01,0.00e+00,
745,2.52e+01,0.00e+00,
746,2.44e+01,0.00e+00,
747,2.44e+01,0.00e+00,
748,2.36e+01,-8.00e-02,
749,2.36e+01,-8.00e-02,
750,2.28e+01,-1.60e-01,
751,2.28e+01,-1.60e-01,
752,2.16e+01,-1.60e-01,
753,2.16e+01,-1.60e-01,
754,2.08e+01,-2.40e-01,
755,2.08e+01,-2.40e-01,
756,1.96e+01,-8.00e-02,
757,1.96e+01,-8.00e-02,
758,1.88e+01,0.00e+00,
759,1.88e+01,0.00e+00,
760,1.76e+01,1.60e-01,
761,1.76e+01,1.60e-01,
762,1.64e+01,3.20e-01,
763,1.64e+01,3.20e-01,
764,1.52e+01,4.80e-01,
765,1.52e+01,4.80e-01,
766,1.44e+01,6.40e-01,
767,1.44e+01,6.40e-01,
768,1.32e+01,8.00e-01,
769,1.32e+01,8.00e-01,
770,1.16e+01,9.60e-01,
771,1.16e+01,9.60e-01,
772,1.04e+01,1.12e+00,
773,1.04e+01,1.12e+00,
774,9.20e+00,1.28e+00,
775,9.20e+00,1.28e+00,
776,8.00e+00,1.52e+00,
777,8.00e+00,1.52e+00,
778,6.80e+00,1.76e+00,
779,6.80e+00,1.76e+00,
780,5.60e+00,1.92e+00,
781,5.60e+00,1.92e+00,
782,4.80e+00,2.24e+00,
783,4.80e+00,2.24e+00,
784,4.00e+00,2.40e+00,
785,4.00e+00,2.40e+00,
786,3.20e+00,2.64e+00,
787,3.20e+00,2.64e+00,
788,2.40e+00,2.80e+00,
789,2.40e+00,2.80e+00,
790,1.60e+00,2.96e+00,
791,1.60e+00,2.96e+00,
792,1.20e+00,3.12e+00,
793,1.20e+00,3.12e+00,
794,8.00e-01,3.28e+00,
795,8.00e-01,3.28e+00,
796,4.00e-01,3.52e+00,
797,4.00e-01,3.52e+00,
798,-8.00e-01,3.68e+00,
799,-8.00e-01,3.68e+00,
800,-8.00e-01,3.92e+00,
801,-8.00e-01,3.92e+00,
802,-1.20e+00,4.08e+00,
803,-1.20e+00,4.08e+00,
804,-8.00e-01,4.24e+00,
805,-8.00e-01,4.24e+00,
806,-8.00e-01,4.48e+00,
807,-8.00e-01,4.48e+00,
808,-8.00e-01,4.56e+00,
809,-8.00e-01,4.56e+00,
810,-8.00e-01,4.64e+00,
811,-8.00e-01,4.64e+00,
812,-4.00e-01,4.72e+00,
813,-4.00e-01,4.72e+00,
814,0.00e+00,4.72e+00,
815,0.00e+00,4.72e+00,
816,4.00e-01,4.72e+00,
817,4.00e-01,4.72e+00,
818,4.00e-01,4.88e+00,
819,4.00e-01,4.88e+00,
820,8.00e-01,4.88e+00,
821,8.00e-01,4.88e+00,
822,1.20e+00,4.96e+00,
823,1.20e+00,4.96e+00,
824,1.60e+00,4.96e+00,
825,1.60e+00,4.96e+00,
826,2.00e+00,4.96e+00,
827,2.00e+00,4.96e+00,
828,2.00e+00,4.96e+00,
829,2.00e+00,4.96e+00,
830,2.80e+00,4.88e+00,
831,2.80e+00,4.88e+00,
832,3.20e+00,4.80e+00,
833,3.20e+00,4.80e+00,
834,3.60e+00,4.80e+00,
835,3.60e+00,4.80e+00,
836,4.00e+00,4.80e+00,
837,4.00e+00,4.80e+00,
838,4.40e+00,4.72e+00,
839,4.40e+00,4.72e+00,
840,4.80e+00,4.64e+00,
841,4.80e+00,4.64e+00,
842,5.20e+00,4.56e+00,
843,5.20e+00,4.56e+00,
844,5.60e+00,4.56e+00,
845,5.60e+00,4.56e+00,
846,6.00e+00,4.48e+00,
847,6.00e+00,4.48e+00,
848,6.00e+00,4.40e+00,
849,6.00e+00,4.40e+00,
850,6.00e+00,4.40e+00,
851,6.00e+00,4.40e+00,
852,6.40e+00,4.24e+00,
853,6.40e+00,4.24e+00,
854,6.40e+00,4.16e+00,
855,6.40e+00,4.16e+00,
856,6.40e+00,4.08e+00,
857,6.40e+00,4.08e+00,
858,6.40e+00,4.08e+00,
859,6.40e+00,4.08e+00,
860,6.40e+00,4.00e+00,
