Lab1_D7Report/analysis/D7/实验一/RS/新建文件1.csv

X,CH1,Start,Increment,
Sequence,Volt,-6.000000e-07,1.000000e-09
0,0.00e+00,
1,0.00e+00,
2,0.00e+00,
3,0.00e+00,
4,0.00e+00,
5,-4.00e-01,
6,0.00e+00,
7,0.00e+00,
8,0.00e+00,
9,0.00e+00,
10,0.00e+00,
11,0.00e+00,
12,0.00e+00,
13,0.00e+00,
14,0.00e+00,
15,0.00e+00,
16,-4.00e-01,
17,0.00e+00,
18,0.00e+00,
19,0.00e+00,
20,-4.00e-01,
21,-4.00e-01,
22,0.00e+00,
23,-4.00e-01,
24,-4.00e-01,
25,0.00e+00,
26,-4.00e-01,
27,0.00e+00,
28,0.00e+00,
29,0.00e+00,
30,0.00e+00,
31,-4.00e-01,
32,-4.00e-01,
33,-4.00e-01,
34,0.00e+00,
35,-4.00e-01,
36,0.00e+00,
37,0.00e+00,
38,0.00e+00,
39,0.00e+00,
40,0.00e+00,
41,0.00e+00,
42,0.00e+00,
43,0.00e+00,
44,0.00e+00,
45,0.00e+00,
46,0.00e+00,
47,0.00e+00,
48,0.00e+00,
49,0.00e+00,
50,0.00e+00,
51,0.00e+00,
52,0.00e+00,
53,0.00e+00,
54,0.00e+00,
55,0.00e+00,
56,0.00e+00,
57,0.00e+00,
58,0.00e+00,
59,0.00e+00,
60,-4.00e-01,
61,-4.00e-01,
62,-4.00e-01,
63,-4.00e-01,
64,0.00e+00,
65,-4.00e-01,
66,0.00e+00,
67,4.00e-01,
68,4.00e-01,
69,4.00e-01,
70,0.00e+00,
71,4.00e-01,
72,0.00e+00,
73,0.00e+00,
74,0.00e+00,
75,0.00e+00,
76,0.00e+00,
77,0.00e+00,
78,-4.00e-01,
79,-4.00e-01,
80,0.00e+00,
81,-4.00e-01,
82,0.00e+00,
83,-8.00e-01,
84,0.00e+00,
85,0.00e+00,
86,0.00e+00,
87,0.00e+00,
88,0.00e+00,
89,0.00e+00,
90,0.00e+00,
91,0.00e+00,
92,0.00e+00,
93,0.00e+00,
94,0.00e+00,
95,0.00e+00,
96,0.00e+00,
97,-4.00e-01,
98,0.00e+00,
99,0.00e+00,
100,0.00e+00,
101,0.00e+00,
102,0.00e+00,
103,0.00e+00,
104,0.00e+00,
105,-4.00e-01,
106,0.00e+00,
107,-4.00e-01,
108,-4.00e-01,
109,-4.00e-01,
110,0.00e+00,
111,0.00e+00,
112,0.00e+00,
113,0.00e+00,
114,-4.00e-01,
115,-4.00e-01,
116,0.00e+00,
117,0.00e+00,
118,0.00e+00,
119,-4.00e-01,
120,0.00e+00,
121,0.00e+00,
122,0.00e+00,
123,0.00e+00,
124,0.00e+00,
125,0.00e+00,
126,0.00e+00,
127,-4.00e-01,
128,-4.00e-01,
129,-4.00e-01,
130,-4.00e-01,
131,-4.00e-01,
132,-4.00e-01,
133,0.00e+00,
134,0.00e+00,
135,0.00e+00,
136,0.00e+00,
137,-4.00e-01,
138,-4.00e-01,
139,-4.00e-01,
140,0.00e+00,
141,0.00e+00,
142,0.00e+00,
143,0.00e+00,
144,0.00e+00,
145,0.00e+00,
146,0.00e+00,
147,0.00e+00,
148,0.00e+00,
149,0.00e+00,
150,0.00e+00,
151,-4.00e-01,
152,-4.00e-01,
153,0.00e+00,
154,-4.00e-01,
155,-4.00e-01,
156,0.00e+00,
157,0.00e+00,
158,0.00e+00,
159,0.00e+00,
160,0.00e+00,
161,0.00e+00,
162,-4.00e-01,
163,-4.00e-01,
164,0.00e+00,
165,0.00e+00,
166,0.00e+00,
167,-4.00e-01,
168,0.00e+00,
169,0.00e+00,
170,0.00e+00,
171,0.00e+00,
172,0.00e+00,
173,0.00e+00,
174,0.00e+00,
175,0.00e+00,
176,0.00e+00,
177,0.00e+00,
178,0.00e+00,
179,-4.00e-01,
180,0.00e+00,
181,-4.00e-01,
182,0.00e+00,
183,0.00e+00,
184,0.00e+00,
185,-4.00e-01,
186,0.00e+00,
187,-4.00e-01,
188,-4.00e-01,
189,0.00e+00,
190,-4.00e-01,
191,-4.00e-01,
192,0.00e+00,
193,-4.00e-01,
194,-4.00e-01,
195,-4.00e-01,
196,-4.00e-01,
197,-4.00e-01,
198,-4.00e-01,
199,-4.00e-01,
200,-4.00e-01,
201,-4.00e-01,
202,0.00e+00,
203,-4.00e-01,
204,-4.00e-01,
205,-4.00e-01,
206,-4.00e-01,
207,-4.00e-01,
208,-4.00e-01,
209,0.00e+00,
210,-4.00e-01,
211,-4.00e-01,
212,0.00e+00,
213,-4.00e-01,
214,-4.00e-01,
215,-4.00e-01,
216,0.00e+00,
217,-4.00e-01,
218,-4.00e-01,
219,-4.00e-01,
220,-4.00e-01,
221,-4.00e-01,
222,0.00e+00,
223,0.00e+00,
224,0.00e+00,
225,-4.00e-01,
226,0.00e+00,
227,-4.00e-01,
228,-4.00e-01,
229,0.00e+00,
230,0.00e+00,
231,0.00e+00,
232,0.00e+00,
233,0.00e+00,
234,-4.00e-01,
235,-4.00e-01,
236,-4.00e-01,
237,0.00e+00,
238,-4.00e-01,
239,-4.00e-01,
240,0.00e+00,
241,-4.00e-01,
242,0.00e+00,
243,0.00e+00,
244,0.00e+00,
245,0.00e+00,
246,-4.00e-01,
247,-4.00e-01,
248,-4.00e-01,
249,0.00e+00,
250,0.00e+00,
251,0.00e+00,
252,0.00e+00,
253,0.00e+00,
254,0.00e+00,
255,0.00e+00,
256,0.00e+00,
257,0.00e+00,
258,0.00e+00,
259,0.00e+00,
260,0.00e+00,
261,0.00e+00,
262,0.00e+00,
263,0.00e+00,
264,0.00e+00,
265,0.00e+00,
266,0.00e+00,
267,0.00e+00,
268,0.00e+00,
269,0.00e+00,
270,0.00e+00,
271,-4.00e-01,
272,-4.00e-01,
273,-4.00e-01,
274,-4.00e-01,
275,-4.00e-01,
276,-4.00e-01,
277,-4.00e-01,
278,0.00e+00,
279,0.00e+00,
280,0.00e+00,
281,-4.00e-01,
282,-4.00e-01,
283,-4.00e-01,
284,-4.00e-01,
285,0.00e+00,
286,0.00e+00,
287,0.00e+00,
288,0.00e+00,
289,0.00e+00,
290,0.00e+00,
291,-4.00e-01,
292,0.00e+00,
293,0.00e+00,
294,0.00e+00,
295,-4.00e-01,
296,-4.00e-01,
297,-4.00e-01,
298,0.00e+00,
299,-4.00e-01,
300,0.00e+00,
301,-4.00e-01,
302,0.00e+00,
303,0.00e+00,
304,0.00e+00,
305,0.00e+00,
306,0.00e+00,
307,0.00e+00,
308,0.00e+00,
309,0.00e+00,
310,0.00e+00,
311,-4.00e-01,
312,-4.00e-01,
313,0.00e+00,
314,0.00e+00,
315,0.00e+00,
316,0.00e+00,
317,0.00e+00,
318,0.00e+00,
319,0.00e+00,
320,0.00e+00,
321,0.00e+00,
322,0.00e+00,
323,-4.00e-01,
324,-4.00e-01,
325,0.00e+00,
326,-4.00e-01,
327,-4.00e-01,
328,-4.00e-01,
329,0.00e+00,
330,0.00e+00,
331,0.00e+00,
332,0.00e+00,
333,0.00e+00,
334,-4.00e-01,
335,0.00e+00,
336,0.00e+00,
337,0.00e+00,
338,0.00e+00,
339,0.00e+00,
340,0.00e+00,
341,0.00e+00,
342,0.00e+00,
343,0.00e+00,
344,0.00e+00,
345,0.00e+00,
346,0.00e+00,
347,0.00e+00,
348,-4.00e-01,
349,-4.00e-01,
350,-4.00e-01,
351,-4.00e-01,
352,-4.00e-01,
353,-4.00e-01,
354,0.00e+00,
355,-4.00e-01,
356,0.00e+00,
357,-4.00e-01,
358,-4.00e-01,
359,-4.00e-01,
360,-4.00e-01,
361,0.00e+00,
362,-4.00e-01,
363,0.00e+00,
364,0.00e+00,
365,0.00e+00,
366,0.00e+00,
367,0.00e+00,
368,0.00e+00,
369,0.00e+00,
370,0.00e+00,
371,0.00e+00,
372,-4.00e-01,
373,-4.00e-01,
374,0.00e+00,
375,0.00e+00,
376,0.00e+00,
377,0.00e+00,
378,0.00e+00,
379,0.00e+00,
380,0.00e+00,
381,0.00e+00,
382,0.00e+00,
383,0.00e+00,
384,0.00e+00,
385,-4.00e-01,
386,0.00e+00,
387,-4.00e-01,
388,-4.00e-01,
389,0.00e+00,
390,-4.00e-01,
391,0.00e+00,
392,0.00e+00,
393,0.00e+00,
394,-4.00e-01,
395,-4.00e-01,
396,-4.00e-01,
397,-4.00e-01,
398,0.00e+00,
399,-4.00e-01,
400,-4.00e-01,
401,0.00e+00,
402,0.00e+00,
403,0.00e+00,
404,-4.00e-01,
405,0.00e+00,
406,-4.00e-01,
407,-4.00e-01,
408,-4.00e-01,
409,0.00e+00,
410,-4.00e-01,
411,0.00e+00,
412,0.00e+00,
413,-4.00e-01,
414,-4.00e-01,
415,0.00e+00,
416,0.00e+00,
417,0.00e+00,
418,0.00e+00,
419,0.00e+00,
420,0.00e+00,
421,0.00e+00,
422,0.00e+00,
423,0.00e+00,
424,0.00e+00,
425,-4.00e-01,
426,-4.00e-01,
427,-4.00e-01,
428,-4.00e-01,
429,-4.00e-01,
430,0.00e+00,
431,0.00e+00,
432,0.00e+00,
433,0.00e+00,
434,0.00e+00,
435,-4.00e-01,
436,-4.00e-01,
437,0.00e+00,
438,0.00e+00,
439,0.00e+00,
440,0.00e+00,
441,0.00e+00,
442,0.00e+00,
443,0.00e+00,
444,0.00e+00,
445,0.00e+00,
446,0.00e+00,
447,0.00e+00,
448,0.00e+00,
449,-4.00e-01,
450,0.00e+00,
451,-4.00e-01,
452,-4.00e-01,
453,-4.00e-01,
454,-4.00e-01,
455,0.00e+00,
456,0.00e+00,
457,0.00e+00,
458,-4.00e-01,
459,-4.00e-01,
460,0.00e+00,
461,-4.00e-01,
462,0.00e+00,
463,0.00e+00,
464,0.00e+00,
465,0.00e+00,
466,0.00e+00,
467,0.00e+00,
468,0.00e+00,
469,0.00e+00,
470,0.00e+00,
471,-4.00e-01,
472,-4.00e-01,
473,-4.00e-01,
474,0.00e+00,
475,0.00e+00,
476,0.00e+00,
477,0.00e+00,
478,0.00e+00,
479,0.00e+00,
480,0.00e+00,
481,0.00e+00,
482,0.00e+00,
483,0.00e+00,
484,-4.00e-01,
485,0.00e+00,
486,0.00e+00,
487,0.00e+00,
488,0.00e+00,
489,0.00e+00,
490,-4.00e-01,
491,0.00e+00,
492,-4.00e-01,
493,0.00e+00,
494,4.00e-01,
495,0.00e+00,
496,0.00e+00,
497,0.00e+00,
498,0.00e+00,
499,-4.00e-01,
500,0.00e+00,
501,-4.00e-01,
502,-4.00e-01,
503,-4.00e-01,
504,-4.00e-01,
505,-4.00e-01,
506,0.00e+00,
507,-4.00e-01,
508,-4.00e-01,
509,-4.00e-01,
510,0.00e+00,
511,-4.00e-01,
512,-4.00e-01,
513,0.00e+00,
514,-4.00e-01,
515,-4.00e-01,
516,0.00e+00,
517,0.00e+00,
518,0.00e+00,
519,-4.00e-01,
520,-4.00e-01,
521,-4.00e-01,
522,-4.00e-01,
523,-4.00e-01,
524,0.00e+00,
525,-4.00e-01,
526,0.00e+00,
527,0.00e+00,
528,0.00e+00,
529,-4.00e-01,
530,-4.00e-01,
531,0.00e+00,
532,-4.00e-01,
533,0.00e+00,
534,0.00e+00,
535,-4.00e-01,
536,0.00e+00,
537,0.00e+00,
538,0.00e+00,
539,0.00e+00,
540,0.00e+00,
541,0.00e+00,
542,0.00e+00,
543,-4.00e-01,
544,0.00e+00,
545,0.00e+00,
546,0.00e+00,
547,0.00e+00,
548,-4.00e-01,
549,-4.00e-01,
550,0.00e+00,
551,-4.00e-01,
552,0.00e+00,
553,0.00e+00,
554,0.00e+00,
555,0.00e+00,
556,0.00e+00,
557,0.00e+00,
558,0.00e+00,
559,0.00e+00,
560,0.00e+00,
561,0.00e+00,
562,0.00e+00,
563,-4.00e-01,
564,-4.00e-01,
565,0.00e+00,
566,-4.00e-01,
567,0.00e+00,
568,0.00e+00,
569,0.00e+00,
570,0.00e+00,
571,0.00e+00,
572,0.00e+00,
573,0.00e+00,
574,0.00e+00,
575,0.00e+00,
576,0.00e+00,
577,0.00e+00,
578,0.00e+00,
579,-4.00e-01,
580,-4.00e-01,
581,-4.00e-01,
582,0.00e+00,
583,0.00e+00,
584,0.00e+00,
585,-4.00e-01,
586,0.00e+00,
587,0.00e+00,
588,0.00e+00,
589,0.00e+00,
590,0.00e+00,
591,0.00e+00,
592,0.00e+00,
593,0.00e+00,
594,0.00e+00,
595,0.00e+00,
596,-4.00e-01,
597,-4.00e-01,
598,2.40e+00,
599,6.80e+00,
600,1.16e+01,
601,1.52e+01,
602,1.92e+01,
603,2.36e+01,
604,2.72e+01,
605,3.00e+01,
606,3.16e+01,
607,3.40e+01,
608,3.56e+01,
609,3.64e+01,
610,3.64e+01,
611,3.60e+01,
612,3.56e+01,
613,3.48e+01,
614,3.36e+01,
615,3.28e+01,
616,3.16e+01,
617,2.96e+01,
618,2.84e+01,
619,2.76e+01,
620,2.60e+01,
621,2.48e+01,
622,2.36e+01,
623,2.28e+01,
624,2.20e+01,
625,2.12e+01,
626,2.04e+01,
627,2.00e+01,
628,1.96e+01,
629,2.00e+01,
630,2.00e+01,
631,2.04e+01,
632,2.08e+01,
633,2.16e+01,
634,2.24e+01,
635,2.36e+01,
636,2.48e+01,
637,2.64e+01,
638,2.72e+01,
639,2.84e+01,
640,2.88e+01,
641,2.96e+01,
642,3.04e+01,
643,3.04e+01,
644,2.96e+01,
645,2.96e+01,
646,2.88e+01,
647,2.84e+01,
648,2.72e+01,
649,2.64e+01,
650,2.56e+01,
651,2.56e+01,
652,2.48e+01,
653,2.44e+01,
654,2.40e+01,
655,2.40e+01,
656,2.40e+01,
657,2.40e+01,
658,2.40e+01,
659,2.44e+01,
660,2.44e+01,
661,2.48e+01,
662,2.48e+01,
663,2.52e+01,
664,2.52e+01,
665,2.52e+01,
666,2.16e+01,
667,1.56e+01,
668,1.12e+01,
669,7.60e+00,
670,3.20e+00,
671,-2.00e+00,
672,-5.60e+00,
673,-8.80e+00,
674,-1.08e+01,
675,-1.32e+01,
676,-1.40e+01,
677,-1.44e+01,
678,-1.32e+01,
679,-1.24e+01,
680,-1.12e+01,
681,-1.00e+01,
682,-8.40e+00,
683,-6.40e+00,
684,-4.80e+00,
685,-3.20e+00,
686,-1.60e+00,
687,0.00e+00,
688,1.60e+00,
689,2.40e+00,
690,3.60e+00,
691,4.40e+00,
692,5.20e+00,
693,6.00e+00,
694,6.40e+00,
695,7.20e+00,
696,7.20e+00,
697,7.60e+00,
698,7.20e+00,
699,6.80e+00,
700,6.40e+00,
701,5.60e+00,
702,4.00e+00,
703,2.40e+00,
704,8.00e-01,
705,-8.00e-01,
706,-2.40e+00,
707,-4.40e+00,
708,-5.60e+00,
709,-6.40e+00,
710,-6.80e+00,
711,-8.00e+00,
712,-7.20e+00,
713,-6.80e+00,
714,-6.00e+00,
715,-4.80e+00,
716,-4.00e+00,
717,-2.00e+00,
718,-1.20e+00,
719,0.00e+00,
720,1.60e+00,
721,2.40e+00,
722,3.20e+00,
723,3.20e+00,
724,3.60e+00,
725,3.60e+00,
726,3.60e+00,
727,2.80e+00,
728,2.40e+00,
729,2.40e+00,
730,2.00e+00,
731,1.60e+00,
732,1.20e+00,
733,0.00e+00,
734,4.00e-01,
735,4.00e-01,
736,0.00e+00,
737,0.00e+00,
738,0.00e+00,
739,-4.00e-01,
740,-4.00e-01,
741,-4.00e-01,
742,-8.00e-01,
743,-1.20e+00,
744,-1.60e+00,
745,-2.40e+00,
746,-2.80e+00,
747,-3.20e+00,
748,-2.80e+00,
749,-3.20e+00,
750,-2.80e+00,
751,-2.80e+00,
752,-1.60e+00,
753,-1.20e+00,
754,-4.00e-01,
755,4.00e-01,
756,1.20e+00,
757,1.60e+00,
758,2.80e+00,
759,3.20e+00,
760,3.60e+00,
761,3.60e+00,
762,3.20e+00,
763,3.20e+00,
764,2.40e+00,
765,1.60e+00,
766,1.20e+00,
767,4.00e-01,
768,-4.00e-01,
769,-1.20e+00,
770,-1.60e+00,
771,-2.80e+00,
772,-2.80e+00,
773,-3.20e+00,
774,-2.80e+00,
775,-2.80e+00,
776,-2.40e+00,
777,-2.00e+00,
778,-1.60e+00,
779,-1.20e+00,
780,-8.00e-01,
781,0.00e+00,
782,4.00e-01,
783,4.00e-01,
784,8.00e-01,
785,8.00e-01,
786,1.20e+00,
787,1.20e+00,
788,1.60e+00,
789,1.20e+00,
790,8.00e-01,
791,1.20e+00,
792,1.20e+00,
793,8.00e-01,
794,8.00e-01,
795,8.00e-01,
796,8.00e-01,
797,8.00e-01,
798,4.00e-01,
799,0.00e+00,
800,0.00e+00,
801,-4.00e-01,
802,-4.00e-01,
803,-8.00e-01,
804,-1.20e+00,
805,-1.20e+00,
806,-1.60e+00,
807,-2.00e+00,
808,-1.60e+00,
809,-2.00e+00,
810,-1.20e+00,
811,-1.60e+00,
812,-1.20e+00,
813,-8.00e-01,
814,-4.00e-01,
815,0.00e+00,
816,4.00e-01,
817,1.20e+00,
818,1.60e+00,
819,1.60e+00,
820,1.60e+00,
821,2.00e+00,
822,1.20e+00,
823,8.00e-01,
824,1.20e+00,
825,8.00e-01,
826,4.00e-01,
827,-4.00e-01,
828,-4.00e-01,
829,-1.20e+00,
830,-8.00e-01,
831,-1.20e+00,
832,-1.20e+00,
833,-1.20e+00,
834,-1.20e+00,
835,-1.20e+00,
836,-1.20e+00,
837,-8.00e-01,
838,-8.00e-01,
839,-4.00e-01,
840,0.00e+00,
841,4.00e-01,
842,4.00e-01,
843,4.00e-01,
844,4.00e-01,
845,4.00e-01,
846,8.00e-01,
847,4.00e-01,
848,4.00e-01,
849,0.00e+00,
850,4.00e-01,
851,0.00e+00,
852,0.00e+00,
853,0.00e+00,
854,0.00e+00,
855,-4.00e-01,
856,0.00e+00,
857,0.00e+00,
858,0.00e+00,
859,0.00e+00,
860,0.00e+00,
861,-8.00e-01,
862,-4.00e-01,
863,-8.00e-01,
864,-4.00e-01,
865,-4.00e-01,
866,-8.00e-01,
867,-8.00e-01,
868,-8.00e-01,
869,-8.00e-01,
870,-8.00e-01,
871,-4.00e-01,
872,0.00e+00,
873,0.00e+00,
874,-4.00e-01,
875,0.00e+00,
876,0.00e+00,
877,4.00e-01,
878,8.00e-01,
879,4.00e-01,
880,8.00e-01,
881,8.00e-01,
882,8.00e-01,
883,4.00e-01,
884,4.00e-01,
885,0.00e+00,
886,0.00e+00,
887,0.00e+00,
888,0.00e+00,
889,-8.00e-01,
890,-8.00e-01,
891,-8.00e-01,
892,-8.00e-01,
893,-4.00e-01,
894,-8.00e-01,
895,-4.00e-01,
896,-4.00e-01,
897,-4.00e-01,
898,0.00e+00,
899,-4.00e-01,
900,0.00e+00,
901,-4.00e-01,
902,4.00e-01,
903,0.00e+00,
904,4.00e-01,
905,4.00e-01,
906,4.00e-01,
907,0.00e+00,
908,-4.00e-01,
909,0.00e+00,
910,0.00e+00,
911,0.00e+00,
912,0.00e+00,
913,0.00e+00,
914,0.00e+00,
915,0.00e+00,
916,0.00e+00,
917,4.00e-01,
918,4.00e-01,
919,0.00e+00,
920,4.00e-01,
921,-4.00e-01,
922,0.00e+00,
923,0.00e+00,
924,0.00e+00,
925,-4.00e-01,
926,0.00e+00,
927,-4.00e-01,
928,0.00e+00,
929,-4.00e-01,
930,-4.00e-01,
931,-4.00e-01,
932,0.00e+00,
933,0.00e+00,
934,0.00e+00,
935,0.00e+00,
936,0.00e+00,
937,0.00e+00,
938,0.00e+00,
939,4.00e-01,
940,4.00e-01,
941,4.00e-01,
942,4.00e-01,
943,4.00e-01,
944,4.00e-01,
945,0.00e+00,
946,-4.00e-01,
947,0.00e+00,
948,-4.00e-01,
949,0.00e+00,
950,0.00e+00,
951,-4.00e-01,
952,-4.00e-01,
953,0.00e+00,
954,-4.00e-01,
955,-4.00e-01,
956,0.00e+00,
957,0.00e+00,
958,0.00e+00,
959,0.00e+00,
960,0.00e+00,
961,0.00e+00,
962,-4.00e-01,
963,-4.00e-01,
964,0.00e+00,
965,-4.00e-01,
966,-4.00e-01,
967,-4.00e-01,
968,-4.00e-01,
969,0.00e+00,
970,0.00e+00,
971,0.00e+00,
972,0.00e+00,
973,-4.00e-01,
974,0.00e+00,
975,-4.00e-01,
976,0.00e+00,
977,0.00e+00,
978,4.00e-01,
979,0.00e+00,
980,0.00e+00,
981,0.00e+00,
982,-4.00e-01,
983,0.00e+00,
984,-4.00e-01,
985,0.00e+00,
986,0.00e+00,
987,-8.00e-01,
988,-4.00e-01,
989,0.00e+00,
990,-4.00e-01,
991,-8.00e-01,
992,0.00e+00,
993,0.00e+00,
994,0.00e+00,
995,-4.00e-01,
996,0.00e+00,
997,-4.00e-01,
998,0.00e+00,
999,0.00e+00,
1000,0.00e+00,
1001,0.00e+00,
1002,0.00e+00,
1003,0.00e+00,
1004,-4.00e-01,
1005,0.00e+00,
1006,0.00e+00,
1007,0.00e+00,
1008,0.00e+00,
1009,0.00e+00,
1010,0.00e+00,
1011,0.00e+00,
1012,-4.00e-01,
1013,0.00e+00,
1014,0.00e+00,
1015,0.00e+00,
1016,-4.00e-01,
1017,-4.00e-01,
1018,0.00e+00,
1019,0.00e+00,
1020,0.00e+00,
1021,0.00e+00,
1022,0.00e+00,
1023,0.00e+00,
1024,0.00e+00,
1025,0.00e+00,
1026,0.00e+00,
1027,0.00e+00,
1028,-4.00e-01,
1029,0.00e+00,
1030,0.00e+00,
1031,0.00e+00,
1032,0.00e+00,
1033,0.00e+00,
1034,0.00e+00,
1035,0.00e+00,
1036,0.00e+00,
1037,0.00e+00,
1038,0.00e+00,
1039,-4.00e-01,
1040,0.00e+00,
1041,0.00e+00,
1042,0.00e+00,
1043,-4.00e-01,
1044,-4.00e-01,
1045,0.00e+00,
1046,-4.00e-01,
1047,-4.00e-01,
1048,0.00e+00,
1049,-4.00e-01,
1050,0.00e+00,
1051,0.00e+00,
1052,0.00e+00,
1053,0.00e+00,
1054,-4.00e-01,
1055,-4.00e-01,
1056,-4.00e-01,
1057,0.00e+00,
1058,-4.00e-01,
1059,0.00e+00,
1060,0.00e+00,
1061,0.00e+00,
1062,0.00e+00,
1063,0.00e+00,
1064,0.00e+00,
1065,0.00e+00,
1066,0.00e+00,
1067,0.00e+00,
1068,0.00e+00,
1069,0.00e+00,
1070,0.00e+00,
1071,0.00e+00,
1072,0.00e+00,
1073,0.00e+00,
1074,0.00e+00,
1075,0.00e+00,
1076,0.00e+00,
1077,4.00e-01,
1078,0.00e+00,
1079,0.00e+00,
1080,4.00e-01,
1081,0.00e+00,
1082,0.00e+00,
1083,-4.00e-01,
1084,-4.00e-01,
1085,-4.00e-01,
1086,-4.00e-01,
1087,0.00e+00,
1088,-4.00e-01,
1089,0.00e+00,
1090,-4.00e-01,
1091,0.00e+00,
1092,0.00e+00,
1093,-4.00e-01,
1094,0.00e+00,
1095,-4.00e-01,
1096,0.00e+00,
1097,0.00e+00,
1098,0.00e+00,
1099,0.00e+00,
1100,0.00e+00,
1101,-4.00e-01,
1102,-4.00e-01,
1103,0.00e+00,
1104,-4.00e-01,
1105,0.00e+00,
1106,0.00e+00,
1107,0.00e+00,
1108,0.00e+00,
1109,0.00e+00,
1110,0.00e+00,
1111,0.00e+00,
1112,0.00e+00,
1113,0.00e+00,
1114,0.00e+00,
1115,0.00e+00,
1116,0.00e+00,
1117,0.00e+00,
1118,0.00e+00,
1119,0.00e+00,
1120,-4.00e-01,
1121,0.00e+00,
1122,0.00e+00,
1123,0.00e+00,
1124,0.00e+00,
1125,0.00e+00,
1126,0.00e+00,
1127,0.00e+00,
1128,-4.00e-01,
1129,0.00e+00,
1130,-4.00e-01,
1131,-4.00e-01,
1132,-4.00e-01,
1133,0.00e+00,
1134,0.00e+00,
1135,0.00e+00,
1136,0.00e+00,
1137,-4.00e-01,
1138,-4.00e-01,
1139,0.00e+00,
1140,0.00e+00,
1141,0.00e+00,
1142,0.00e+00,
1143,0.00e+00,
1144,0.00e+00,
1145,0.00e+00,
1146,0.00e+00,
1147,0.00e+00,
1148,0.00e+00,
1149,0.00e+00,
1150,-4.00e-01,
1151,-4.00e-01,
1152,-4.00e-01,
1153,-4.00e-01,
1154,-4.00e-01,
1155,-4.00e-01,
1156,0.00e+00,
1157,0.00e+00,
1158,0.00e+00,
1159,0.00e+00,
1160,-4.00e-01,
1161,-4.00e-01,
1162,-4.00e-01,
1163,0.00e+00,
1164,0.00e+00,
1165,0.00e+00,
1166,0.00e+00,
1167,0.00e+00,
1168,0.00e+00,
1169,0.00e+00,
1170,0.00e+00,
1171,0.00e+00,
1172,0.00e+00,
1173,0.00e+00,
1174,-4.00e-01,
1175,-4.00e-01,
1176,0.00e+00,
1177,-4.00e-01,
1178,-4.00e-01,
1179,0.00e+00,
1180,0.00e+00,
1181,0.00e+00,
1182,0.00e+00,
1183,0.00e+00,
1184,0.00e+00,
1185,-4.00e-01,
1186,-4.00e-01,
1187,0.00e+00,
1188,0.00e+00,
1189,0.00e+00,
1190,-4.00e-01,
1191,0.00e+00,
1192,0.00e+00,
1193,0.00e+00,
1194,0.00e+00,
1195,0.00e+00,
1196,0.00e+00,
1197,0.00e+00,
1198,0.00e+00,
1199,0.00e+00,
