Lab1_D7Report/analysis/D7/实验一/CCD输出/新建文件1.csv

X,CH1,Start,Increment,
Sequence,Volt,-3.000000e-06,5.000000e-09
0,0.00e+00,
1,2.00e-01,
2,0.00e+00,
3,4.00e-01,
4,3.00e-01,
5,0.00e+00,
6,3.00e-01,
7,-1.00e-01,
8,0.00e+00,
9,2.00e-01,
10,0.00e+00,
11,4.00e-01,
12,2.00e-01,
13,5.00e-01,
14,3.00e-01,
15,8.00e-01,
16,6.00e-01,
17,9.00e-01,
18,7.00e-01,
19,1.10e+00,
20,1.00e+00,
21,1.50e+00,
22,1.70e+00,
23,1.50e+00,
24,1.80e+00,
25,1.30e+00,
26,1.30e+00,
27,9.00e-01,
28,1.00e+00,
29,6.00e-01,
30,6.00e-01,
31,9.00e-01,
32,8.00e-01,
33,5.00e-01,
34,6.00e-01,
35,1.70e+00,
36,1.80e+00,
37,3.40e+00,
38,3.70e+00,
39,5.00e+00,
40,5.10e+00,
41,6.60e+00,
42,6.70e+00,
43,8.60e+00,
44,8.70e+00,
45,1.03e+01,
46,1.06e+01,
47,1.19e+01,
48,1.20e+01,
49,1.36e+01,
50,1.37e+01,
51,1.56e+01,
52,1.57e+01,
53,1.69e+01,
54,1.68e+01,
55,1.75e+01,
56,1.75e+01,
57,1.77e+01,
58,1.76e+01,
59,1.68e+01,
60,1.67e+01,
61,1.55e+01,
62,1.55e+01,
63,1.42e+01,
64,1.41e+01,
65,1.32e+01,
66,1.31e+01,
67,1.21e+01,
68,1.20e+01,
69,1.11e+01,
70,1.12e+01,
71,1.09e+01,
72,1.09e+01,
73,1.12e+01,
74,1.11e+01,
75,1.20e+01,
76,1.18e+01,
77,1.26e+01,
78,1.26e+01,
79,1.34e+01,
80,1.35e+01,
81,1.43e+01,
82,1.43e+01,
83,1.50e+01,
84,1.49e+01,
85,1.53e+01,
86,1.52e+01,
87,1.54e+01,
88,1.54e+01,
89,1.50e+01,
90,1.51e+01,
91,1.43e+01,
92,1.44e+01,
93,1.39e+01,
94,1.39e+01,
95,1.33e+01,
96,1.34e+01,
97,1.27e+01,
98,1.29e+01,
99,1.25e+01,
100,1.25e+01,
101,1.27e+01,
102,1.25e+01,
103,1.28e+01,
104,1.26e+01,
105,1.28e+01,
106,1.28e+01,
107,1.34e+01,
108,1.34e+01,
109,1.38e+01,
110,1.37e+01,
111,1.41e+01,
112,1.40e+01,
113,1.43e+01,
114,1.41e+01,
115,1.44e+01,
116,1.44e+01,
117,1.42e+01,
118,1.43e+01,
119,1.40e+01,
120,1.39e+01,
121,1.41e+01,
122,1.41e+01,
123,1.36e+01,
124,1.37e+01,
125,1.33e+01,
126,1.34e+01,
127,1.31e+01,
128,1.31e+01,
129,1.34e+01,
130,1.34e+01,
131,1.30e+01,
132,1.31e+01,
133,1.28e+01,
134,1.31e+01,
135,1.36e+01,
136,1.35e+01,
137,1.38e+01,
138,1.35e+01,
139,1.38e+01,
140,1.36e+01,
141,1.38e+01,
142,1.37e+01,
143,1.39e+01,
144,1.40e+01,
145,1.37e+01,
146,1.36e+01,
147,1.38e+01,
148,1.35e+01,
149,1.38e+01,
150,1.37e+01,
151,1.34e+01,
152,1.35e+01,
153,1.32e+01,
154,1.34e+01,
155,1.31e+01,
156,1.31e+01,
157,1.34e+01,
158,1.33e+01,
159,1.31e+01,
160,1.30e+01,
161,1.33e+01,
162,1.30e+01,
163,1.34e+01,
164,1.32e+01,
165,1.35e+01,
166,1.35e+01,
167,1.32e+01,
168,1.32e+01,
169,1.35e+01,
170,1.33e+01,
171,1.37e+01,
172,1.36e+01,
173,1.33e+01,
174,1.34e+01,
175,1.28e+01,
176,1.27e+01,
177,1.18e+01,
178,1.16e+01,
179,1.01e+01,
180,9.80e+00,
181,8.20e+00,
182,8.10e+00,
183,6.60e+00,
184,6.40e+00,
185,4.90e+00,
186,4.70e+00,
187,3.10e+00,
188,2.90e+00,
189,1.10e+00,
190,1.30e+00,
191,2.00e-01,
192,1.00e-01,
193,3.00e-01,
194,4.00e-01,
195,1.00e-01,
196,2.00e-01,
197,0.00e+00,
198,0.00e+00,
199,3.00e-01,
200,0.00e+00,
201,2.00e-01,
202,-1.00e-01,
203,1.00e-01,
204,-1.00e-01,
205,2.00e-01,
206,2.00e-01,
207,-1.00e-01,
208,2.00e-01,
209,-1.00e-01,
210,-1.00e-01,
211,1.00e-01,
212,-1.00e-01,
213,3.00e-01,
214,3.00e-01,
215,-1.00e-01,
216,-1.00e-01,
217,2.00e-01,
218,-1.00e-01,
219,2.00e-01,
220,3.00e-01,
221,-1.00e-01,
222,2.00e-01,
223,-1.00e-01,
224,2.00e-01,
225,-1.00e-01,
226,3.00e-01,
227,-1.00e-01,
228,2.00e-01,
229,-1.00e-01,
230,2.00e-01,
231,-2.00e-01,
232,-1.00e-01,
233,1.00e-01,
234,0.00e+00,
235,2.00e-01,
236,2.00e-01,
237,0.00e+00,
238,2.00e-01,
239,-1.00e-01,
240,-1.00e-01,
241,2.00e-01,
242,0.00e+00,
243,3.00e-01,
244,2.00e-01,
245,-1.00e-01,
246,0.00e+00,
247,4.00e-01,
248,4.00e-01,
249,0.00e+00,
250,1.00e-01,
251,4.00e-01,
252,2.00e-01,
253,7.00e-01,
254,6.00e-01,
255,9.00e-01,
256,1.10e+00,
257,7.00e-01,
258,9.00e-01,
259,1.40e+00,
260,1.40e+00,
261,2.30e+00,
262,2.30e+00,
263,1.60e+00,
264,1.50e+00,
265,1.00e+00,
266,9.00e-01,
267,7.00e-01,
268,1.00e+00,
269,4.00e-01,
270,6.00e-01,
271,3.00e-01,
272,5.00e-01,
273,2.00e-01,
274,1.00e-01,
275,4.00e-01,
276,4.00e-01,
277,0.00e+00,
278,2.00e-01,
279,-1.00e-01,
280,2.00e-01,
281,0.00e+00,
282,1.00e-01,
283,3.00e-01,
284,0.00e+00,
285,3.00e-01,
286,3.00e-01,
287,0.00e+00,
288,0.00e+00,
289,3.00e-01,
290,4.00e-01,
291,0.00e+00,
292,2.00e-01,
293,5.00e-01,
294,6.00e-01,
295,3.00e-01,
296,5.00e-01,
297,9.00e-01,
298,7.00e-01,
299,1.00e+00,
300,8.00e-01,
301,1.60e+00,
302,1.40e+00,
303,1.90e+00,
304,1.80e+00,
305,1.40e+00,
306,1.50e+00,
307,1.20e+00,
308,1.50e+00,
309,2.30e+00,
310,2.50e+00,
311,3.60e+00,
312,3.60e+00,
313,4.80e+00,
314,5.10e+00,
315,6.80e+00,
316,6.90e+00,
317,8.50e+00,
318,8.80e+00,
319,1.01e+01,
320,1.02e+01,
321,1.18e+01,
322,1.19e+01,
323,1.37e+01,
324,1.38e+01,
325,1.53e+01,
326,1.54e+01,
327,1.63e+01,
328,1.63e+01,
329,1.70e+01,
330,1.69e+01,
331,1.73e+01,
332,1.72e+01,
333,1.65e+01,
334,1.63e+01,
335,1.50e+01,
336,1.49e+01,
337,1.41e+01,
338,1.41e+01,
339,1.32e+01,
340,1.31e+01,
341,1.21e+01,
342,1.20e+01,
343,1.13e+01,
344,1.14e+01,
345,1.11e+01,
346,1.12e+01,
347,1.15e+01,
348,1.15e+01,
349,1.20e+01,
350,1.20e+01,
351,1.28e+01,
352,1.28e+01,
353,1.37e+01,
354,1.37e+01,
355,1.43e+01,
356,1.43e+01,
357,1.49e+01,
358,1.48e+01,
359,1.52e+01,
360,1.50e+01,
361,1.53e+01,
362,1.51e+01,
363,1.46e+01,
364,1.48e+01,
365,1.42e+01,
366,1.43e+01,
367,1.38e+01,
368,1.37e+01,
369,1.32e+01,
370,1.33e+01,
371,1.27e+01,
372,1.26e+01,
373,1.30e+01,
374,1.28e+01,
375,1.26e+01,
376,1.26e+01,
377,1.28e+01,
378,1.27e+01,
379,1.31e+01,
380,1.31e+01,
381,1.34e+01,
382,1.34e+01,
383,1.37e+01,
384,1.36e+01,
385,1.39e+01,
386,1.38e+01,
387,1.44e+01,
388,1.44e+01,
389,1.41e+01,
390,1.43e+01,
391,1.41e+01,
392,1.40e+01,
393,1.43e+01,
394,1.39e+01,
395,1.41e+01,
396,1.38e+01,
397,1.35e+01,
398,1.36e+01,
399,1.32e+01,
400,1.32e+01,
401,1.34e+01,
402,1.34e+01,
403,1.31e+01,
404,1.33e+01,
405,1.30e+01,
406,1.31e+01,
407,1.33e+01,
408,1.32e+01,
409,1.35e+01,
410,1.33e+01,
411,1.36e+01,
412,1.35e+01,
413,1.38e+01,
414,1.37e+01,
415,1.40e+01,
416,1.38e+01,
417,1.41e+01,
418,1.40e+01,
419,1.37e+01,
420,1.36e+01,
421,1.40e+01,
422,1.36e+01,
423,1.39e+01,
424,1.38e+01,
425,1.34e+01,
426,1.36e+01,
427,1.32e+01,
428,1.34e+01,
429,1.32e+01,
430,1.31e+01,
431,1.34e+01,
432,1.33e+01,
433,1.30e+01,
434,1.30e+01,
435,1.33e+01,
436,1.31e+01,
437,1.33e+01,
438,1.33e+01,
439,1.31e+01,
440,1.32e+01,
441,1.34e+01,
442,1.33e+01,
443,1.37e+01,
444,1.37e+01,
445,1.33e+01,
446,1.35e+01,
447,1.33e+01,
448,1.35e+01,
449,1.33e+01,
450,1.36e+01,
451,1.32e+01,
452,1.33e+01,
453,1.27e+01,
454,1.26e+01,
455,1.13e+01,
456,1.12e+01,
457,9.70e+00,
458,9.60e+00,
459,8.10e+00,
460,7.90e+00,
461,6.10e+00,
462,6.00e+00,
463,4.50e+00,
464,4.30e+00,
465,2.70e+00,
466,2.60e+00,
467,1.00e+00,
468,1.00e+00,
469,-1.00e-01,
470,1.00e-01,
471,5.00e-01,
472,3.00e-01,
473,1.00e-01,
474,2.00e-01,
475,-1.00e-01,
476,-1.00e-01,
477,2.00e-01,
478,3.00e-01,
479,0.00e+00,
480,1.00e-01,
481,-1.00e-01,
482,-1.00e-01,
483,1.00e-01,
484,0.00e+00,
485,2.00e-01,
486,2.00e-01,
487,-2.00e-01,
488,-1.00e-01,
489,1.00e-01,
490,-1.00e-01,
491,2.00e-01,
492,3.00e-01,
493,0.00e+00,
494,3.00e-01,
495,-1.00e-01,
496,2.00e-01,
497,-2.00e-01,
498,0.00e+00,
499,3.00e-01,
500,2.00e-01,
501,0.00e+00,
502,2.00e-01,
503,-1.00e-01,
504,-1.00e-01,
505,2.00e-01,
506,2.00e-01,
507,-1.00e-01,
508,-1.00e-01,
509,2.00e-01,
510,-1.00e-01,
511,2.00e-01,
512,-1.00e-01,
513,2.00e-01,
514,3.00e-01,
515,-1.00e-01,
516,1.00e-01,
517,-1.00e-01,
518,2.00e-01,
519,-1.00e-01,
520,3.00e-01,
521,0.00e+00,
522,2.00e-01,
523,-1.00e-01,
524,-1.00e-01,
525,3.00e-01,
526,0.00e+00,
527,5.00e-01,
528,2.00e-01,
529,4.00e-01,
530,3.00e-01,
531,7.00e-01,
532,4.00e-01,
533,1.10e+00,
534,1.20e+00,
535,8.00e-01,
536,9.00e-01,
537,1.40e+00,
538,1.40e+00,
539,2.10e+00,
540,2.10e+00,
541,1.50e+00,
542,1.60e+00,
543,9.00e-01,
544,9.00e-01,
545,5.00e-01,
546,9.00e-01,
547,4.00e-01,
548,6.00e-01,
549,3.00e-01,
550,5.00e-01,
551,1.00e-01,
552,1.00e-01,
553,3.00e-01,
554,4.00e-01,
555,0.00e+00,
556,4.00e-01,
557,0.00e+00,
558,3.00e-01,
559,0.00e+00,
560,-1.00e-01,
561,2.00e-01,
562,3.00e-01,
563,0.00e+00,
564,2.00e-01,
565,-1.00e-01,
566,2.00e-01,
567,-1.00e-01,
568,1.00e-01,
569,5.00e-01,
570,5.00e-01,
571,2.00e-01,
572,4.00e-01,
573,6.00e-01,
574,5.00e-01,
575,1.00e+00,
576,1.10e+00,
577,8.00e-01,
578,1.10e+00,
579,1.70e+00,
580,1.80e+00,
581,1.40e+00,
582,1.70e+00,
583,1.10e+00,
584,1.20e+00,
585,7.00e-01,
586,1.00e+00,
587,6.00e-01,
588,7.00e-01,
589,1.10e+00,
590,1.30e+00,
591,2.20e+00,
592,2.20e+00,
593,3.50e+00,
594,3.60e+00,
595,5.30e+00,
596,5.50e+00,
597,7.00e+00,
598,7.40e+00,
599,8.70e+00,
600,8.90e+00,
601,1.05e+01,
602,1.05e+01,
603,1.26e+01,
604,1.27e+01,
605,1.40e+01,
606,1.44e+01,
607,1.56e+01,
608,1.57e+01,
609,1.69e+01,
610,1.68e+01,
611,1.76e+01,
612,1.76e+01,
613,1.74e+01,
614,1.73e+01,
615,1.64e+01,
616,1.63e+01,
617,1.54e+01,
618,1.53e+01,
619,1.41e+01,
620,1.40e+01,
621,1.28e+01,
622,1.27e+01,
623,1.17e+01,
624,1.17e+01,
625,1.13e+01,
626,1.13e+01,
627,1.10e+01,
628,1.09e+01,
629,1.13e+01,
630,1.12e+01,
631,1.20e+01,
632,1.20e+01,
633,1.28e+01,
634,1.28e+01,
635,1.37e+01,
636,1.37e+01,
637,1.44e+01,
638,1.44e+01,
639,1.50e+01,
640,1.50e+01,
641,1.53e+01,
642,1.51e+01,
643,1.54e+01,
644,1.52e+01,
645,1.49e+01,
646,1.49e+01,
647,1.43e+01,
648,1.42e+01,
649,1.37e+01,
650,1.37e+01,
651,1.31e+01,
652,1.33e+01,
653,1.29e+01,
654,1.29e+01,
655,1.25e+01,
656,1.24e+01,
657,1.26e+01,
658,1.25e+01,
659,1.28e+01,
660,1.27e+01,
661,1.31e+01,
662,1.30e+01,
663,1.33e+01,
664,1.33e+01,
665,1.37e+01,
666,1.37e+01,
667,1.42e+01,
668,1.41e+01,
669,1.43e+01,
670,1.42e+01,
671,1.45e+01,
672,1.41e+01,
673,1.43e+01,
674,1.44e+01,
675,1.40e+01,
676,1.42e+01,
677,1.38e+01,
678,1.37e+01,
679,1.35e+01,
680,1.36e+01,
681,1.33e+01,
682,1.35e+01,
683,1.32e+01,
684,1.34e+01,
685,1.31e+01,
686,1.30e+01,
687,1.32e+01,
688,1.29e+01,
689,1.32e+01,
690,1.32e+01,
691,1.37e+01,
692,1.34e+01,
693,1.37e+01,
694,1.36e+01,
695,1.39e+01,
696,1.37e+01,
697,1.39e+01,
698,1.37e+01,
699,1.40e+01,
700,1.37e+01,
701,1.40e+01,
702,1.37e+01,
703,1.40e+01,
704,1.38e+01,
705,1.35e+01,
706,1.37e+01,
707,1.33e+01,
708,1.33e+01,
709,1.35e+01,
710,1.35e+01,
711,1.31e+01,
712,1.30e+01,
713,1.32e+01,
714,1.30e+01,
715,1.33e+01,
716,1.31e+01,
717,1.33e+01,
718,1.31e+01,
719,1.34e+01,
720,1.31e+01,
721,1.33e+01,
722,1.33e+01,
723,1.35e+01,
724,1.34e+01,
725,1.36e+01,
726,1.36e+01,
727,1.32e+01,
728,1.32e+01,
729,1.35e+01,
730,1.34e+01,
731,1.28e+01,
732,1.27e+01,
733,1.12e+01,
734,1.12e+01,
735,9.60e+00,
736,9.50e+00,
737,8.00e+00,
738,8.00e+00,
739,6.10e+00,
740,6.00e+00,
741,4.30e+00,
742,4.30e+00,
743,2.60e+00,
744,2.50e+00,
745,9.00e-01,
746,7.00e-01,
747,0.00e+00,
748,0.00e+00,
749,4.00e-01,
750,5.00e-01,
751,2.00e-01,
752,3.00e-01,
753,-1.00e-01,
754,-1.00e-01,
755,2.00e-01,
756,2.00e-01,
757,-1.00e-01,
758,2.00e-01,
759,-1.00e-01,
760,-1.00e-01,
761,2.00e-01,
762,-2.00e-01,
763,1.00e-01,
764,-1.00e-01,
765,2.00e-01,
766,-1.00e-01,
767,2.00e-01,
768,-1.00e-01,
769,1.00e-01,
770,-1.00e-01,
771,3.00e-01,
772,3.00e-01,
773,-1.00e-01,
774,2.00e-01,
775,-1.00e-01,
776,-1.00e-01,
777,1.00e-01,
778,0.00e+00,
779,2.00e-01,
780,2.00e-01,
781,-1.00e-01,
782,2.00e-01,
783,-1.00e-01,
784,-1.00e-01,
785,2.00e-01,
786,3.00e-01,
787,-1.00e-01,
788,2.00e-01,
789,-1.00e-01,
790,-1.00e-01,
791,2.00e-01,
792,0.00e+00,
793,2.00e-01,
794,2.00e-01,
795,-1.00e-01,
796,3.00e-01,
797,-1.00e-01,
798,-1.00e-01,
799,2.00e-01,
800,2.00e-01,
801,-1.00e-01,
802,0.00e+00,
803,3.00e-01,
804,-1.00e-01,
805,4.00e-01,
806,4.00e-01,
807,7.00e-01,
808,8.00e-01,
809,6.00e-01,
810,6.00e-01,
811,1.00e+00,
812,1.00e+00,
813,1.50e+00,
814,1.50e+00,
815,2.20e+00,
816,2.10e+00,
817,1.70e+00,
818,1.60e+00,
819,1.00e+00,
820,1.20e+00,
821,8.00e-01,
822,1.00e+00,
823,4.00e-01,
824,5.00e-01,
825,2.00e-01,
826,2.00e-01,
827,5.00e-01,
828,5.00e-01,
829,1.00e-01,
830,4.00e-01,
831,0.00e+00,
832,0.00e+00,
833,3.00e-01,
834,3.00e-01,
835,1.00e-01,
836,2.00e-01,
837,-1.00e-01,
838,2.00e-01,
839,-1.00e-01,
840,0.00e+00,
841,3.00e-01,
842,3.00e-01,
843,-1.00e-01,
844,2.00e-01,
845,0.00e+00,
846,1.00e-01,
847,4.00e-01,
848,4.00e-01,
849,6.00e-01,
850,6.00e-01,
851,8.00e-01,
852,5.00e-01,
853,9.00e-01,
854,8.00e-01,
855,1.50e+00,
856,1.40e+00,
857,2.00e+00,
858,1.90e+00,
859,1.40e+00,
860,1.60e+00,
861,1.10e+00,
862,1.20e+00,
863,1.60e+00,
864,1.60e+00,
865,2.40e+00,
866,2.40e+00,
867,3.70e+00,
868,3.90e+00,
869,5.30e+00,
870,5.60e+00,
871,6.90e+00,
872,7.20e+00,
873,8.70e+00,
874,8.80e+00,
875,1.06e+01,
876,1.07e+01,
877,1.23e+01,
878,1.25e+01,
879,1.38e+01,
880,1.39e+01,
881,1.55e+01,
882,1.55e+01,
883,1.68e+01,
884,1.68e+01,
885,1.73e+01,
886,1.74e+01,
887,1.70e+01,
888,1.71e+01,
889,1.63e+01,
890,1.62e+01,
891,1.52e+01,
892,1.51e+01,
893,1.40e+01,
894,1.39e+01,
895,1.27e+01,
896,1.27e+01,
897,1.19e+01,
898,1.19e+01,
899,1.13e+01,
900,1.13e+01,
901,1.10e+01,
902,1.10e+01,
903,1.15e+01,
904,1.16e+01,
905,1.21e+01,
906,1.21e+01,
907,1.30e+01,
908,1.30e+01,
909,1.36e+01,
910,1.37e+01,
911,1.44e+01,
912,1.45e+01,
913,1.50e+01,
914,1.49e+01,
915,1.52e+01,
916,1.50e+01,
917,1.52e+01,
918,1.51e+01,
919,1.47e+01,
920,1.47e+01,
921,1.41e+01,
922,1.42e+01,
923,1.36e+01,
924,1.36e+01,
925,1.33e+01,
926,1.33e+01,
927,1.28e+01,
928,1.28e+01,
929,1.25e+01,
930,1.25e+01,
931,1.27e+01,
932,1.26e+01,
933,1.29e+01,
934,1.28e+01,
935,1.31e+01,
936,1.30e+01,
937,1.34e+01,
938,1.33e+01,
939,1.39e+01,
940,1.39e+01,
941,1.42e+01,
942,1.40e+01,
943,1.43e+01,
944,1.40e+01,
945,1.43e+01,
946,1.42e+01,
947,1.45e+01,
948,1.42e+01,
949,1.40e+01,
950,1.40e+01,
951,1.37e+01,
952,1.36e+01,
953,1.38e+01,
954,1.38e+01,
955,1.34e+01,
956,1.34e+01,
957,1.31e+01,
958,1.32e+01,
959,1.30e+01,
960,1.31e+01,
961,1.33e+01,
962,1.32e+01,
963,1.34e+01,
964,1.32e+01,
965,1.35e+01,
966,1.32e+01,
967,1.37e+01,
968,1.37e+01,
969,1.39e+01,
970,1.37e+01,
971,1.39e+01,
972,1.38e+01,
973,1.40e+01,
974,1.38e+01,
975,1.41e+01,
976,1.40e+01,
977,1.36e+01,
978,1.38e+01,
979,1.35e+01,
980,1.36e+01,
981,1.35e+01,
982,1.36e+01,
983,1.33e+01,
984,1.34e+01,
985,1.30e+01,
986,1.31e+01,
987,1.33e+01,
988,1.34e+01,
989,1.31e+01,
990,1.34e+01,
991,1.31e+01,
992,1.30e+01,
993,1.33e+01,
994,1.32e+01,
995,1.35e+01,
996,1.33e+01,
997,1.36e+01,
998,1.35e+01,
999,1.33e+01,
1000,1.33e+01,
1001,1.36e+01,
1002,1.34e+01,
1003,1.36e+01,
1004,1.35e+01,
1005,1.33e+01,
1006,1.34e+01,
1007,1.31e+01,
1008,1.31e+01,
1009,1.25e+01,
1010,1.25e+01,
1011,1.12e+01,
1012,1.10e+01,
1013,9.20e+00,
1014,9.00e+00,
1015,7.60e+00,
1016,7.40e+00,
1017,5.90e+00,
1018,5.70e+00,
1019,4.00e+00,
1020,3.90e+00,
1021,2.10e+00,
1022,2.20e+00,
1023,7.00e-01,
1024,7.00e-01,
1025,0.00e+00,
1026,4.00e-01,
1027,1.00e-01,
1028,3.00e-01,
1029,0.00e+00,
1030,3.00e-01,
1031,-1.00e-01,
1032,3.00e-01,
1033,-1.00e-01,
1034,3.00e-01,
1035,-1.00e-01,
1036,-1.00e-01,
1037,3.00e-01,
1038,1.00e-01,
1039,-1.00e-01,
1040,-1.00e-01,
1041,1.00e-01,
1042,2.00e-01,
1043,-1.00e-01,
1044,2.00e-01,
1045,-1.00e-01,
1046,2.00e-01,
1047,-1.00e-01,
1048,-1.00e-01,
1049,1.00e-01,
1050,2.00e-01,
1051,-1.00e-01,
1052,-1.00e-01,
1053,3.00e-01,
1054,1.00e-01,
1055,-1.00e-01,
1056,1.00e-01,
1057,-1.00e-01,
1058,3.00e-01,
1059,-1.00e-01,
1060,2.00e-01,
1061,-1.00e-01,
1062,2.00e-01,
1063,-1.00e-01,
1064,-1.00e-01,
1065,2.00e-01,
1066,3.00e-01,
1067,-1.00e-01,
1068,2.00e-01,
1069,-1.00e-01,
1070,-1.00e-01,
1071,2.00e-01,
1072,0.00e+00,
1073,3.00e-01,
1074,0.00e+00,
1075,3.00e-01,
1076,-1.00e-01,
1077,2.00e-01,
1078,2.00e-01,
1079,-1.00e-01,
1080,0.00e+00,
1081,3.00e-01,
1082,1.00e-01,
1083,5.00e-01,
1084,3.00e-01,
1085,7.00e-01,
1086,6.00e-01,
1087,1.00e+00,
1088,7.00e-01,
1089,1.10e+00,
1090,8.00e-01,
1091,1.60e+00,
1092,1.50e+00,
1093,2.30e+00,
1094,2.40e+00,
1095,1.60e+00,
1096,1.50e+00,
1097,9.00e-01,
1098,1.00e+00,
1099,7.00e-01,
1100,9.00e-01,
1101,5.00e-01,
1102,6.00e-01,
1103,3.00e-01,
1104,4.00e-01,
1105,1.00e-01,
1106,4.00e-01,
1107,1.00e-01,
1108,4.00e-01,
1109,0.00e+00,
1110,3.00e-01,
1111,-1.00e-01,
1112,1.00e-01,
1113,3.00e-01,
1114,2.00e-01,
1115,-1.00e-01,
1116,-1.00e-01,
1117,3.00e-01,
1118,3.00e-01,
1119,0.00e+00,
1120,2.00e-01,
1121,-1.00e-01,
1122,0.00e+00,
1123,2.00e-01,
1124,3.00e-01,
1125,0.00e+00,
1126,2.00e-01,
1127,6.00e-01,
1128,5.00e-01,
1129,8.00e-01,
1130,6.00e-01,
1131,1.00e+00,
1132,8.00e-01,
1133,1.10e+00,
1134,1.10e+00,
1135,2.00e+00,
1136,2.10e+00,
1137,1.60e+00,
1138,1.60e+00,
1139,1.10e+00,
1140,1.10e+00,
1141,8.00e-01,
1142,1.00e+00,
1143,8.00e-01,
1144,9.00e-01,
1145,1.30e+00,
1146,1.30e+00,
1147,2.60e+00,
1148,2.60e+00,
1149,4.10e+00,
1150,4.50e+00,
1151,5.70e+00,
1152,5.90e+00,
1153,7.30e+00,
1154,7.50e+00,
1155,9.40e+00,
1156,9.60e+00,
1157,1.10e+01,
1158,1.13e+01,
1159,1.26e+01,
1160,1.29e+01,
1161,1.44e+01,
1162,1.46e+01,
1163,1.61e+01,
1164,1.62e+01,
1165,1.71e+01,
1166,1.71e+01,
1167,1.76e+01,
1168,1.76e+01,
1169,1.71e+01,
1170,1.73e+01,
1171,1.61e+01,
1172,1.61e+01,
1173,1.49e+01,
1174,1.47e+01,
1175,1.37e+01,
1176,1.36e+01,
1177,1.26e+01,
1178,1.25e+01,
1179,1.16e+01,
1180,1.16e+01,
1181,1.10e+01,
1182,1.11e+01,
1183,1.09e+01,
1184,1.10e+01,
1185,1.15e+01,
1186,1.15e+01,
1187,1.23e+01,
1188,1.22e+01,
1189,1.30e+01,
1190,1.30e+01,
1191,1.39e+01,
1192,1.38e+01,
1193,1.45e+01,
1194,1.45e+01,
1195,1.50e+01,
1196,1.50e+01,
1197,1.55e+01,
1198,1.54e+01,
1199,1.50e+01,
